PA0001,dnaA	3869
PA0002,dnaN	1668
PA0003,recF	2548
PA0004,gyrB	4298
PA0005,lptA	738
PA0006	288
PA0007	198
PA0008,glyS	1435
PA0009,glyQ	736
PA0010,tag	45
PA0011	444
PA0012	95
PA0013	110
PA0014	24
PA0015	35
PA0016,trkA	623
PA0017	221
PA0018,fmt	114
PA0019,def	1390
PA0020	1321
PA0021	2
PA0022	72
PA0023,qor	234
PA0024,hemF	807
PA0025,aroE	313
PA0026,plcB	253
PA0027	111
PA0028	43
PA0029	8
PA0030	11
PA0031,betC	10
PA0032	88
PA0033,hptC	8
PA0034	14
PA0035,trpA	144
PA0036,trpB	220
PA0037,trpI	39
PA0038	211
PA0039	926
PA0040	192
PA0041	1508
PA0042	66
PA0043	82
PA0044,exoT	156
PA0045	249
PA0046	262
PA0047	89
PA0048	7
PA0049	34
PA0050	19
PA0051,phzH	25
PA0052	7
PA0053	164
PA0054	27
PA0055	98
PA0056	13
PA0057	20
PA0058	1
PA0059,osmC	46
PA0060	55
PA0061	119
PA0062	41
PA0063	95
PA0064	193
PA0065	130
PA0066	149
PA0067,prlC	1161
PA0068	316
PA0069	46
PA0070,tagQ1	3123
PA0071,tagR1	1748
PA0072,tagS1	59
PA0073,tagT1	33
PA0074,ppkA	617
PA0075,pppA	154
PA0076,tagF1	81
PA0077,tssM1	1222
PA0078,tssL1	286
PA0079,tssK1	353
PA0080,tssJ1	208
PA0081,fha1	534
PA0082,tssA1	719
PA0083,tssB1	935
PA0084,tssC1	4903
PA0085,hcp1	2608
PA0086,tagJ1	477
PA0087,tssE1	219
PA0088,tssF1	813
PA0089,tssG1	347
PA0090,clpV1	1022
PA0091,vgrG1	911
PA0092	226
PA0093	430
PA0094	94
PA0095	951
PA0096	59
PA0097	115
PA0098	66
PA0099	355
PA0100	180
PA0101	61
PA0102	286
PA0103	44
PA0104	18
PA0105,coxB	114
PA0106,coxA	39
PA0107	10
PA0108,coIII	27
PA0109	33
PA0110	7
PA0111	1
PA0112	5
PA0113	25
PA0114,senC	69
PA0115	41
PA0116	121
PA0117	28
PA0118	39
PA0119	260
PA0120	164
PA0121	17
PA0122,rahU	246
PA0123	72
PA0124	49
PA0125	56
PA0126	154
PA0127	90
PA0128	682
PA0129,bauD	71
PA0130,bauC	335
PA0131,bauB	121
PA0132,bauA	371
PA0133,bauR	47
PA0134	127
PA0135	3
PA0136	7
PA0137	3
PA0138	5
PA0139,ahpC	1849
PA0140,ahpF	136
PA0141	752
PA0142	48
PA0143,nuh	158
PA0144	14
PA0145	15
PA0146	9
PA0147	32
PA0148	172
PA0149	10
PA0150	22
PA0151	35
PA0152,pcaQ	24
PA0153,pcaH	5
PA0154,pcaG	11
PA0155,pcaR	65
PA0156,triA	54
PA0157,triB	50
PA0158,triC	584
PA0159	97
PA0160	40
PA0161	309
PA0162,opdC	157
PA0163	34
PA0164	143
PA0165	203
PA0166	7
PA0167	172
PA0168	14
PA0169,siaD	162
PA0170	192
PA0171	165
PA0172,siaA	228
PA0173	3
PA0174	4
PA0175	16
PA0176,aer2	55
PA0177	17
PA0178	73
PA0179	95
PA0180,cttP	77
PA0181	99
PA0182	18
PA0183,atsA	25
PA0184	4
PA0185	14
PA0186	17
PA0187	9
PA0188	4
PA0189	5
PA0190	8
PA0191	17
PA0192	2
PA0193	1
PA0194	3
PA0195,pntAA	20
PA0195.1,pntAB	17
PA0196,pntB	133
PA0197,tonB2	1
PA0198,exbB1	6
PA0199,exbD1	1
PA0200	124
PA0201	113
PA0202	3
PA0203	12
PA0204	7
PA0205	6
PA0206	24
PA0207	55
PA0208,mdcA	44
PA0209	5
PA0210,mdcC	2
PA0211,mdcD	9
PA0212,mdcE	8
PA0213	3
PA0214	26
PA0215	19
PA0216	20
PA0217	69
PA0218	62
PA0219	17
PA0220	12
PA0221	17
PA0222	9
PA0223	97
PA0224	15
PA0225	108
PA0226	44
PA0227	8
PA0228,pcaF	22
PA0229,pcaT	47
PA0230,pcaB	32
PA0231,pcaD	16
PA0232,pcaC	30
PA0233	34
PA0234	7
PA0235,pcaK	16
PA0236	20
PA0237	4
PA0238	5
PA0239	39
PA0240	3
PA0241	3
PA0242	14
PA0243	115
PA0244	4
PA0245,aroQ2	8
PA0246	78
PA0247,pobA	4
PA0248	96
PA0249	18
PA0250	80
PA0251	14
PA0252	29
PA0253	29
PA0254	38
PA0255	56
PA0256	94
PA0257	124
PA0258	97
PA0259	363
PA0260	267
PA0261	51
PA0262	280
PA0263,hcpC	13
PA0263.1	79
PA0264	3
PA0265,gabD	803
PA0266,gabT	773
PA0267	57
PA0268	23
PA0269	14
PA0270	23
PA0271	8
PA0272	54
PA0273	3
PA0274	9
PA0275	58
PA0276	25
PA0277	190
PA0278	12
PA0279	5
PA0280,cysA	191
PA0281,cysW	151
PA0282,cysT	45
PA0283,sbp	90
PA0284	22
PA0285	280
PA0286,desA	1293
PA0287,gpuP	14
PA0288,gpuA	7
PA0289,gpuR	112
PA0290	86
PA0291,oprE	1099
PA0292,aguA	230
PA0293,aguB	80
PA0294,aguR	77
PA0295	185
PA0296,spuI	958
PA0297,spuA	320
PA0298,spuB	748
PA0299,spuC	910
PA0300,spuD	1171
PA0301,spuE	465
PA0302,spuF	398
PA0303,spuG	588
PA0304,spuH	919
PA0305,hacB	98
PA0306	57
PA0307	71
PA0308	102
PA0309	48
PA0310	241
PA0311	1
PA0312	78
PA0313	101
PA0314	160
PA0315	458
PA0316,serA	1509
PA0317	1178
PA0318	273
PA0319	374
PA0320	51
PA0321	14
PA0322	13
PA0323	31
PA0324	5
PA0325	10
PA0326	6
PA0327	92
PA0328	84
PA0329	142
PA0330,rpiA	309
PA0331,ilvA1	598
PA0332	93
PA0333	129
PA0334	100
PA0335	150
PA0336,ygdP	1384
PA0337,ptsP	3589
PA0338	395
PA0339	27
PA0340	393
PA0341,lgt	371
PA0342,thyA	521
PA0343	89
PA0344	51
PA0345	31
PA0346	14
PA0347,glpQ	10
PA0348	25
PA0349	5
PA0350,folA	72
PA0351	84
PA0352	314
PA0353,ilvD	808
PA0354	212
PA0355,pfpI	23
PA0356	252
PA0357,mutM	215
PA0358	104
PA0359	188
PA0360	357
PA0361	194
PA0362,fdx1	307
PA0363,coaD	530
PA0364	82
PA0365	38
PA0366	224
PA0367	201
PA0368	85
PA0369	31
PA0370	131
PA0371	464
PA0372	285
PA0373,ftsY	901
PA0374,ftsE	506
PA0375,ftsX	1520
PA0376,rpoH	2860
PA0377	50
PA0378	99
PA0379	72
PA0380	77
PA0381,thiG	292
PA0382,micA	294
PA0383	28
PA0384	17
PA0385	65
PA0386	90
PA0387	185
PA0388	413
PA0389	360
PA0390,metX	509
PA0391	339
PA0392	654
PA0393,proC	264
PA0394	229
PA0395,pilT	824
PA0396,pilU	667
PA0397	71
PA0398	580
PA0399	168
PA0400	226
PA0401	319
PA0402,pyrB	670
PA0403,pyrR	320
PA0404	37
PA0405	228
PA0406,tonB3	331
PA0407,gshB	126
PA0408,pilG	3042
PA0409,pilH	1262
PA0410,pilI	1296
PA0411,pilJ	3666
PA0412,pilK	1350
PA0413,chpA	4494
PA0414,chpB	265
PA0415,chpC	52
PA0416,chpD	63
PA0417,chpE	15
PA0418	84
PA0419	90
PA0420,bioA	298
PA0421	562
PA0422	3661
PA0423,pasP	2477
PA0424,mexR	126
PA0425,mexA	609
PA0426,mexB	2719
PA0427,oprM	1103
PA0428	1216
PA0429	1246
PA0430,metF	586
PA0431	289
PA0432,sahH	1791
PA0433	35
PA0434	15
PA0435	14
PA0436	573
PA0437,codA	207
PA0438,codB	56
PA0439	1
PA0440	2
PA0441,dht	31
PA0442	5
PA0443	22
PA0444	6
PA0445	53
PA0446	80
PA0447,gcdH	340
PA0448	95
PA0449	344
PA0450	31
PA0451	19
PA0452	37
PA0453	6
PA0454	250
PA0455,dbpA	242
PA0456	3372
PA0457	55
PA0457.1	34
PA0458	298
PA0459	464
PA0460	110
PA0461	357
PA0462	122
PA0463,creB	110
PA0464,creC	217
PA0465,creD	814
PA0466	143
PA0467	32
PA0468	34
PA0469	254
PA0470	37
PA0471	11
PA0472	18
PA0473	64
PA0474	0
PA0475	12
PA0476	60
PA0477	35
PA0478	31
PA0479	23
PA0480	0
PA0481	45
PA0482,glcB	1142
PA0483	38
PA0484	49
PA0485	315
PA0486	100
PA0487	99
PA0488	7
PA0489	0
PA0490	64
PA0491	52
PA0492	97
PA0493	48
PA0494	109
PA0495	105
PA0496	87
PA0497	33
PA0498	35
PA0499	8
PA0500,bioB	686
PA0501,bioF	182
PA0502	136
PA0503	77
PA0504,bioD	30
PA0505	176
PA0506	1027
PA0507	46
PA0508	105
PA0509,nirN	177
PA0510	40
PA0511,nirJ	112
PA0512	72
PA0513	19
PA0514,nirL	43
PA0515	36
PA0516,nirF	153
PA0517,nirC	51
PA0518,nirM	188
PA0519,nirS	2782
PA0520,nirQ	52
PA0521	48
PA0522	5
PA0523,norC	492
PA0524,norB	946
PA0525	59
PA0526	259
PA0527,dnr	314
PA0527.1,rsmY	2222
PA0528	53
PA0529	397
PA0530	82
PA0531	72
PA0532	17
PA0533	95
PA0534,pauB1	42
PA0535	61
PA0536	196
PA0537	380
PA0538,dsbB	387
PA0539	74
PA0540	40
PA0541	80
PA0542	498
PA0543	29
PA0544	48
PA0545	470
PA0546,metK	1653
PA0547	844
PA0548,tktA	2526
PA0549	207
PA0550	9
PA0551,epd	357
PA0552,pgk	679
PA0553	124
PA0554	328
PA0555,fda	1930
PA0556	32
PA0557	7
PA0558	93
PA0559	155
PA0560	151
PA0561	323
PA0562	33
PA0563	1355
PA0564	47
PA0565	12
PA0566	83
PA0567	27
PA0568	37
PA0569	45
PA0570	18
PA0571	45
PA0572	147
PA0573	28
PA0574	272
PA0574.1	14
PA0575	64
PA0576,rpoD	9004
PA0577,dnaG	870
PA0578	213
PA0579,rpsU	4185
PA0580,gcp	282
PA0581	130
PA0582,folB	83
PA0583	155
PA0584,cca	74
PA0585	15
PA0586	182
PA0587	228
PA0588	1346
PA0589	90
PA0590,apaH	236
PA0591	90
PA0592,ksgA	231
PA0593,pdxA	284
PA0594,surA	4466
PA0595,ostA	5914
PA0596	422
PA0597	246
PA0598	236
PA0599	105
PA0600	353
PA0601	259
PA0602	248
PA0603	39
PA0604	60
PA0605	23
PA0606	23
PA0607,rpe	216
PA0608	520
PA0609,trpE	494
PA0610,prtN	274
PA0611,prtR	476
PA0612,ptrB	61
PA0613	279
PA0614	173
PA0615	495
PA0616	206
PA0617	370
PA0618	965
PA0619	547
PA0620	3062
PA0621	709
PA0622	4045
PA0623	2107
PA0624	828
PA0625	2329
PA0626	411
PA0627	109
PA0628	717
PA0629	130
PA0630	73
PA0631	36
PA0632	514
PA0633	1331
PA0634	646
PA0635	680
PA0636	1846
PA0637	338
PA0638	346
PA0639	371
PA0640	360
PA0641	1108
PA0642	279
PA0643	483
PA0644	275
PA0645	295
PA0646	591
PA0647	211
PA0648	190
PA0649,trpG	457
PA0650,trpD	830
PA0651,trpC	536
PA0652,vfr	560
PA0653	551
PA0654,speD	846
PA0655	336
PA0656	38
PA0657	241
PA0658	236
PA0659	547
PA0660	198
PA0661	172
PA0662,argC	304
PA0663	567
PA0664	325
PA0665	634
PA0666	418
PA0667	1273
PA0668,tyrZ	2548
PA0668.1	124183
PA0668.2	381
PA0668.3	462
PA0668.4	403476
PA0668.5	4803
PA0669	57
PA0670	12
PA0671	5
PA0672,hemO	28
PA0673	19
PA0674,vreA	4
PA0675,vreI	2
PA0676,vreR	12
PA0677	1
PA0678	0
PA0679	10
PA0680	0
PA0681	1
PA0682	3
PA0683	2
PA0684	0
PA0685	3
PA0686	3
PA0687	2
PA0688	3
PA0689	49
PA0690	293
PA0691	5
PA0692	11
PA0693,exbB2	1
PA0694,exbD2	0
PA0695	2
PA0696	3
PA0697	1
PA0698	1
PA0699	7
PA0700	7
PA0701	13
PA0702	5
PA0703	34
PA0704	54
PA0705,migA	514
PA0706,cat	332
PA0707,toxR	14
PA0708	27
PA0709	0
PA0710,gloA2	3
PA0711	7
PA0712	43
PA0713	104
PA0714	39
PA0714.1,phrD	2271
PA0715	3193
PA0716	1329
PA0717	30
PA0718	14
PA0719	13
PA0720	30
PA0721	10
PA0722	160
PA0723,coaB	82
PA0724	27
PA0725	1
PA0726	14
PA0727	77
PA0728	45
PA0729	361
PA0729.1	175
PA0730	147
PA0731	78
PA0732	94
PA0733	40
PA0734	14
PA0735	90
PA0736	154
PA0737	14
PA0738	8
PA0739	19
PA0740,sdsA1	20
PA0741	22
PA0742	27
PA0743	24
PA0744	69
PA0745	110
PA0746	100
PA0747	328
PA0748	27
PA0749	107
PA0750,ung	288
PA0751	17
PA0752	51
PA0753	7
PA0754	64
PA0755,opdH	108
PA0756	47
PA0757	86
PA0758	334
PA0759	293
PA0760	182
PA0761,nadB	915
PA0762,algU	3238
PA0763,mucA	764
PA0764,mucB	642
PA0765,mucC	475
PA0766,mucD	1750
PA0767,lepA	1621
PA0768,lepB	1526
PA0769	555
PA0770,rnc	300
PA0771,era	881
PA0772,recO	134
PA0773,pdxJ	162
PA0774	153
PA0775	97
PA0776	9
PA0777	37
PA0778,icp	80
PA0779	1130
PA0780,pruR	66
PA0781	8
PA0782,putA	4394
PA0783,putP	2067
PA0784	133
PA0785,azoR1	12
PA0786	17
PA0787	54
PA0788	51
PA0789	1180
PA0790	1
PA0791	25
PA0792,prpD	56
PA0793	68
PA0794	222
PA0795,prpC	269
PA0796,prpB	114
PA0797	57
PA0798,pmtA	5
PA0799	179
PA0800	12
PA0801	67
PA0802	17
PA0803	24
PA0804	59
PA0805	344
PA0806	6
PA0807,ampDh3	530
PA0808	53
PA0809	6
PA0810	23
PA0811	42
PA0812	2
PA0813	4
PA0814	0
PA0815	222
PA0816	57
PA0817	18
PA0818	2
PA0819	14
PA0820	321
PA0821	118
PA0822	26
PA0823	1
PA0824	1
PA0825	17
PA0826	35
PA0826.2,ssrA	6497
PA0826.1	121182
PA0827	94
PA0828	15
PA0829	35
PA0830	72
PA0831,oruR	208
PA0832	111
PA0833	324
PA0834	124
PA0835,pta	650
PA0836,ackA	421
PA0836.1,P5	1
PA0837,slyD	1762
PA0838	426
PA0839	29
PA0840	36
PA0841	32
PA0842	0
PA0843,plcR	9
PA0844,plcH	9
PA0845	12
PA0846	163
PA0847	109
PA0848	34
PA0849,trxB2	225
PA0850	8
PA0851	54
PA0852,cbpD	136
PA0853	82
PA0854,fumC2	152
PA0855	57
PA0856	499
PA0857,bolA	104
PA0858	423
PA0859	97
PA0860	346
PA0861	1010
PA0862	327
PA0863	14
PA0864	12
PA0865,hpd	1092
PA0866,aroP2	157
PA0867,mliC	997
PA0868	39
PA0869,pbpG	259
PA0870,phhC	542
PA0871,phhB	564
PA0872,phhA	1348
PA0873,phhR	325
PA0874	27
PA0875	9
PA0876	249
PA0877	53
PA0878	3
PA0879	13
PA0880	1
PA0881	8
PA0882	9
PA0883	1
PA0884	7
PA0885	10
PA0886	8
PA0887,acsA	1472
PA0887.1,P7	74
PA0888,aotJ	1105
PA0889,aotQ	248
PA0890,aotM	328
PA0891	300
PA0892,aotP	327
PA0893,argR	358
PA0894	12
PA0895,aruC	1100
PA0896,aruF	682
PA0897,aruG	493
PA0898,aruD	405
PA0899,aruB	925
PA0900	206
PA0901,aruE	626
PA0902	144
PA0903,alaS	2065
PA0904,lysC	2071
PA0905,rsmA	1262
PA0905.1	356
PA0905.2	4242
PA0905.3	98
PA0906	233
PA0907	58
PA0908	32
PA0909	46
PA0910	135
PA0911	185
PA0912	34
PA0913,mgtE	948
PA0914	25
PA0915	41
PA0916	337
PA0917,kup	510
PA0918	371
PA0919	374
PA0920	264
PA0921	156
PA0922	106
PA0922.1	261
PA0923,dinB	137
PA0924	60
PA0925	71
PA0926	100
PA0927,ldhA	120
PA0928,gacS	455
PA0929	52
PA0930	49
PA0931,pirA	51
PA0932,cysM	846
PA0933,ygcA	1005
PA0934,relA	2491
PA0935	362
PA0936,lpxO2	681
PA0937	729
PA0938	3360
PA0939	19
PA0940	14
PA0941	16
PA0942	318
PA0943	1416
PA0944,purN	485
PA0945,purM	813
PA0946	439
PA0947	931
PA0948	187
PA0949,wrbA	281
PA0950	294
PA0951	431
PA0952	38
PA0953	143
PA0954	62
PA0955	801
PA0956,proS	2034
PA0957	39
PA0958,oprD	7111
PA0959	282
PA0960	36
PA0961	515
PA0962	986
PA0963,aspS	4000
PA0964,pmpR	3401
PA0965,ruvC	312
PA0966,ruvA	577
PA0967,ruvB	839
PA0968	680
PA0969,tolQ	1631
PA0970,tolR	925
PA0971,tolA	2279
PA0972,tolB	2779
PA0973,oprL	5930
PA0974	1363
PA0975	168
PA0976	110
PA0976.1	98
PA0977	5
PA0978	18
PA0979	33
PA0980	25
PA0981	54
PA0982	147
PA0983	33
PA0984	60
PA0985,pyoS5	196
PA0986	8
PA0987	12
PA0988	238
PA0989	21
PA0990	23
PA0991,hptA	121
PA0992,cupC1	20
PA0993,cupC2	8
PA0994,cupC3	110
PA0995,ogt	159
PA0996,pqsA	281
PA0997,pqsB	254
PA0998,pqsC	273
PA0999,pqsD	233
PA1000,pqsE	184
PA1001,phnA	227
PA1002,phnB	37
PA1003,mvfR	223
PA1004,nadA	527
PA1005	459
PA1006	139
PA1007	410
PA1008,bcp	663
PA1009	274
PA1010,dapA	1270
PA1011	2455
PA1012	1337
PA1013,purC	2483
PA1013.1	8
PA1014	650
PA1015	35
PA1016	49
PA1017,pauA	61
PA1018	17
PA1019,mucK	23
PA1020	24
PA1021	14
PA1022	36
PA1023	35
PA1024	19
PA1025	27
PA1026	68
PA1027	38
PA1028	20
PA1029	150
PA1030	274
PA1030.1,P8	32
PA1031	583
PA1032,quiP	550
PA1033	42
PA1034	75
PA1035	410
PA1036	50
PA1037	51
PA1038	69
PA1039	110
PA1040	73
PA1041	86
PA1042	90
PA1043	84
PA1044	16
PA1045	603
PA1046	280
PA1047	267
PA1048	1186
PA1049,pdxH	295
PA1050	170
PA1051	45
PA1052	12
PA1053	852
PA1054	1174
PA1055	144
PA1056	315
PA1057	245
PA1058	105
PA1059	195
PA1060	381
PA1061	291
PA1062	154
PA1063	94
PA1064	312
PA1065	25
PA1066	30
PA1067	52
PA1068	324
PA1069	901
PA1070,braG	325
PA1071,braF	234
PA1072,braE	331
PA1073,braD	225
PA1074,braC	1408
PA1075	98
PA1076	322
PA1077,flgB	141
PA1078,flgC	139
PA1079,flgD	326
PA1080,flgE	595
PA1081,flgF	195
PA1082,flgG	336
PA1083,flgH	247
PA1084,flgI	479
PA1085,flgJ	262
PA1086,flgK	675
PA1087,flgL	514
PA1088	280
PA1089	149
PA1090	153
PA1091,fgtA	834
PA1092,fliC	5019
PA1093	459
PA1094,fliD	2243
PA1095	972
PA1096	316
PA1097,fleQ	2337
PA1098,fleS	499
PA1099,fleR	246
PA1100,fliE	215
PA1101,fliF	865
PA1102,fliG	836
PA1103	707
PA1104,fliI	341
PA1105,fliJ	213
PA1106	151
PA1107	52
PA1108	0
PA1109	39
PA1110	76
PA1111	10
PA1112	68
PA1112.1	1095
PA1113	62
PA1114	40
PA1115	509
PA1116	124
PA1117	38
PA1118	336
PA1119,yfiB	68
PA1120,tpbB	210
PA1121,yfiR	74
PA1122	173
PA1123	35
PA1124,dgt	261
PA1125	22
PA1126	103
PA1127	138
PA1128	56
PA1129	12
PA1130,rhlC	23
PA1131	87
PA1132	106
PA1133	15
PA1134	12
PA1135	37
PA1136	21
PA1137	11
PA1138	22
PA1139	44
PA1140	138
PA1141	27
PA1142	40
PA1143	0
PA1144	2
PA1145	70
PA1146	0
PA1147	45
PA1148,toxA	9
PA1149	10
PA1150,pys2	1875
PA1151,imm2	499
PA1152	63
PA1153	2
PA1154	6
PA1155,nrdB	2798
PA1156,nrdA	2886
PA1157	88
PA1158	153
PA1159	497
PA1160	51
PA1161,rrmA	86
PA1162,dapE	152
PA1163,ndvB	112
PA1164	142
PA1165,pcpS	35
PA1166	14
PA1167	29
PA1168	39
PA1169	25
PA1170	121
PA1171	123
PA1172,napC	1
PA1173,napB	12
PA1174,napA	64
PA1175,napD	8
PA1176,napF	8
PA1177,napE	16
PA1178,oprH	921
PA1179,phoP	288
PA1180,phoQ	352
PA1181	349
PA1182	41
PA1183,dctA	142
PA1184	31
PA1185	7
PA1186	1
PA1187	32
PA1188	26
PA1189	16
PA1190	120
PA1191	90
PA1192	301
PA1193	132
PA1194	10
PA1195	5
PA1196	408
PA1197	365
PA1198	1635
PA1199	574
PA1200	366
PA1201	61
PA1202	36
PA1203	22
PA1204	69
PA1205	95
PA1206	78
PA1207,kefB	317
PA1208	33
PA1209	48
PA1210	17
PA1211	3
PA1212	5
PA1213	0
PA1214	3
PA1215	2
PA1216	14
PA1217	7
PA1218	7
PA1219	1
PA1220	3
PA1221	3
PA1222	153
PA1223	36
PA1224	26
PA1225	6
PA1226	19
PA1227	28
PA1228	31
PA1229	16
PA1230	1
PA1231	1
PA1232	9
PA1233	0
PA1234	37
PA1235	10
PA1236	13
PA1237	1
PA1238	0
PA1239	5
PA1240	6
PA1241	53
PA1242	25
PA1243	131
PA1244	238
PA1245,aprX	214
PA1246,aprD	60
PA1247,aprE	125
PA1248,aprF	183
PA1249,aprA	198
PA1250,aprI	37
PA1251	3
PA1252	31
PA1253	0
PA1254	3
PA1255	3
PA1256	3
PA1257	1
PA1258	0
PA1259	0
PA1260	1
PA1261	13
PA1262	4
PA1263	57
PA1264	9
PA1265	1
PA1266	2
PA1267	2
PA1268	4
PA1269	106
PA1270	39
PA1271	572
PA1272,cobO	175
PA1273,cobB	118
PA1274	87
PA1275,cobD	53
PA1276,cobC	60
PA1277,cobQ	207
PA1278,cobP	100
PA1279,cobU	41
PA1280	68
PA1281,cobV	34
PA1282	22
PA1283	35
PA1284	3
PA1285	43
PA1286	26
PA1287	222
PA1288	2189
PA1289	23
PA1290	20
PA1291	51
PA1292	138
PA1293	397
PA1294,rnd	247
PA1295	177
PA1296	169
PA1297	24
PA1298	40
PA1299	113
PA1300	16
PA1301	17
PA1302	58
PA1303	34
PA1304	191
PA1305	242
PA1306	138
PA1307	431
PA1308	316
PA1309	68
PA1310,phnW	13
PA1311,phnX	9
PA1312	13
PA1313	10
PA1314	7
PA1315	43
PA1316	12
PA1317,cyoA	86
PA1318,cyoB	417
PA1319,cyoC	46
PA1320,cyoD	91
PA1321,cyoE	46
PA1322	21
PA1323	46
PA1324	100
PA1324.1,P9	186
PA1325	17
PA1326,ilvA2	36
PA1327	68
PA1328	33
PA1329	0
PA1330	17
PA1331	230
PA1332	11
PA1333	16
PA1334	4
PA1335	119
PA1336	167
PA1337,ansB	353
PA1338,ggt	270
PA1339	415
PA1340	279
PA1341	169
PA1342	629
PA1343	48
PA1344	58
PA1345	9
PA1346	6
PA1347	2
PA1348	16
PA1349	0
PA1350	24
PA1351	2
PA1352	3
PA1353	3
PA1354	9
PA1355	0
PA1356	3
PA1357	54
PA1358	10
PA1359	27
PA1360	20
PA1361	108
PA1362	13
PA1363	26
PA1364	11
PA1365	52
PA1366	670
PA1367	47
PA1368	129
PA1369	275
PA1370	511
PA1371	238
PA1372	973
PA1373,fabF2	16
PA1374	21
PA1375,pdxB	32
PA1376,aceK	242
PA1377	58
PA1378	54
PA1379	5
PA1380	36
PA1381	21
PA1382	388
PA1383	95
PA1384,galE	11
PA1385	37
PA1386	32
PA1387	36
PA1388	68
PA1389	66
PA1390	52
PA1391	80
PA1392	111
PA1393,cysC	22
PA1394	7
PA1395	21
PA1396	138
PA1397	40
PA1398	52
PA1399	7
PA1400	14
PA1401	24
PA1402	1
PA1403	15
PA1404	3
PA1405	321
PA1406	35
PA1407	30
PA1408	55
PA1409,aphA	20
PA1410	29
PA1411	47
PA1412	0
PA1413	41
PA1414	852
PA1415	16
PA1416	13
PA1417	16
PA1418	24
PA1419	18
PA1420	20
PA1421,gbuA	50
PA1422,gbuR	46
PA1423,bdlA	45
PA1424	42
PA1425	25
PA1426	5
PA1427	7
PA1428	11
PA1429	1337
PA1430,lasR	2567
PA1431,rsaL	1267
PA1432,lasI	2981
PA1433	101
PA1434	41
PA1435	10
PA1436	19
PA1437	85
PA1438	71
PA1439	76
PA1440	451
PA1441	238
PA1442	439
PA1443,fliM	875
PA1444,fliN	257
PA1445,fliO	89
PA1446,fliP	636
PA1447,fliQ	155
PA1448,fliR	311
PA1449,flhB	218
PA1450	272
PA1451	110
PA1452,flhA	1089
PA1453,flhF	618
PA1454,fleN	873
PA1455,fliA	1450
PA1456,cheY	1320
PA1457,cheZ	1057
PA1458	1499
PA1459	300
PA1460,motC	326
PA1461,motD	240
PA1462	268
PA1463	320
PA1464	629
PA1465	47
PA1466	14
PA1467	28
PA1468	18
PA1469	42
PA1470	15
PA1471	10
PA1472	40
PA1473	53
PA1474	170
PA1475,ccmA	66
PA1476,ccmB	265
PA1477,ccmC	693
PA1478	93
PA1479,ccmE	185
PA1480,ccmF	908
PA1481,ccmG	444
PA1482,ccmH	315
PA1483,cycH	279
PA1484	30
PA1485	11
PA1486	2
PA1487	34
PA1488	43
PA1489	44
PA1490	36
PA1491	10
PA1492	5
PA1493,cysP	505
PA1494	76
PA1495	10
PA1496	56
PA1497	3
PA1498,pykF	15
PA1499	5
PA1500	68
PA1501	11
PA1502,gcl	24
PA1503	9
PA1504	105
PA1505,moaA2	904
PA1506	33
PA1507	43
PA1508	33
PA1509	295
PA1510	227
PA1511	183
PA1512,hcpA	16
PA1513	76
PA1514	84
PA1515,alc	86
PA1516	72
PA1517	119
PA1518	33
PA1519	17
PA1520	426
PA1521	41
PA1522	40
PA1523,xdhB	139
PA1524,xdhA	173
PA1525,alkB2	40
PA1526	588
PA1527	1846
PA1528,zipA	2085
PA1529,lig	685
PA1530	380
PA1530.1,ffs	486
PA1531	113
PA1532,dnaX	933
PA1533	719
PA1534,recR	189
PA1535	105
PA1536	18
PA1537	8
PA1538	22
PA1539	39
PA1540	6
PA1541	15
PA1542	33
PA1543,apt	118
PA1544,anr	1341
PA1545	342
PA1546,hemN	2779
PA1547	30
PA1548	68
PA1549	302
PA1550	287
PA1551	1703
PA1552,ccoP1	1692
PA1552.1,ccoQ1	255
PA1553,ccoO1	1891
PA1554,ccoN1	1863
PA1555,ccoP2	447
PA1555.1,ccoQ2	207
PA1556,ccoO2	876
PA1557,ccoN2	1291
PA1558	19
PA1559	58
PA1560	39
PA1561,aer	728
PA1562,acnA	463
PA1563	290
PA1564	126
PA1565,pauB2	60
PA1566,pauA3	15
PA1567	9
PA1568	2
PA1569	4
PA1570	96
PA1571	117
PA1572	358
PA1573	144
PA1574	101
PA1575	33
PA1576	127
PA1577	46
PA1578	21
PA1579	679
PA1580,gltA	2701
PA1581,sdhC	1400
PA1582,sdhD	1157
PA1583,sdhA	10029
PA1584,sdhB	4940
PA1585,sucA	7248
PA1586,sucB	2515
PA1587,lpdG	3625
PA1588,sucC	6986
PA1589,sucD	4998
PA1590,braB	554
PA1591	75
PA1592	889
PA1593	40
PA1594	79
PA1595	102
PA1596,htpG	3370
PA1597	37
PA1598	5
PA1599	16
PA1600	19
PA1601	58
PA1602	32
PA1603	23
PA1604	253
PA1605	35
PA1606	1
PA1607	104
PA1608	116
PA1609,fabB	2997
PA1610,fabA	1731
PA1611	611
PA1612	118
PA1613	373
PA1614,gpsA	666
PA1615	58
PA1616	103
PA1617	118
PA1618	89
PA1619	26
PA1620	3
PA1621	42
PA1622	78
PA1623	299
PA1624	159
PA1625	89
PA1626	42
PA1627	32
PA1628	29
PA1629	19
PA1630	95
PA1631	57
PA1632,kdpF	2
PA1633,kdpA	25
PA1634,kdpB	21
PA1635,kdpC	4
PA1636,kdpD	37
PA1637,kdpE	25
PA1638	74
PA1639	171
PA1640	206
PA1641	35
PA1642,selD	310
PA1643	392
PA1644	86
PA1645	16
PA1646	59
PA1647	373
PA1648	29
PA1649	15
PA1650	64
PA1651	468
PA1652	43
PA1653	74
PA1654	581
PA1655	462
PA1656	2162
PA1657	211
PA1658	542
PA1659	63
PA1660	150
PA1661	110
PA1662	169
PA1663	103
PA1664	15
PA1665	77
PA1666	119
PA1667	218
PA1668	171
PA1669	459
PA1670,stp1	38
PA1671,stk1	30
PA1672	94
PA1673	4451
PA1674,folE2	330
PA1675	60
PA1676	53
PA1677	164
PA1678	235
PA1679	169
PA1680	77
PA1681,aroC	414
PA1682	182
PA1683	240
PA1684	246
PA1685,masA	273
PA1686,alkA	59
PA1687,speE	401
PA1688	235
PA1689	846
PA1690,pscU	56
PA1691,pscT	23
PA1692	10
PA1693,pscR	144
PA1694,pscQ	31
PA1695,pscP	7
PA1696,pscO	11
PA1697	46
PA1698,popN	29
PA1699,pcr1	16
PA1700,pcr2	3
PA1701,pcr3	9
PA1702,pcr4	1
PA1703,pcrD	117
PA1704,pcrR	8
PA1705,pcrG	16
PA1706,pcrV	91
PA1707,pcrH	27
PA1708,popB	236
PA1709,popD	159
PA1710,exsC	553
PA1711,exsE	31
PA1712,exsB	297
PA1713,exsA	534
PA1714,exsD	184
PA1715,pscB	19
PA1716,pscC	235
PA1717,pscD	100
PA1718,pscE	38
PA1719,pscF	107
PA1720,pscG	20
PA1721,pscH	37
PA1722,pscI	36
PA1723,pscJ	103
PA1724,pscK	28
PA1725,pscL	41
PA1726,bglX	187
PA1727,mucR	346
PA1728	57
PA1729	241
PA1730	55
PA1731	11
PA1732	5
PA1733	26
PA1734	29
PA1735	153
PA1736	48
PA1737	68
PA1738	116
PA1739	26
PA1740	7
PA1741	78
PA1742,pauD2	357
PA1743	0
PA1744	1
PA1745	13
PA1746	239
PA1747	4
PA1748	128
PA1749	643
PA1750	1054
PA1751	48
PA1752	174
PA1753	144
PA1754,cysB	669
PA1755	54
PA1756,cysH	164
PA1757,thrH	112
PA1758,pabB	266
PA1759	861
PA1760	459
PA1761	59
PA1762	82
PA1763	27
PA1764	18
PA1765	45
PA1766	1899
PA1767	1295
PA1768	487
PA1769	484
PA1770,ppsA	5239
PA1771,estX	101
PA1772	390
PA1773,cmaX	705
PA1774,crfX	813
PA1775,cmpX	2172
PA1776,sigX	6706
PA1777,oprF	21398
PA1778,cobA	16
PA1779	22
PA1780,nirD	3
PA1781,nirB	4
PA1781.1,P11	0
PA1782	7
PA1783,nasA	0
PA1784	11
PA1785	3
PA1786	10
PA1787,acnB	5326
PA1788	153
PA1789	1448
PA1790	168
PA1791	372
PA1792	127
PA1793,ppiB	1430
PA1794,glnS	2048
PA1795,cysS	1530
PA1796,folD	141
PA1796.1	735
PA1796.2	758
PA1796.3	575
PA1796.4	39
PA1797	65
PA1798,parS	142
PA1799,parR	74
PA1800,tig	8831
PA1801,clpP	2051
PA1802,clpX	10061
PA1803,lon	5953
PA1804,hupB	18224
PA1804.1	417
PA1805,ppiD	3582
PA1806,fabI	181
PA1807	252
PA1808	252
PA1809	364
PA1810	852
PA1811	785
PA1812,mltD	794
PA1813	199
PA1814	293
PA1815,rnhA	390
PA1816,dnaQ	304
PA1817	73
PA1818,ldcA	863
PA1819	302
PA1820,nhaB	310
PA1821	1015
PA1822,fimL	1034
PA1823	628
PA1824	24
PA1825	52
PA1826	27
PA1827	4
PA1828	99
PA1829	76
PA1830	807
PA1831	917
PA1832	668
PA1833	725
PA1834	68
PA1835	9
PA1836	45
PA1837	54
PA1838,cysI	517
PA1839	40
PA1840	155
PA1841	143
PA1842	187
PA1843,metH	1510
PA1844,tse1	12
PA1845	59
PA1846,cti	700
PA1847	596
PA1848	23
PA1849	6
PA1850	27
PA1851	106
PA1852	296
PA1853	90
PA1854	3
PA1855	3
PA1856	20
PA1857	89
PA1858,str	10
PA1859	38
PA1860	38
PA1861,modC	55
PA1862,modB	73
PA1863,modA	104
PA1864	4
PA1865	127
PA1866	65
PA1867,xphA	2
PA1868,xqhA	21
PA1869	2510
PA1870	1
PA1871,lasA	85
PA1872	92
PA1873	3
PA1874	57
PA1875	23
PA1876	17
PA1877	17
PA1878	10
PA1879	8
PA1880	22
PA1881	14
PA1882	35
PA1883	5
PA1884	9
PA1885	21
PA1886,polB	209
PA1887	2
PA1888	17
PA1889	70
PA1890	45
PA1891	0
PA1892	4
PA1893	13
PA1894	15
PA1895	27
PA1896	5
PA1897	14
PA1898,qscR	20
PA1899,phzA2	11
PA1900,phzB2	32
PA1901,phzC2	40
PA1902,phzD2	6
PA1903,phzE2	24
PA1904,phzF2	6
PA1905,phzG2	8
PA1906	28
PA1907	8
PA1908	3
PA1909	17
PA1910,femA	12
PA1911,femR	3
PA1912,femI	21
PA1913	129
PA1914	7
PA1915	137
PA1916	5
PA1917	1
PA1918	0
PA1919,nrdG	3
PA1920,nrdD	52
PA1921	1
PA1922	5
PA1923	4
PA1924	1
PA1925	3
PA1926	546
PA1927,metE	54
PA1928,rimJ	9
PA1929	6
PA1930	28
PA1931	9
PA1932	1
PA1933	22
PA1934	29
PA1935	56
PA1936	6
PA1937	44
PA1938	40
PA1939	1334
PA1940	114
PA1941	191
PA1942	11
PA1943	77
PA1944	161
PA1945	16
PA1946,rbsB	867
PA1947,rbsA	164
PA1948,rbsC	156
PA1949,rbsR	194
PA1950,rbsK	131
PA1951	22
PA1952	0
PA1953	2
PA1954	2
PA1955	0
PA1956	0
PA1957	15
PA1958	42
PA1959,bacA	165
PA1960	19
PA1961	33
PA1962,azoR2	8
PA1963	123
PA1964	423
PA1965	46
PA1966	4
PA1967	50
PA1968	138
PA1969	109
PA1970	4
PA1971,braZ	50
PA1972	10
PA1973,pqqF	31
PA1974	3
PA1975	9
PA1976,ercS'	14
PA1977	3
PA1978,erbR	23
PA1979,eraS	1
PA1980,eraR	1
PA1981	0
PA1982,exaA	7
PA1983,exaB	0
PA1984,exaC	38
PA1985,pqqA	11
PA1986,pqqB	36
PA1987,pqqC	41
PA1988,pqqD	20
PA1989,pqqE	58
PA1990,pqqH	13
PA1991	97
PA1992,ercS	63
PA1993	58
PA1994	47
PA1995	12
PA1996,ppiC1	31
PA1997	133
PA1998,dhcR	50
PA1999,dhcA	100
PA2000,dhcB	55
PA2001,atoB	74
PA2002	36
PA2003,bdhA	23
PA2004	48
PA2005	63
PA2006	12
PA2007,maiA	20
PA2008,fahA	35
PA2009,hmgA	75
PA2010	23
PA2011,liuE	93
PA2012,liuD	132
PA2013,liuC	26
PA2014,liuB	117
PA2015,liuA	515
PA2016,liuR	413
PA2017	74
PA2018	185
PA2019	34
PA2020	55
PA2021	1
PA2022	39
PA2023,galU	1314
PA2024	9
PA2025,gor	580
PA2026	272
PA2027	7
PA2028	44
PA2029	13
PA2030	4
PA2031	12
PA2032	89
PA2033	11
PA2034	9
PA2035	13
PA2036	8
PA2037	136
PA2038	80
PA2039	126
PA2040,pauA4	438
PA2041	152
PA2042	380
PA2043	94
PA2044	302
PA2045	13
PA2046	4
PA2047	26
PA2048	2
PA2049	126
PA2050	2
PA2051	1
PA2052,cynS	2
PA2053,cynT	0
PA2054,cynR	10
PA2055	2
PA2056	43
PA2057	21
PA2058	5
PA2059	8
PA2060	5
PA2061	2
PA2062	12
PA2063	111
PA2064,pcoB	2
PA2065,pcoA	6
PA2066	5
PA2067	2
PA2068	8
PA2069	30
PA2070	5
PA2071,fusA2	157
PA2072	45
PA2073	12
PA2074	5
PA2075	22
PA2076	72
PA2077	1
PA2078	2
PA2079	86
PA2080,kynU	135
PA2081,kynB	82
PA2082	57
PA2083	57
PA2084	17
PA2085	0
PA2086	3
PA2087	1
PA2088	3
PA2089	14
PA2090	0
PA2091	2
PA2092	0
PA2093	20
PA2094	2
PA2095	25
PA2096	26
PA2097	13
PA2098	2
PA2099	5
PA2100	84
PA2101	32
PA2102	28
PA2103	54
PA2104	65
PA2105	73
PA2106	90
PA2107	0
PA2108	11
PA2109	28
PA2110	58
PA2111	102
PA2112	47
PA2113,opdO	259
PA2114	685
PA2115	51
PA2116	266
PA2117	41
PA2118,ada	59
PA2119	1136
PA2120	12
PA2121	15
PA2122	175
PA2123	62
PA2124	9
PA2125	1
PA2126	109
PA2127	488
PA2128,cupA1	21
PA2129,cupA2	3
PA2130,cupA3	7
PA2131,cupA4	9
PA2132,cupA5	0
PA2133	2
PA2134	4
PA2135	3
PA2136	0
PA2137	4
PA2138	11
PA2139	0
PA2140	0
PA2141	0
PA2142	0
PA2143	1
PA2144,glgP	13
PA2145	4
PA2146	10
PA2147,katE	5
PA2148	2
PA2149	4
PA2150	2
PA2151	2
PA2152	12
PA2153,glgB	2
PA2154	1
PA2155	0
PA2156	0
PA2157	2
PA2158	2
PA2159	4
PA2160	1
PA2161	0
PA2162	0
PA2163	1
PA2164	3
PA2165	8
PA2166	39
PA2167	1
PA2168	0
PA2169	7
PA2170	0
PA2171	4
PA2172	5
PA2173	3
PA2174	4
PA2175	14
PA2176	5
PA2177	37
PA2178	3
PA2179	4
PA2180	0
PA2181	2
PA2182	10
PA2183	0
PA2184	13
PA2185,katN	13
PA2186	0
PA2187	0
PA2188	3
PA2189	2
PA2190	2
PA2191,exoY	46
PA2192	3
PA2193,hcnA	33
PA2194,hcnB	152
PA2195,hcnC	143
PA2196	59
PA2197	31
PA2198	13
PA2199	249
PA2200	100
PA2201	60
PA2202	12
PA2203	13
PA2204	145
PA2205	35
PA2206	32
PA2207	4
PA2208	0
PA2209	3
PA2210	9
PA2211	5
PA2212	2
PA2213	1
PA2214	3
PA2215	10
PA2216	4
PA2217	2
PA2218	33
PA2219,opdE	28
PA2220	102
PA2221	24
PA2222	31
PA2223	84
PA2224	36
PA2225	5
PA2226	53
PA2227,vqsM	110
PA2228	47
PA2229	31
PA2230	61
PA2231,pslA	457
PA2232,pslB	250
PA2233,pslC	206
PA2234,pslD	269
PA2235,pslE	906
PA2236,pslF	102
PA2237,pslG	324
PA2238,pslH	165
PA2239,pslI	115
PA2240,pslJ	370
PA2241,pslK	82
PA2242,pslL	231
PA2243,pslM	3
PA2244,pslN	1
PA2245,pslO	2
PA2246,bkdR	19
PA2247,bkdA1	554
PA2248,bkdA2	361
PA2249,bkdB	400
PA2250,lpdV	319
PA2251	115
PA2252	204
PA2253,ansA	37
PA2254,pvcA	2
PA2255,pvcB	0
PA2256,pvcC	4
PA2257,pvcD	0
PA2258,ptxR	23
PA2259,ptxS	371
PA2260	60
PA2261	28
PA2262	61
PA2263	12
PA2264	171
PA2265	271
PA2266	77
PA2267	25
PA2268	1
PA2269	25
PA2270	41
PA2271	19
PA2272,pbpC	143
PA2273,soxR	24
PA2274	21
PA2275	3
PA2276	28
PA2277,arsR	9
PA2278,arsB	49
PA2279,arsC	28
PA2280	36
PA2281	64
PA2282	26
PA2283	4
PA2284	7
PA2285	6
PA2286	5
PA2287	2
PA2288	8
PA2289	257
PA2290,gcd	512
PA2291	739
PA2292	0
PA2293	3
PA2294	2
PA2295	1
PA2296	14
PA2297	7
PA2298	90
PA2299	47
PA2300,chiC	28
PA2301	11
PA2302,ambE	127
PA2303,ambD	69
PA2304,ambC	63
PA2305,ambB	246
PA2306,ambA	77
PA2307	10
PA2308	4
PA2309	2
PA2310	4
PA2311	2
PA2312	6
PA2313	4
PA2314	1
PA2315	4
PA2316	43
PA2317	33
PA2318	12
PA2319	47
PA2320,gntR	176
PA2321	121
PA2322	457
PA2323	700
PA2324	8
PA2325	2
PA2326	10
PA2327	24
PA2328	27
PA2329	12
PA2330	12
PA2331	19
PA2332	40
PA2333	1
PA2334	9
PA2335	2
PA2336	0
PA2337,mtlR	14
PA2338	45
PA2339	27
PA2340	13
PA2341	9
PA2342,mtlD	3
PA2343,mtlY	5
PA2344,mtlZ	5
PA2345	9
PA2346	1
PA2347	1
PA2348	2
PA2349	3
PA2350	1
PA2351	5
PA2352	32
PA2353	68
PA2354	9
PA2355	6
PA2356,msuD	4
PA2357,msuE	6
PA2358	45
PA2359	20
PA2360	5
PA2361	51
PA2362	12
PA2363	25
PA2364	41
PA2365	16
PA2366	27
PA2367	5
PA2368	2
PA2369	4
PA2370	2
PA2371	10
PA2372	77
PA2373	37
PA2374	3
PA2375	0
PA2376	35
PA2377	7
PA2378	211
PA2379	148
PA2380	49
PA2381	43
PA2382,lldA	92
PA2383	31
PA2384	2
PA2385,pvdQ	7
PA2386,pvdA	14
PA2387,fpvI	111
PA2388,fpvR	210
PA2389,pvdR	38
PA2390,pvdT	60
PA2391,opmQ	33
PA2392,pvdP	35
PA2393	2
PA2394,pvdN	2
PA2395,pvdO	1
PA2396,pvdF	88
PA2397,pvdE	6
PA2398,fpvA	47
PA2399,pvdD	208
PA2400,pvdJ	215
PA2402	195
PA2403	12
PA2404	4
PA2405	2
PA2406	5
PA2407	10
PA2408	1
PA2409	13
PA2410	17
PA2411	2
PA2412	4
PA2413,pvdH	8
PA2414	13
PA2415	4
PA2416,treA	2
PA2417	91
PA2418	3
PA2419	6
PA2420	4
PA2421	0
PA2422	1
PA2423	59
PA2424,pvdL	26
PA2425,pvdG	2
PA2426,pvdS	3
PA2427	1
PA2428	6
PA2429	6
PA2430	17
PA2431	50
PA2432,bexR	34
PA2433	16
PA2434	22
PA2435	71
PA2436	62
PA2437	6
PA2438	3
PA2439	9
PA2440	23
PA2441	27
PA2442,gcvT2	50
PA2443,sdaA	159
PA2444,glyA2	244
PA2445,gcvP2	689
PA2446,gcvH2	71
PA2447	12
PA2448	9
PA2449	250
PA2450	90
PA2451	9
PA2452	1
PA2453	83
PA2454	74
PA2455	55
PA2456	110
PA2457	83
PA2458	2
PA2459	387
PA2460	174
PA2461	373
PA2462	6058
PA2463	227
PA2464	239
PA2465	7
PA2466,foxA	22
PA2467,foxR	12
PA2468,foxI	25
PA2469	18
PA2470,gtdA	9
PA2471	0
PA2472	1
PA2473	1
PA2474	1
PA2475	39
PA2476,dsbG	54
PA2477	12
PA2478	26
PA2479	12
PA2480	21
PA2481	204
PA2482	118
PA2483	252
PA2484	95
PA2485	62
PA2486	25
PA2487	6
PA2488	6
PA2489	16
PA2490	13
PA2491	545
PA2492,mexT	199
PA2493,mexE	27
PA2494,mexF	27
PA2495,oprN	13
PA2496	18
PA2497	15
PA2498	3
PA2499	3
PA2500	5
PA2501	142
PA2502	52
PA2503	73
PA2504	42
PA2505,opdT	26
PA2506	17
PA2507,catA	2
PA2508,catC	5
PA2509,catB	7
PA2510,catR	16
PA2511	35
PA2512,antA	34
PA2513,antB	9
PA2514,antC	28
PA2515,xylL	8
PA2516,xylZ	0
PA2517,xylY	6
PA2518,xylX	4
PA2519,xylS	19
PA2520,czcA	48
PA2521,czcB	2
PA2522,czcC	0
PA2523	32
PA2524	14
PA2525	106
PA2526	404
PA2527	343
PA2528	135
PA2529	152
PA2530	56
PA2531	1
PA2532,tpx	167
PA2533	380
PA2534	47
PA2535	16
PA2536	305
PA2537	117
PA2538	49
PA2539	255
PA2540	599
PA2541	234
PA2542	525
PA2543	504
PA2544	72
PA2545,xthA	404
PA2546	7
PA2547	24
PA2548	18
PA2549	229
PA2550	26
PA2551	157
PA2552	109
PA2553	96
PA2554	78
PA2555	334
PA2556	59
PA2557	78
PA2558	100
PA2559	167
PA2560	247
PA2561	23
PA2562	33
PA2563	22
PA2564	60
PA2565	26
PA2566	67
PA2567	961
PA2568	140
PA2569	101
PA2570,lecA	18
PA2570.1	67
PA2571	77
PA2572	76
PA2573	99
PA2574,alkB1	45
PA2575	268
PA2576	74
PA2577	55
PA2578	79
PA2579,kynA	437
PA2580	26
PA2581	499
PA2581.1	197
PA2582	797
PA2583	1298
PA2583.1	20
PA2584,pgsA	345
PA2585,uvrC	862
PA2586,gacA	1445
PA2587,pqsH	464
PA2588	119
PA2589	10
PA2590	22
PA2591	728
PA2592	508
PA2593,qteE	12
PA2594	29
PA2595	5
PA2596	13
PA2597	15
PA2598	4
PA2599	32
PA2600	19
PA2601	64
PA2602	9
PA2603	20
PA2603.1	48
PA2604	1144
PA2605	42
PA2606	69
PA2607	113
PA2608	98
PA2609	229
PA2610	54
PA2611,cysG	666
PA2612,serS	1052
PA2613	1606
PA2614,lolA	1178
PA2615,ftsK	4459
PA2616,trxB1	681
PA2617,aat	136
PA2618	103
PA2619,infA	336
PA2620,clpA	4023
PA2621	704
PA2622,cspD	132
PA2623,icd	4624
PA2624,idh	4200
PA2625	34
PA2626,trmU	818
PA2627	192
PA2628	86
PA2629,purB	706
PA2630	928
PA2631	388
PA2632	159
PA2633	253
PA2634,aceA	576
PA2635	12
PA2636	3
PA2637,nuoA	11
PA2638,nuoB	15
PA2639,nuoD	7
PA2640,nuoE	5
PA2641,nuoF	16
PA2642,nuoG	15
PA2643,nuoH	27
PA2644,nuoI	9
PA2645,nuoJ	7
PA2646,nuoK	4
PA2647,nuoL	22
PA2648,nuoM	20
PA2649,nuoN	21
PA2650	9
PA2651	384
PA2652	246
PA2653	200
PA2654	389
PA2655	9
PA2656	159
PA2657	81
PA2658	121
PA2659	96
PA2660	84
PA2661	45
PA2662	184
PA2663,ppyR	140
PA2664,fhp	493
PA2665	116
PA2666	107
PA2667,mvaU	1169
PA2668	33
PA2669	18
PA2670	26
PA2671	16
PA2672	12
PA2673	3
PA2674	11
PA2675	14
PA2676	19
PA2677	26
PA2678	18
PA2679	107
PA2680	7
PA2681	18
PA2682	35
PA2683	114
PA2684	789
PA2685,vgrG4	1112
PA2686,pfeR	39
PA2687,pfeS	40
PA2688,pfeA	4
PA2689	0
PA2690	53
PA2691	21
PA2692	168
PA2693	20
PA2694	9
PA2695	67
PA2696	64
PA2697	10
PA2698	15
PA2699	9
PA2700,opdB	6
PA2701	4
PA2702,tse2	31
PA2703,tsi2	26
PA2704	32
PA2705	308
PA2706	104
PA2707	874
PA2708	48
PA2709,cysK	288
PA2710	53
PA2711	48
PA2712	28
PA2713	61
PA2714	22
PA2715	2
PA2716	16
PA2717,cpo	15
PA2718	120
PA2719	32
PA2720	114
PA2721	12
PA2722	33
PA2723	21
PA2724	3
PA2725	293
PA2726	64
PA2727	175
PA2728	108
PA2729	69
PA2730	534
PA2731	497
PA2732	3274
PA2733	607
PA2734	1012
PA2735	2807
PA2736	223
PA2736.1	36
PA2737	1294
PA2738,himA	2390
PA2739,pheT	3077
PA2740,pheS	1025
PA2741,rplT	15131
PA2742,rpmI	5531
PA2743,infC	26523
PA2744,thrS	3878
PA2744.1	35
PA2745	52
PA2746	12
PA2747	90
PA2748	78
PA2749,endA	28
PA2750	13
PA2751	42
PA2752	36
PA2753	353
PA2754	272
PA2755,eco	955
PA2756	1028
PA2757	66
PA2758	61
PA2759	6
PA2760,oprQ	4515
PA2761	34
PA2762	6
PA2763	4
PA2764	43
PA2765	194
PA2766	17
PA2767	9
PA2768	5
PA2769	85
PA2770	207
PA2771	25
PA2772	125
PA2773	60
PA2774	140
PA2775	419
PA2775.1	12
PA2776,pauB3	221
PA2777	74
PA2778	41
PA2779	48
PA2780	52
PA2781	50
PA2782	3
PA2783	5
PA2784	7
PA2785	6
PA2786	4
PA2787,cpg2	14
PA2788	66
PA2789	69
PA2790	47
PA2791	13
PA2792	113
PA2793	221
PA2794	224
PA2795	154
PA2796,tal	658
PA2797	643
PA2798	1530
PA2799	98
PA2800	728
PA2801	32
PA2802	79
PA2803	1
PA2804	2
PA2805	632
PA2806	103
PA2807	12
PA2808,ptrA	5
PA2809,copR	53
PA2810,copS	57
PA2811	467
PA2812	191
PA2813	122
PA2814	123
PA2815	170
PA2816	14
PA2817	87
PA2818,arr	209
PA2819	4
PA2819.1	143
PA2819.2	1366
PA2819.3	513
PA2820	669
PA2821	203
PA2822	190
PA2823	468
PA2824	605
PA2825,ospR	84
PA2826	104
PA2827	220
PA2828	372
PA2829	43
PA2830,htpX	1710
PA2831	180
PA2832,tpm	185
PA2833	11
PA2834	34
PA2835	15
PA2836	9
PA2837	6
PA2838	5
PA2839	8
PA2840	359
PA2841	17
PA2842	64
PA2843	193
PA2844	32
PA2845	6
PA2846	49
PA2847	43
PA2848	16
PA2849,ohrR	19
PA2850,ohr	20
PA2851,efp	3572
PA2852	124
PA2852.1	72
PA2853,oprI	22584
PA2854	626
PA2855	37
PA2856,tesA	244
PA2857	84
PA2858	160
PA2859,greB	131
PA2860	143
PA2861,ligT	5
PA2862,lipA	8
PA2863,lipH	4
PA2864	86
PA2865	311
PA2866,mttC	37
PA2867	972
PA2868	161
PA2869	59
PA2870	46
PA2871	99
PA2872	36
PA2873	144
PA2874	25
PA2875	75
PA2876,pyrF	33
PA2877	54
PA2878	1
PA2879	65
PA2880	10
PA2881	1
PA2882	5
PA2883	196
PA2884	175
PA2885,atuR	196
PA2886,atuA	44
PA2887,atuB	24
PA2888,atuC	30
PA2889,atuD	51
PA2890,atuE	4
PA2891,atuF	23
PA2892,atuG	9
PA2893,atuH	17
PA2894	216
PA2895	62
PA2896	139
PA2897	940
PA2898	10
PA2899	93
PA2900	351
PA2901	536
PA2902	256
PA2903,cobJ	114
PA2904,cobI	140
PA2905,cobH	69
PA2906	94
PA2907,cobL	24
PA2908,cbiD	37
PA2909	5
PA2910	6
PA2911	72
PA2912	10
PA2913	41
PA2914	26
PA2915	57
PA2916	5
PA2917	35
PA2918	14
PA2919	1
PA2920	54
PA2921	37
PA2922	3
PA2923,hisJ	3
PA2924,hisQ	3
PA2925,hisM	1
PA2926,hisP	0
PA2927	20
PA2928	25
PA2929	19
PA2930	41
PA2931,cifR	17
PA2932,morB	13
PA2933	3
PA2934,cif	6
PA2935	19
PA2936	6
PA2937	10
PA2938	17
PA2939	47
PA2940	16
PA2941	19
PA2942	62
PA2942.1,P15	30
PA2943	21
PA2944,cobN	407
PA2945	341
PA2946	350
PA2947	25
PA2948,cobM	121
PA2949	87
PA2950	1665
PA2951,etfA	3700
PA2952,etfB	2667
PA2953	1032
PA2954	100
PA2955	135
PA2956	175
PA2957	554
PA2958	84
PA2958.1,rgsA	125
PA2959	847
PA2960,pilZ	625
PA2961,holB	462
PA2962,tmk	126
PA2963	424
PA2964,pabC	226
PA2965,fabF1	1115
PA2966,acpP	18355
PA2967,fabG	3069
PA2968,fabD	794
PA2969,plsX	549
PA2970,rpmF	2331
PA2971	10196
PA2972	27
PA2973	718
PA2974	767
PA2975,rluC	858
PA2976,rne	2278
PA2977,murB	468
PA2978,ptpA	300
PA2979,kdsB	216
PA2980	149
PA2981,lpxK	475
PA2982	358
PA2983	610
PA2984	39
PA2985	184
PA2986	586
PA2987	159
PA2988	684
PA2989	156
PA2990	183
PA2991,sth	2003
PA2992	169
PA2993	1048
PA2994,nqrF	967
PA2995,nqrE	411
PA2996,nqrD	787
PA2997,nqrC	690
PA2998,nqrB	772
PA2999,nqrA	615
PA3000,aroP1	622
PA3001	2262
PA3002,mfd	1034
PA3003	181
PA3004	178
PA3005,nagZ	255
PA3006,psrA	2066
PA3007,lexA	313
PA3008	119
PA3009	449
PA3010	432
PA3011,topA	3278
PA3012	144
PA3013,foaB	590
PA3014,faoA	1483
PA3015	161
PA3016	26
PA3017	103
PA3018	368
PA3019	847
PA3020	569
PA3021	149
PA3022	410
PA3023	42
PA3024	67
PA3025	38
PA3026	64
PA3027	89
PA3028,moeA2	361
PA3029,moaB2	189
PA3030,mobA	68
PA3031	355
PA3031.1	10
PA3032,snr1	21
PA3033	101
PA3034	270
PA3035	5
PA3036	3
PA3037	5
PA3038	377
PA3039	44
PA3040	86
PA3041	118
PA3042	20
PA3043	253
PA3044,rocsS2	22
PA3045,rocA2	27
PA3046	3020
PA3047	394
PA3048	581
PA3049,rmf	312
PA3050,pyrD	315
PA3051	21
PA3052	175
PA3053	72
PA3054	187
PA3055	184
PA3056	147
PA3057	23
PA3058,pelG	50
PA3059,pelF	37
PA3060,pelE	18
PA3061,pelD	29
PA3062,pelC	7
PA3063,pelB	81
PA3064,pelA	50
PA3065	18
PA3066	43
PA3067	49
PA3068,gdhB	2892
PA3069	98
PA3070	321
PA3071	74
PA3072	17
PA3073	138
PA3074	136
PA3075	173
PA3076	206
PA3077	41
PA3078	127
PA3079	397
PA3080	95
PA3081	124
PA3082,gbt	432
PA3083,pepN	1368
PA3084	220
PA3085	211
PA3086	330
PA3087	222
PA3088	301
PA3089	16
PA3090	4
PA3091	234
PA3092,fadH1	122
PA3093	191
PA3094	138
PA3094.1	220
PA3094.2	2907
PA3094.3	246
PA3095,xcpZ	7
PA3096,xcpY	49
PA3097,xcpX	144
PA3098,xcpW	88
PA3099,xcpV	39
PA3100,xcpU	86
PA3101,xcpT	173
PA3102,xcpS	370
PA3103,xcpR	297
PA3104,xcpP	300
PA3105,xcpQ	649
PA3106	361
PA3107,metZ	530
PA3108,purF	1110
PA3109	356
PA3110	584
PA3111,folC	1243
PA3112,accD	1332
PA3113,trpF	342
PA3114,truA	426
PA3115,fimV	5814
PA3116	341
PA3117,asd	892
PA3118,leuB	268
PA3119	35
PA3120,leuD	183
PA3121,leuC	301
PA3122	18
PA3123	51
PA3124	120
PA3125	53
PA3126,ibpA	275
PA3127	74
PA3128	56
PA3129	84
PA3130	86
PA3131	196
PA3132	10
PA3133	25
PA3133.1	131
PA3133.2	658
PA3133.3	739
PA3133.4	801
PA3134,gltX	1389
PA3135	131
PA3136	24
PA3137	30
PA3138,uvrB	612
PA3139	1055
PA3139.1	57
PA3140	24
PA3141,wbpM	3774
PA3142	245
PA3143	289
PA3144	99
PA3145,wbpL	1159
PA3146,wbpK	841
PA3147,wbpJ	1536
PA3148,wbpI	1425
PA3149,wbpH	1482
PA3150,wbpG	2121
PA3151,hisF2	1290
PA3152,hisH2	690
PA3153,wzx	1110
PA3154,wzy	1350
PA3155,wbpE	2237
PA3156,wbpD	1339
PA3157	2317
PA3158,wbpB	2228
PA3159,wbpA	3267
PA3160,wzz	1682
PA3161,himD	409
PA3162,rpsA	30405
PA3163,cmk	456
PA3164	1645
PA3165,hisC2	1041
PA3166,pheA	1201
PA3167,serC	1368
PA3168,gyrA	4572
PA3169	355
PA3170	225
PA3171,ubiG	299
PA3172	201
PA3173	160
PA3174	27
PA3175	10
PA3176,gltS	15
PA3177	181
PA3178	49
PA3179	304
PA3180	40
PA3181	737
PA3182,pgl	350
PA3183,zwf	3851
PA3184	253
PA3185	475
PA3186,oprB	1826
PA3187	955
PA3188	887
PA3189	707
PA3190	3559
PA3191	573
PA3192,gltR	439
PA3193,glk	791
PA3194,edd	2249
PA3195,gapA	492
PA3196	91
PA3197	168
PA3198	214
PA3199	140
PA3200	120
PA3201	543
PA3202	185
PA3203	265
PA3204	152
PA3205	153
PA3206	51
PA3207	5
PA3208	44
PA3209	16
PA3210,trkH	195
PA3211	771
PA3212	219
PA3213	209
PA3214	132
PA3215	53
PA3216	10
PA3217,cyaB	248
PA3218	0
PA3219	2
PA3220	40
PA3221,csaA	24
PA3222	60
PA3223,azoR3	22
PA3224	34
PA3225	109
PA3226	147
PA3227,ppiA	228
PA3228	214
PA3229	12
PA3230	156
PA3231	14
PA3232	43
PA3233	115
PA3234	568
PA3235	237
PA3236	57
PA3237	1
PA3238	190
PA3239	268
PA3240	45
PA3241	141
PA3242	258
PA3243,minC	189
PA3244,minD	3269
PA3245,minE	1124
PA3246,rluA	56
PA3247	490
PA3248	53
PA3249	9
PA3250	36
PA3251	6
PA3252	11
PA3253	11
PA3254	64
PA3255	98
PA3256	166
PA3257,prc	3873
PA3258	25
PA3259	38
PA3260	123
PA3261	116
PA3262	1434
PA3262.1	332
PA3262.2	250
PA3263	397
PA3264	78
PA3265	33
PA3266,capB	426
PA3267	673
PA3268	487
PA3269	74
PA3270	179
PA3271	1051
PA3272	153
PA3273	19
PA3274	0
PA3275	23
PA3276	86
PA3277	235
PA3278	693
PA3279,oprP	4
PA3280,oprO	50
PA3281	53
PA3282	34
PA3283	62
PA3284	80
PA3285	355
PA3286	426
PA3287	4
PA3288	46
PA3289	5
PA3290	442
PA3291	112
PA3292	73
PA3293	17
PA3294	126
PA3295	158
PA3296,phoA	2
PA3297	828
PA3298	4
PA3299,fadD1	1332
PA3300,fadD2	180
PA3301	170
PA3302	416
PA3303	15
PA3304	96
PA3304.1,P18	25
PA3305	331
PA3305.1,phrS	8454
PA3306	220
PA3307	27
PA3308,hepA	921
PA3309	2170
PA3310	126
PA3311	67
PA3312	39
PA3313	230
PA3314	27
PA3315	30
PA3316	41
PA3317	148
PA3318	9
PA3319,plcN	14
PA3320	1
PA3321	14
PA3322	142
PA3323	9
PA3324	10
PA3325	4
PA3326,clpP2	1157
PA3327	491
PA3328	95
PA3329	84
PA3330	40
PA3331	116
PA3332	63
PA3333,fabH2	85
PA3334	40
PA3335	43
PA3336	26
PA3337,rfaD	1163
PA3338	14
PA3339,plpD	139
PA3340	202
PA3341	350
PA3342	129
PA3343	359
PA3344,recQ	1220
PA3345,hptB	323
PA3346	320
PA3347	144
PA3348	884
PA3349	2557
PA3350	285
PA3351,flgM	661
PA3352	342
PA3353	668
PA3354	58
PA3355	125
PA3356,pauA5	562
PA3357,dsdA	49
PA3358	20
PA3359	7
PA3360	3
PA3361,lecB	36
PA3362	173
PA3363,amiR	190
PA3364,amiC	293
PA3365	356
PA3366,amiE	3008
PA3366.1,amiL	305
PA3367	47
PA3368.1	17
PA3368	203
PA3369	46
PA3370	18
PA3371	8
PA3372	15
PA3373	34
PA3374	32
PA3375	1
PA3376	3
PA3377	4
PA3378	3
PA3379	3
PA3380	0
PA3381	1
PA3382,phnE	3
PA3383	4
PA3384,phnC	5
PA3385,amrZ	930
PA3386	22
PA3387,rhlG	12
PA3388	27
PA3390	9
PA3389	3
PA3391,nosR	1483
PA3392,nosZ	342
PA3393,nosD	121
PA3394,nosF	11
PA3395,nosY	24
PA3396,nosL	13
PA3397,fpr	919
PA3398	57
PA3399	36
PA3400	96
PA3401	159
PA3402	110
PA3403	17
PA3404	2
PA3405,hasE	1
PA3406,hasD	1
PA3407,hasAp	1
PA3408,hasR	8
PA3409	5
PA3410	7
PA3411	4
PA3412	6
PA3413	75
PA3414	13
PA3415	12
PA3416	21
PA3417	12
PA3418,ldh	18
PA3419	13
PA3420	6
PA3421	11
PA3422	11
PA3423	55
PA3424	14
PA3425	1
PA3426	23
PA3427	57
PA3428	4
PA3429	21
PA3430	107
PA3431	272
PA3432	338
PA3433	50
PA3434	41
PA3435	104
PA3436	4
PA3437,folM	88
PA3438,folE1	140
PA3439,folX	126
PA3440	180
PA3441	11
PA3442	7
PA3443	2
PA3444	2
PA3445	15
PA3446	21
PA3447	2
PA3448	4
PA3449	1
PA3450	116
PA3451	39
PA3452,mqoA	383
PA3453	70
PA3454	59
PA3455	501
PA3456	48
PA3457	21
PA3458	276
PA3459	97
PA3460	34
PA3461	24
PA3462	37
PA3463	14
PA3464	33
PA3465	354
PA3466	389
PA3467	11
PA3468	193
PA3469	61
PA3470	31
PA3471	566
PA3472	233
PA3473	132
PA3474	61
PA3475,pheC	158
PA3476,rhlI	572
PA3477,rhlR	1019
PA3478,rhlB	94
PA3479,rhlA	180
PA3480	413
PA3481	200
PA3482,metG	1957
PA3483	146
PA3484,tse3	202
PA3485	52
PA3486	143
PA3487,pldA	339
PA3488	43
PA3489	49
PA3490	22
PA3491	155
PA3492	108
PA3493	41
PA3494	116
PA3495,nth	190
PA3496	219
PA3497	4
PA3498	54
PA3499	1
PA3500	11
PA3501	6
PA3502	7
PA3503	4
PA3504	6
PA3505	4
PA3506	8
PA3507	6
PA3508	3
PA3509	5
PA3510	10
PA3511	8
PA3512	3
PA3513	6
PA3514	15
PA3515	39
PA3516	9
PA3517	11
PA3518	6
PA3519	20
PA3520	4
PA3521	3
PA3522	21
PA3523	4
PA3524,gloA1	407
PA3525,argG	1269
PA3526	168
PA3527,pyrC	375
PA3528,rnt	621
PA3529	1840
PA3530	72
PA3531,bfrB	2372
PA3532	46
PA3533	1386
PA3534	33
PA3535	104
PA3536	96
PA3537,argF	203
PA3538	217
PA3539	247
PA3540,algD	35
PA3541,alg8	2
PA3542,alg44	1
PA3543,algK	5
PA3544,algE	7
PA3545,algG	9
PA3546,algX	4
PA3547,algL	3
PA3548,algI	13
PA3549,algJ	9
PA3550,algF	5
PA3551,algA	12
PA3552,arnB	51
PA3553,arnC	33
PA3554,arnA	105
PA3555,arnD	24
PA3556,arnT	28
PA3557,arnE	11
PA3558,arnF	14
PA3559	100
PA3560,fruA	242
PA3561,fruK	164
PA3562,fruI	377
PA3563,fruR	104
PA3564	19
PA3565	24
PA3566	39
PA3567	114
PA3568	46
PA3569,mmsB	66
PA3570,mmsA	184
PA3571,mmsR	76
PA3572	339
PA3573	52
PA3574,nalD	106
PA3575	47
PA3576	57
PA3577	8
PA3578	274
PA3579	318
PA3580	169
PA3581,glpF	762
PA3582,glpK	1460
PA3583,glpR	317
PA3584,glpD	2841
PA3585,glpM	28
PA3586	5
PA3587,metR	114
PA3588	21
PA3589	1
PA3590	23
PA3591	1
PA3592	7
PA3593	5
PA3594	53
PA3595	29
PA3596	10
PA3597	12
PA3598	22
PA3599	220
PA3600	16
PA3601	39
PA3602	571
PA3603,dgkA	38
PA3604,erdR	207
PA3605	47
PA3606	44
PA3607,potA	52
PA3608,potB	38
PA3609,potC	97
PA3610,potD	136
PA3611	226
PA3612	85
PA3613	1224
PA3614	714
PA3615	598
PA3616	234
PA3617,recA	1928
PA3618	32
PA3619	18
PA3620,mutS	195
PA3621,fdxA	942
PA3621.1,rsmZ	5361
PA3622,rpoS	1818
PA3623	1417
PA3624,pcm	658
PA3625,surE	455
PA3626	387
PA3627,ygbB	146
PA3628	155
PA3629,adhC	479
PA3630	48
PA3631	277
PA3632	35
PA3633,ygbP	97
PA3634	243
PA3635,eno	6156
PA3636,kdsA	1255
PA3637,pyrG	1821
PA3638	87
PA3639,accA	2997
PA3640,dnaE	3318
PA3641	1179
PA3642,rnhB	520
PA3643,lpxB	969
PA3644,lpxA	1971
PA3645,fabZ	2110
PA3646,lpxD	3329
PA3647	2151
PA3648,opr86	4051
PA3649,mucP	1485
PA3650,dxr	1011
PA3651,cdsA	530
PA3652,uppS	987
PA3653,frr	1952
PA3654,pyrH	1192
PA3655,tsf	5501
PA3656,rpsB	14425
PA3657,map	825
PA3658,glnD	635
PA3659	151
PA3660	519
PA3661	20
PA3662	424
PA3663	33
PA3664	132
PA3665	144
PA3666,dapD	603
PA3667	96
PA3668	9
PA3669	117
PA3670	151
PA3671	79
PA3672	54
PA3673,plsB	487
PA3674	57
PA3675	134
PA3676	302
PA3677	75
PA3678	215
PA3679	55
PA3680	87
PA3681	23
PA3682	18
PA3683	336
PA3684	76
PA3685	62
PA3686,adk	1099
PA3687,ppc	313
PA3688	22
PA3689	99
PA3690	199
PA3691	222
PA3692,lptF	322
PA3693	76
PA3694	59
PA3695	161
PA3696	149
PA3697	413
PA3698	426
PA3699	125
PA3700,lysS	1552
PA3701	1143
PA3702,wspR	261
PA3703,wspF	221
PA3704,wspE	451
PA3705,wspD	115
PA3706,wspC	305
PA3707,wspB	220
PA3708,wspA	926
PA3709	47
PA3710	145
PA3711	34
PA3712	77
PA3713,spdH	77
PA3714	4
PA3715	80
PA3716	1184
PA3717	65
PA3718	18
PA3719,armR	27
PA3720	35
PA3721,nalC	60
PA3722	308
PA3723	47
PA3724,lasB	274
PA3725,recJ	385
PA3726	222
PA3727	263
PA3728	2260
PA3729	2173
PA3730	577
PA3731	406
PA3732	605
PA3733	223
PA3734	28
PA3735,thrC	1301
PA3736,hom	884
PA3737,dsbC	1337
PA3738,xerD	144
PA3739	50
PA3740	148
PA3741	57
PA3742,rplS	10604
PA3743,trmD	10958
PA3744,rimM	2575
PA3745,rpsP	2635
PA3746,ffh	1795
PA3747	534
PA3748	326
PA3749	28
PA3750	48
PA3751,purT	302
PA3752	131
PA3753	457
PA3754	424
PA3755	259
PA3756	662
PA3757,nagR	11
PA3758	36
PA3759	16
PA3760	37
PA3761,nagE	45
PA3762	86
PA3763,purL	2418
PA3764	1267
PA3765	8
PA3766	146
PA3767	238
PA3768	784
PA3769,guaA	1925
PA3770,guaB	1470
PA3771	41
PA3772	4
PA3773	0
PA3774	0
PA3775	10
PA3776	5
PA3777,xseA	187
PA3778	81
PA3779	15
PA3780	2
PA3781	25
PA3782	24
PA3783	4
PA3784	55
PA3785	61
PA3786	114
PA3787	146
PA3788	9
PA3789	97
PA3790,oprC	293
PA3791	227
PA3792,leuA	772
PA3793	104
PA3794	78
PA3795	111
PA3796	128
PA3797	433
PA3798	268
PA3799	1619
PA3800	2388
PA3801	1068
PA3802,hisS	2395
PA3803,gcpE	2012
PA3804	754
PA3805,pilF	974
PA3806	2037
PA3807,ndk	4026
PA3808	471
PA3809,fdx2	1010
PA3810,hscA	1482
PA3811,hscB	544
PA3812,iscA	536
PA3813,iscU	957
PA3814,iscS	1488
PA3815,iscR	295
PA3816,cysE	643
PA3817	593
PA3818	288
PA3819	746
PA3820,secF	3835
PA3821,secD	2967
PA3822	1159
PA3823,tgt	829
PA3824,queA	236
PA3824.1	77
PA3825	121
PA3826	163
PA3827	1378
PA3828	925
PA3829	45
PA3830	21
PA3831,pepA	995
PA3832,holC	141
PA3833	56
PA3834,valS	2267
PA3835	29
PA3836	703
PA3837	171
PA3838	84
PA3839	1087
PA3840	181
PA3841,exoS	178
PA3842,spcS	21
PA3843	11
PA3844	33
PA3845	20
PA3846	63
PA3847	44
PA3848	172
PA3849	334
PA3850	323
PA3851	140
PA3852	117
PA3853	114
PA3854	30
PA3855	136
PA3856	57
PA3857,pcs	239
PA3858	185
PA3859	123
PA3860	104
PA3861,rhl	1077
PA3862,dauB	31
PA3863,dauA	53
PA3864,dauR	115
PA3865	104
PA3866	1357
PA3867	37
PA3868	24
PA3869	16
PA3870,moaA1	21
PA3871	45
PA3872,narI	116
PA3873,narJ	59
PA3874,narH	229
PA3875,narG	250
PA3876,narK2	383
PA3877,narK1	1506
PA3878,narX	390
PA3879,narL	680
PA3880	143
PA3881	68
PA3882	43
PA3883	20
PA3884	9
PA3885,tpbA	4
PA3886	59
PA3887,nhaP	210
PA3888	19
PA3889	20
PA3890	11
PA3891	25
PA3892	65
PA3893	116
PA3894	41
PA3895	130
PA3896	60
PA3897	8
PA3898	69
PA3899	7
PA3900	2
PA3901,fecA	64
PA3902	82
PA3903,prfC	853
PA3904	69
PA3905	204
PA3906	125
PA3907	216
PA3908	483
PA3909,eddB	3
PA3910,eddA	12
PA3911	32
PA3912	126
PA3913	195
PA3914,moeA1	99
PA3915,moaB1	207
PA3916,moaE	101
PA3917,moaD	96
PA3918,moaC	120
PA3919	1004
PA3920	31
PA3921	63
PA3922	76
PA3923	102
PA3924	33
PA3925	69
PA3926	19
PA3927	63
PA3928	27
PA3929,cioB	183
PA3930,cioA	140
PA3931	59
PA3932	9
PA3933	379
PA3934	256
PA3935,tauD	8
PA3936	10
PA3937	14
PA3938	19
PA3939	14
PA3940	905
PA3941	26
PA3942,tesB	155
PA3943	124
PA3944	69
PA3945	225
PA3946,rocS1	114
PA3947,rocR	73
PA3948,rocA1	415
PA3949	119
PA3950	237
PA3951	142
PA3952	74
PA3953	11
PA3954	22
PA3955	83
PA3956	22
PA3957	19
PA3958	129
PA3959	17
PA3960	36
PA3961	186
PA3962	73
PA3963	43
PA3964	4
PA3965	63
PA3966	185
PA3967	60
PA3968	51
PA3969	70
PA3970,amn	252
PA3971	12
PA3972	214
PA3973	75
PA3974,ladS	693
PA3975,thiD	154
PA3976,thiE	165
PA3977,hemL	820
PA3978	600
PA3979	75
PA3980	432
PA3981	717
PA3982	823
PA3983	941
PA3984,lnt	664
PA3985	97
PA3986	57
PA3987,leuS	3928
PA3988	437
PA3989,holA	493
PA3990	34
PA3991	0
PA3992	254
PA3993	48
PA3994	4
PA3995	26
PA3996,lis	1133
PA3997,lipB	769
PA3998	806
PA3999,dacC	3330
PA4000	1533
PA4001,sltB1	1046
PA4002,rodA	1293
PA4003,pbpA	929
PA4004	400
PA4005	300
PA4006,nadD	506
PA4007,proA	1080
PA4008	14
PA4009	36
PA4010	119
PA4011	194
PA4012	112
PA4013	103
PA4014	80
PA4015	72
PA4016	282
PA4017	138
PA4018	14
PA4019	257
PA4020,mpl	301
PA4021	291
PA4022	167
PA4023	41
PA4024,eutB	33
PA4025	18
PA4026	230
PA4027	63
PA4028	0
PA4029	192
PA4030	133
PA4031,ppa	2785
PA4032	344
PA4033,mucE	2
PA4034,aqpZ	17
PA4035	103
PA4036	121
PA4037	5
PA4038	3
PA4039	17
PA4040	61
PA4041	11
PA4042,xseB	100
PA4043,ispA	105
PA4044,dxs	1033
PA4045	214
PA4046	260
PA4047,ribA	433
PA4048	178
PA4049	121
PA4050,pgpA	283
PA4051,thiL	173
PA4052,nusB	387
PA4053,ribE	428
PA4054,ribB	485
PA4055,ribC	168
PA4056,ribD	161
PA4057,nrdR	168
PA4058	23
PA4059	34
PA4060	24
PA4061	389
PA4062	12
PA4063	32
PA4064	29
PA4065	92
PA4066	51
PA4067,oprG	6279
PA4068	417
PA4069	372
PA4070	34
PA4071	7
PA4072	11
PA4073	28
PA4074	9
PA4075	50
PA4076	78
PA4077	58
PA4078	31
PA4079	281
PA4080	45
PA4081,cupB6	9
PA4082,cupB5	16
PA4083,cupB4	0
PA4084,cupB3	6
PA4085,cupB2	1
PA4086,cupB1	9
PA4087	3
PA4088	1
PA4089	0
PA4090	13
PA4091,hpaA	23
PA4092,hpaC	1
PA4093	6
PA4094	67
PA4095	3
PA4096	1
PA4097	0
PA4098	1
PA4099	1
PA4100	11
PA4101,bfmR	29
PA4102,bfmS	25
PA4103	0
PA4104	2
PA4105	2
PA4106	2
PA4107	6
PA4108	169
PA4109,ampR	52
PA4110,ampC	4627
PA4111	691
PA4112	137
PA4113	82
PA4114	99
PA4115	481
PA4116,bphO	136
PA4117,bphP	437
PA4118	78
PA4119,aph	28
PA4120	23
PA4121	3
PA4122	5
PA4123,hpcC	7
PA4124,hpcB	17
PA4125,hpcD	9
PA4126	40
PA4127,hpcG	9
PA4128	1
PA4129	115
PA4130	720
PA4131	654
PA4132	888
PA4133	1913
PA4134	134
PA4135	50
PA4136	21
PA4137	9
PA4138,tyrS	30
PA4139	39
PA4140	8
PA4141	446
PA4142	5
PA4143	18
PA4144	3
PA4145	32
PA4146	6
PA4147,acoR	85
PA4148	2
PA4149	0
PA4150	5
PA4151,acoB	3
PA4152	4
PA4153	20
PA4154	37
PA4155	6
PA4156	6
PA4157	32
PA4158,fepC	2
PA4159,fepB	3
PA4160,fepD	3
PA4161,fepG	1
PA4162	40
PA4163	140
PA4164	56
PA4165	29
PA4166	14
PA4167	0
PA4168,fpvB	12
PA4169	25
PA4170	24
PA4171	12
PA4172	2
PA4173	1
PA4174	24
PA4175,piv	43
PA4176,ppiC2	87
PA4177	1
PA4178	33
PA4179	20
PA4180	197
PA4181	12
PA4182	36
PA4183	38
PA4184	57
PA4185	77
PA4186	28
PA4187	15
PA4188	1
PA4189	1
PA4190,pqsL	58
PA4191	9
PA4192	5
PA4193	4
PA4194	22
PA4195	34
PA4196,bfiR	32
PA4197,bfiS	103
PA4198	105
PA4199	157
PA4200	32
PA4201,ddlA	269
PA4202	44
PA4203	20
PA4204,ppgL	47
PA4205,mexG	90
PA4206,mexH	172
PA4207,mexI	381
PA4208,opmD	37
PA4209,phzM	57
PA4210,phzA1	13
PA4211,phzB1	30
PA4212,phzC1	43
PA4213,phzD1	3
PA4214,phzE1	23
PA4215,phzF1	7
PA4216,phzG1	10
PA4217,phzS	15
PA4218,ampP	194
PA4219	68
PA4220	28
PA4221,fptA	676
PA4222	63
PA4223	45
PA4224,pchG	34
PA4225,pchF	380
PA4226,pchE	373
PA4227,pchR	38
PA4228,pchD	114
PA4229,pchC	36
PA4230,pchB	13
PA4231,pchA	96
PA4232,ssb	436
PA4233	497
PA4234,uvrA	1438
PA4235,bfrA	551
PA4236,katA	2534
PA4237,rplQ	4864
PA4238,rpoA	13424
PA4239,rpsD	8845
PA4240,rpsK	4492
PA4241,rpsM	6954
PA4242,rpmJ	2611
PA4243,secY	21945
PA4244,rplO	10299
PA4245,rpmD	4530
PA4246,rpsE	6737
PA4247,rplR	4727
PA4248,rplF	5007
PA4249,rpsH	4158
PA4250,rpsN	8058
PA4251,rplE	20955
PA4252,rplX	6756
PA4253,rplN	6288
PA4254,rpsQ	2403
PA4255,rpmC	6756
PA4256,rplP	6541
PA4257,rpsC	9075
PA4258,rplV	5795
PA4259,rpsS	6919
PA4260,rplB	10432
PA4261,rplW	5127
PA4262,rplD	8056
PA4263,rplC	6319
PA4264,rpsJ	6629
PA4265,tufA	17828
PA4266,fusA1	37145
PA4267,rpsG	5301
PA4268,rpsL	5726
PA4269,rpoC	21701
PA4270,rpoB	19170
PA4270.1,P26	95
PA4271,rplL	15659
PA4272,rplJ	20948
PA4272.1,P27	15
PA4273,rplA	8552
PA4274,rplK	7075
PA4275,nusG	5689
PA4276,secE	4703
PA4276.1	1323
PA4277,tufB	16992
PA4277.1	401
PA4277.2	2232
PA4277.3	1416
PA4278	423
PA4279	331
PA4280,birA	456
PA4280.1	1800
PA4280.2	426400
PA4280.3	543
PA4280.4	378
PA4280.5	116858
PA4281,sbcD	141
PA4282	439
PA4283,recD	267
PA4284,recB	677
PA4285,recC	509
PA4286	116
PA4287	13
PA4288	18
PA4289	20
PA4290	198
PA4291	431
PA4292	530
PA4293,pprA	35
PA4294	16
PA4295,fppA	12
PA4296,pprB	73
PA4297,tadG	30
PA4298	4
PA4299,tadD	14
PA4300,tadC	21
PA4301,tadB	16
PA4302,tadA	13
PA4303,tadZ	11
PA4304,rcpA	46
PA4305,rcpC	10
PA4306,flp	20
PA4307,pctC	276
PA4308	257
PA4309,pctA	320
PA4310,pctB	502
PA4311	74
PA4312	50
PA4313	130
PA4314,purU1	617
PA4315,mvaT	2788
PA4316,sbcB	428
PA4317	723
PA4318	344
PA4319	493
PA4320	1838
PA4321	563
PA4322	418
PA4323	509
PA4324	343
PA4325	84
PA4326	55
PA4327	62
PA4328	465
PA4329,pykA	865
PA4330	49
PA4331	40
PA4332	471
PA4333	1529
PA4334	151
PA4335	114
PA4336	70
PA4337	36
PA4338	81
PA4339	86
PA4340	139
PA4341	13
PA4342	18
PA4343	5
PA4344	26
PA4345	136
PA4346	37
PA4347	204
PA4348	2736
PA4349	44
PA4350,olsB	12
PA4351,olsA	0
PA4352	1452
PA4353	86
PA4354	20
PA4355	36
PA4356,xenB	30
PA4357	11
PA4358	400
PA4359	23
PA4360	197
PA4361	91
PA4362	9
PA4363,iciA	50
PA4364	2
PA4365	2
PA4366,sodB	5904
PA4367,bifA	740
PA4368	247
PA4369	338
PA4370,icmP	522
PA4371	164
PA4372	253
PA4373	217
PA4374	312
PA4375	671
PA4376,pncB2	271
PA4377	90
PA4378,inaA	230
PA4379	247
PA4380	201
PA4381	318
PA4382	0
PA4383	72
PA4384	19
PA4385,groEL	8963
PA4386,groES	2905
PA4387	129
PA4388	87
PA4389	361
PA4390	186
PA4391	74
PA4392	39
PA4393,ampG	460
PA4394	627
PA4395	837
PA4396	95
PA4397,panE	14
PA4398	321
PA4399	105
PA4400	177
PA4401	266
PA4402,argJ	627
PA4403,secA	7019
PA4404	240
PA4405	201
PA4406,lpxC	9118
PA4406.1	484
PA4407,ftsZ	2982
PA4408,ftsA	1711
PA4409,ftsQ	758
PA4410,ddlB	569
PA4411,murC	1231
PA4412,murG	988
PA4413,ftsW	1973
PA4414,murD	1885
PA4415,mraY	1752
PA4416,murF	1426
PA4417,murE	1010
PA4418,ftsI	4281
PA4419,ftsL	510
PA4420	3534
PA4421	4698
PA4421.1,rnpB	2
PA4422	194
PA4423	843
PA4424	558
PA4425	660
PA4426	588
PA4427,sspB	180
PA4428,sspA	500
PA4429	4447
PA4430	3809
PA4431	1379
PA4432,rpsI	7273
PA4433,rplM	8537
PA4434	159
PA4435	107
PA4436	91
PA4437	38
PA4438	902
PA4439,trpS	651
PA4440	287
PA4441	416
PA4442,cysN	1138
PA4443,cysD	480
PA4444,mltB1	244
PA4445	95
PA4446,algW	357
PA4447,hisC1	574
PA4448,hisD	480
PA4449,hisG	1290
PA4450,murA	3882
PA4451	481
PA4451.1,P35	19
PA4452	157
PA4453	980
PA4454	903
PA4455	1034
PA4456	1042
PA4457	1236
PA4458	499
PA4459	758
PA4460	1075
PA4461	1179
PA4462,rpoN	2102
PA4463	8235
PA4464,ptsN	2209
PA4465	1882
PA4466	1367
PA4467	21
PA4468,sodM	20
PA4469	7
PA4470,fumC1	43
PA4471	9
PA4472,pmbA	319
PA4473	65
PA4474	581
PA4475	353
PA4476	1392
PA4477,cafA	1153
PA4478	131
PA4479,mreD	272
PA4480,mreC	507
PA4481,mreB	850
PA4482,gatC	136
PA4483,gatA	656
PA4484,gatB	1732
PA4485	63
PA4486	36
PA4487	292
PA4488	381
PA4489	1924
PA4490	272
PA4491	802
PA4492	395
PA4493,roxR	820
PA4494,roxS	1967
PA4495	188
PA4496	146
PA4497	56
PA4498	351
PA4499	109
PA4500	3562
PA4501,opdD	508
PA4502	767
PA4503	351
PA4504	246
PA4505	332
PA4506	389
PA4507	21
PA4508	13
PA4509	33
PA4510	39
PA4511	87
PA4512,lpxO1	252
PA4513	131
PA4514	64
PA4515	44
PA4516	41
PA4517	41
PA4518	49
PA4519,speC	861
PA4520	474
PA4521	180
PA4522,ampD	182
PA4523	2316
PA4524,nadC	210
PA4524.1	101
PA4525,pilA	18863
PA4526,pilB	2056
PA4527,pilC	2949
PA4528,pilD	941
PA4529,coaE	365
PA4530	124
PA4531	75
PA4532	115
PA4533	94
PA4534	93
PA4535	296
PA4536	94
PA4537	53
PA4538,ndh	719
PA4539	322
PA4540	8
PA4541	147
PA4541.1	19
PA4541.2	200
PA4541.3	217
PA4542,clpB	4645
PA4543	146
PA4544,rluD	414
PA4545,comL	1856
PA4546,pilS	291
PA4547,pilR	305
PA4548	197
PA4549,fimT	13
PA4550,fimU	194
PA4551,pilV	236
PA4552,pilW	258
PA4553,pilX	121
PA4554,pilY1	1091
PA4555,pilY2	207
PA4556,pilE	95
PA4557,lytB	525
PA4558	574
PA4559,lspA	1300
PA4560,ileS	4477
PA4561,ribF	1276
PA4562	254
PA4563,rpsT	537
PA4564	308
PA4565,proB	1224
PA4566,obg	2160
PA4567,rpmA	919
PA4568,rplU	7903
PA4569,ispB	694
PA4570	64
PA4571	1792
PA4572,fklB	225
PA4573	63
PA4574	110
PA4575	76
PA4576	1608
PA4577	146
PA4578	1351
PA4579	474
PA4580	135
PA4581,rtcR	206
PA4581.1	28
PA4582	83
PA4583	74
PA4584	129
PA4585,rtcA	32
PA4586	4
PA4587,ccpR	341
PA4588,gdhA	236
PA4589	23
PA4590,pra	35
PA4591	87
PA4592	66
PA4593	50
PA4594	74
PA4595	2303
PA4596	444
PA4597,oprJ	48
PA4598,mexD	261
PA4599,mexC	42
PA4600,nfxB	173
PA4601,morA	1172
PA4602,glyA3	1331
PA4603	76
PA4604	325
PA4605	388
PA4606	2270
PA4607	556
PA4608	136
PA4609,radA	208
PA4610	138
PA4611	1045
PA4612	35
PA4613,katB	76
PA4614,mscL	633
PA4615	415
PA4616	217
PA4617	91
PA4618	238
PA4619	695
PA4620	87
PA4621	675
PA4622	56
PA4623	11
PA4624,cdrB	120
PA4625,cdrA	528
PA4626,hprA	51
PA4627	107
PA4628,lysP	434
PA4629	23
PA4630	52
PA4631	252
PA4632	306
PA4633	569
PA4634	29
PA4635	7
PA4636	417
PA4637	69
PA4638	24
PA4639	416
PA4640,mqoB	1497
PA4641	18
PA4642	92
PA4643	116
PA4644	105
PA4645	228
PA4646,upp	167
PA4647,uraA	529
PA4648,cupE1	4
PA4649,cupE2	2
PA4650,cupE3	3
PA4651,cupE4	4
PA4652,cupE5	7
PA4653,cupE6	10
PA4654	8
PA4655,hemH	256
PA4656	266
PA4657	144
PA4658	222
PA4659	181
PA4660,phr	169
PA4661,pagL	885
PA4662,murI	328
PA4663,moeB	406
PA4664,hemK	368
PA4665,prfA	439
PA4666,hemA	572
PA4667	1174
PA4668	257
PA4669,ipk	7309
PA4669.1	1735
PA4670,prs	3224
PA4671	11214
PA4672	417
PA4673	964
PA4673.1	100
PA4674	275
PA4675	353
PA4676	198
PA4677	128
PA4678,rimI	80
PA4679	116
PA4680	14
PA4681	36
PA4682	22
PA4683	242
PA4684	180
PA4685	25
PA4686	1131
PA4687,hitA	355
PA4688,hitB	260
PA4689	1137
PA4690	509
PA4690.1	1773
PA4690.2	460511
PA4690.3	586
PA4690.4	352
PA4690.5	104162
PA4691	163
PA4692	124
PA4693,pssA	1033
PA4694,ilvC	1879
PA4695,ilvH	991
PA4696,ilvI	1629
PA4697	221
PA4698	192
PA4699	301
PA4700,mrcB	1754
PA4701	970
PA4702	61
PA4703	23
PA4704,cbpA	89
PA4704.1,prrF1	118
PA4704.2,prrF2	648
PA4705	94
PA4706	77
PA4707	84
PA4708,phuT	46
PA4709	21
PA4710,phuR	33
PA4711	30
PA4712	18
PA4713	36
PA4714	36
PA4715	461
PA4716	110
PA4717	208
PA4718	63
PA4719	350
PA4720,trmA	309
PA4721	126
PA4722	343
PA4723,dksA	5480
PA4724	61
PA4724.1	58
PA4725,cbrA	1089
PA4726,cbrB	1673
PA4726.1,P36	12
PA4726.11,crcZ	81458
PA4726.2,P30	7
PA4727,pcnB	868
PA4728,folK	84
PA4729,panB	265
PA4730,panC	219
PA4731,panD	176
PA4732,pgi	1033
PA4733,acsB	227
PA4734	142
PA4735	1520
PA4736	417
PA4737	79
PA4738	37
PA4739	244
PA4740,pnp	4576
PA4741,rpsO	6616
PA4742,truB	4597
PA4743,rbfA	334
PA4744,infB	8135
PA4745,nusA	4724
PA4746	1118
PA4746.1	556
PA4746.2	4062
PA4747,secG	9370
PA4748,tpiA	5892
PA4749,glmM	1292
PA4750,folP	824
PA4751,ftsH	5411
PA4752,ftsJ	250
PA4753	1559
PA4754	359
PA4755,greA	906
PA4756,carB	2875
PA4757	323
PA4758,carA	650
PA4758.1,P32	32
PA4759,dapB	263
PA4760,dnaJ	798
PA4761,dnaK	4865
PA4762,grpE	521
PA4763,recN	301
PA4764,fur	1441
PA4765,omlA	889
PA4766	101
PA4767	302
PA4768,smpB	905
PA4769	287
PA4770,lldP	1568
PA4771,lldD	553
PA4772	1621
PA4773	29
PA4774	114
PA4775	64
PA4776,pmrA	21
PA4777,pmrB	59
PA4778,cueR	274
PA4779	46
PA4780	158
PA4781	60
PA4782	131
PA4783	141
PA4784	17
PA4785	64
PA4786	9
PA4787	334
PA4788	7
PA4789	31
PA4790	34
PA4791	18
PA4792	29
PA4793	123
PA4794	55
PA4795	55
PA4796	75
PA4797	99
PA4798	44
PA4799	27
PA4800	29
PA4801	28
PA4802	15
PA4802.1	16
PA4803	50
PA4804	49
PA4805	27
PA4806	16
PA4807,selB	113
PA4808,selA	142
PA4809,fdhE	60
PA4810,fdnI	736
PA4811,fdnH	513
PA4812,fdnG	3576
PA4813,lipC	2
PA4814,fadH2	1
PA4815	52
PA4816	8
PA4817	7
PA4818	6
PA4819	5
PA4820	1
PA4821	20
PA4822	6
PA4823	0
PA4824	5
PA4825,mgtA	41
PA4826	31
PA4827	58
PA4828	5
PA4829,lpd3	33
PA4830	15
PA4831	32
PA4832	7
PA4833	195
PA4834	15
PA4835	25
PA4836	10
PA4837	29
PA4838	85
PA4839,speA	572
PA4840	61
PA4841	161
PA4842	836
PA4843	2077
PA4844	40
PA4845,dipZ	236
PA4846,aroQ1	1038
PA4847,accB	1530
PA4848,accC	3519
PA4849	98
PA4850,prmA	158
PA4851	402
PA4852	1095
PA4853,fis	121
PA4854,purH	902
PA4855,purD	630
PA4856,retS	1453
PA4857	21
PA4858	12
PA4859	0
PA4860	0
PA4861	8
PA4862	9
PA4863	33
PA4864,ureD	15
PA4865,ureA	8
PA4866	21
PA4867,ureB	16
PA4868,ureC	66
PA4869	91
PA4870	35
PA4871	2
PA4872	156
PA4873	89
PA4874	199
PA4875	17
PA4876,osmE	81
PA4877	8
PA4878	88
PA4879	202
PA4880	172
PA4881	1
PA4882	32
PA4883	0
PA4884	5
PA4885,irlR	59
PA4886	51
PA4887	271
PA4888,desB	493
PA4889	140
PA4890,desT	78
PA4891,ureE	7
PA4892,ureF	3
PA4893,ureG	15
PA4894	1
PA4895	3
PA4896	13
PA4897	13
PA4898,opdK	26
PA4899	14
PA4900	13
PA4901,mdlC	10
PA4902	29
PA4903	5
PA4904,vanA	6
PA4905,vanB	1
PA4906	85
PA4907	257
PA4908	1
PA4909	27
PA4910	13
PA4911	6
PA4912	3
PA4913	116
PA4914	38
PA4915	160
PA4916	151
PA4917	657
PA4918	946
PA4919,pncB1	2066
PA4920,nadE	392
PA4921	63
PA4922,azu	2542
PA4923	34
PA4924	136
PA4925	57
PA4926	21
PA4927	72
PA4928	434
PA4929	57
PA4930,alr	183
PA4931,dnaB	639
PA4932,rplI	6000
PA4933	8245
PA4934,rpsR	5230
PA4935,rpsF	13484
PA4936	340
PA4937,rnr	2364
PA4937.1	1481
PA4937.2	419
PA4938,purA	2964
PA4939	656
PA4940	400
PA4941,hflC	2765
PA4942,hflK	3346
PA4943	2199
PA4944,hfq	3155
PA4945,miaA	3441
PA4946,mutL	1464
PA4947,amiB	1248
PA4948	391
PA4949	168
PA4950	206
PA4951,orn	168
PA4952	269
PA4953,motB	725
PA4954,motA	547
PA4955	215
PA4956,rhdA	216
PA4957,psd	284
PA4958	518
PA4959,fimX	1577
PA4960	833
PA4961	1053
PA4962	280
PA4963	778
PA4964,parC	1923
PA4965	330
PA4966	295
PA4967,parE	1975
PA4968	268
PA4969,cpdA	190
PA4970	198
PA4971,aspP	441
PA4972	383
PA4973,thiC	158
PA4974	403
PA4975	22
PA4976,aruH	14
PA4977,aruI	23
PA4978	26
PA4979	35
PA4980	15
PA4981	21
PA4982	45
PA4983	86
PA4984	61
PA4985	8
PA4986	10
PA4987	57
PA4988,waaA	87
PA4989	37
PA4990	19
PA4991	171
PA4992	227
PA4993	111
PA4994	37
PA4995	167
PA4996,rfaE	1316
PA4997,msbA	1881
PA4998	201
PA4999,waaL	664
PA5000,wapR	1325
PA5001	1420
PA5002	1387
PA5003	1373
PA5004	1234
PA5005	3240
PA5006	689
PA5007	414
PA5008	466
PA5009,waaP	640
PA5010,waaG	678
PA5011,waaC	631
PA5012,waaF	519
PA5013,ilvE	1441
PA5014,glnE	1465
PA5015,aceE	9373
PA5016,aceF	3016
PA5017	846
PA5018,msrA	196
PA5019	134
PA5020	33
PA5021	446
PA5022	712
PA5023	101
PA5024	19
PA5025,metY	106
PA5026	52
PA5027	376
PA5028	445
PA5029	88
PA5030	89
PA5031	2
PA5032	4
PA5033	28
PA5034,hemE	348
PA5035,gltD	536
PA5036,gltB	2705
PA5037	1826
PA5038,aroB	1645
PA5039,aroK	663
PA5040,pilQ	4600
PA5041,pilP	1037
PA5042,pilO	1955
PA5043,pilN	1335
PA5044,pilM	4266
PA5045,ponA	1403
PA5046	1951
PA5047	629
PA5048	251
PA5049,rpmE	2263
PA5050,priA	166
PA5051,argS	1406
PA5052	127
PA5053,hslV	193
PA5054,hslU	804
PA5055	160
PA5056,phaC1	174
PA5057,phaD	93
PA5058,phaC2	33
PA5059	8
PA5060,phaF	3973
PA5061	1474
PA5062	215
PA5063,ubiE	397
PA5064	195
PA5065,ubiB	970
PA5066,hisI	1192
PA5067,hisE	762
PA5068,tatA	396
PA5069,tatB	191
PA5070,tatC	960
PA5071	90
PA5072	59
PA5073	107
PA5074	292
PA5075	302
PA5076	900
PA5077,mdoH	1814
PA5078	2057
PA5079	250
PA5080	281
PA5081	27
PA5082	106
PA5083	40
PA5084	62
PA5085	69
PA5086	93
PA5087	94
PA5088	75
PA5089	67
PA5090	75
PA5091,hutG	27
PA5092,hutI	23
PA5093	22
PA5094	44
PA5095	36
PA5096	50
PA5097	38
PA5098,hutH	13
PA5099	16
PA5100,hutU	72
PA5101	8
PA5102	11
PA5103	66
PA5104	51
PA5105,hutC	114
PA5106	52
PA5107,blc	426
PA5108	233
PA5109	238
PA5110,fbp	1327
PA5111,gloA3	233
PA5112,estA	635
PA5113	479
PA5114	976
PA5115	21
PA5116	2
PA5117,typA	2062
PA5118,thiI	651
PA5119,glnA	4482
PA5120	6
PA5121	449
PA5122	104
PA5123	117
PA5124,ntrB	264
PA5125,ntrC	1270
PA5126	70
PA5127	84
PA5128,secB	892
PA5129,grx	451
PA5130	368
PA5131,pgm	975
PA5132	33
PA5133	682
PA5134	871
PA5135	62
PA5136	585
PA5137	303
PA5138	392
PA5139	258
PA5140,hisF1	422
PA5141,hisA	401
PA5142,hisH1	345
PA5143,hisB	258
PA5144	4
PA5145	27
PA5146	1279
PA5147,mutY	472
PA5148	178
PA5149	109
PA5149.1	23
PA5150	159
PA5151	54
PA5152	638
PA5153	866
PA5154	218
PA5155	155
PA5156	34
PA5157	32
PA5158	48
PA5159	36
PA5160	71
PA5160.1	34
PA5161,rmlB	825
PA5162,rmlD	437
PA5163,rmlA	792
PA5164,rmlC	503
PA5165	276
PA5166	248
PA5167	271
PA5168	49
PA5169	111
PA5170,arcD	9292
PA5171,arcA	2500
PA5172,arcB	2451
PA5173,arcC	1147
PA5174	1540
PA5175,cysQ	227
PA5176	211
PA5177	94
PA5178	450
PA5179	63
PA5180	15
PA5181	61
PA5181.1,P34	99
PA5182	121
PA5183	19
PA5184	73
PA5185	18
PA5186	10
PA5187	45
PA5188	27
PA5189	36
PA5190	108
PA5191	45
PA5192,pckA	3049
PA5193,yrfI	312
PA5194	248
PA5195	110
PA5196	28
PA5197,rimK	186
PA5198	230
PA5199,amgS	305
PA5200,amgR	334
PA5201	1050
PA5202	100
PA5203,gshA	535
PA5204,argA	401
PA5205	68
PA5206,argE	326
PA5207	614
PA5208	2246
PA5209	228
PA5210	529
PA5211	25
PA5212	26
PA5213,gcvP1	130
PA5214,gcvH1	916
PA5215,gcvT1	603
PA5216	223
PA5217	242
PA5218	45
PA5219	38
PA5220	89
PA5221	141
PA5222	214
PA5223,ubiH	594
PA5224,pepP	1441
PA5225	283
PA5226	742
PA5227	715
PA5227.1,ssrS	1302
PA5228	208
PA5229	83
PA5230	1014
PA5231	3009
PA5232	2737
PA5233	183
PA5234	75
PA5235,glpT	808
PA5236	327
PA5237	1016
PA5238	105
PA5239,rho	2756
PA5240,trxA	1045
PA5241,ppx	1776
PA5242,ppk	3869
PA5243,hemB	1750
PA5244	820
PA5245	246
PA5246	16
PA5247	123
PA5248	514
PA5249	298
PA5250	996
PA5251	468
PA5252	982
PA5253,algP	1229
PA5254	33
PA5255,algQ	1929
PA5256,dsbH	212
PA5257	825
PA5258	629
PA5259,hemD	688
PA5260,hemC	512
PA5261,algR	1232
PA5262,algZ	769
PA5263,argH	506
PA5264	232
PA5265	171
PA5266	22
PA5267,hcpB	20
PA5268,corA	326
PA5269	114
PA5270	436
PA5271	87
PA5272,cyaA	323
PA5273	69
PA5274,rnk	738
PA5275	88
PA5276,lppL	221
PA5277,lysA	567
PA5278,dapF	598
PA5279	368
PA5280,sss	160
PA5281	80
PA5282	5
PA5283	182
PA5284	39
PA5285	453
PA5286	335
PA5287,amtB	581
PA5288,glnK	1003
PA5289	113
PA5290	82
PA5291	738
PA5292,pchP	42
PA5293	29
PA5294	19
PA5295	647
PA5296,rep	815
PA5297,poxB	39
PA5298	299
PA5299	106
PA5300,cycB	2593
PA5301,pauR	733
PA5302,dadX	1020
PA5303	2218
PA5304,dadA	2858
PA5305	201
PA5306	129
PA5307	542
PA5308,lrp	305
PA5309,pauB4	152
PA5310	97
PA5311	29
PA5312,pauC	1154
PA5313,gabT2	176
PA5314	162
PA5315,rpmG	649
PA5316,rpmB	4832
PA5316.1	0
PA5317	434
PA5318	20
PA5319,radC	72
PA5320,coaC	881
PA5321,dut	245
PA5322,algC	2004
PA5323,argB	2724
PA5324	86
PA5325	19
PA5326	19
PA5327	6
PA5328	2
PA5329	86
PA5330	595
PA5331,pyrE	466
PA5332,crc	3385
PA5333	543
PA5334,rph	807
PA5335	235
PA5336,gmk	411
PA5337,rpoZ	1397
PA5338,spoT	2678
PA5339	595
PA5340	578
PA5341	5
PA5342	88
PA5343	86
PA5344,oxyR	737
PA5345,recG	907
PA5346,sadB	2136
PA5347	158
PA5348	434
PA5349	299
PA5350,rubA2	183
PA5351,rubA1	414
PA5352	1
PA5353,glcF	5
PA5354,glcE	15
PA5355,glcD	80
PA5356,glcC	45
PA5357	35
PA5358,ubiA	259
PA5359	57
PA5360,phoB	147
PA5361,phoR	92
PA5362	1593
PA5363	192
PA5364	856
PA5365,phoU	283
PA5366,pstB	426
PA5367,pstA	365
PA5368,pstC	202
PA5369,pstS	442
PA5369.1	3581
PA5369.2	514394
PA5369.3	718
PA5369.4	434
PA5369.5	129134
PA5370	518
PA5371	438
PA5372,betA	239
PA5373,betB	897
PA5374,betI	786
PA5375,betT1	129
PA5376	240
PA5377	84
PA5378	212
PA5379,sdaB	15
PA5380,gbdR	140
PA5381	16
PA5382	22
PA5383	3
PA5384	0
PA5385,cdhB	0
PA5386,cdhA	0
PA5387,cdhC	6
PA5388	2
PA5389,cdhR	24
PA5390	25
PA5391	1
PA5392	5
PA5393	11
PA5394,cls	188
PA5395	2
PA5396	71
PA5397	17
PA5398,dgcA	39
PA5399,dgcB	11
PA5400	3
PA5401	3
PA5402	166
PA5403	59
PA5404	13
PA5405	10
PA5406	77
PA5407	19
PA5408	16
PA5409	361
PA5410,gbcA	123
PA5411,gbcB	22
PA5412	470
PA5413,ltaA	555
PA5414	198
PA5415,glyA1	46
PA5416,soxB	26
PA5417,soxD	6
PA5418,soxA	42
PA5419,soxG	15
PA5420,purU2	15
PA5421,fdhA	27
PA5422	112
PA5423	154
PA5424	709
PA5425,purK	340
PA5426,purE	189
PA5427,adhA	1483
PA5428	67
PA5429,aspA	5123
PA5430	85
PA5431	9
PA5432	6
PA5433	9
PA5434,mtr	98
PA5435	3840
PA5436	1697
PA5437	292
PA5438	684
PA5439	249
PA5440	389
PA5441	1560
PA5442	126
PA5443,uvrD	1368
PA5444	91
PA5445	1056
PA5446	4505
PA5447,wbpZ	379
PA5448,wbpY	212
PA5449,wbpX	220
PA5450,wzt	211
PA5451,wzm	165
PA5452,wbpW	297
PA5453,gmd	480
PA5454,rmd	338
PA5455	705
PA5456	291
PA5457	127
PA5458	82
PA5459	69
PA5460	246
PA5461	373
PA5462	94
PA5463	33
PA5464	277
PA5465	57
PA5466	59
PA5467	18
PA5468	15
PA5469	24
PA5470	17
PA5471	92
PA5471.1	29
PA5472	289
PA5473	366
PA5474	339
PA5475	1149
PA5476,citA	64
PA5477	78
PA5478	288
PA5479,gltP	1613
PA5480	2
PA5481	130
PA5482	42
PA5483,algB	361
PA5484,kinB	387
PA5485,ampDh2	108
PA5486	86
PA5487	816
PA5488	865
PA5489,dsbA	2094
PA5490,cc4	1339
PA5491	820
PA5492	457
PA5493,polA	1945
PA5494	1196
PA5495,thrB	654
PA5496,nrdJb	345
PA5497,nrdJa	1051
PA5498	281
PA5499,np20	140
PA5500,znuC	94
PA5501,znuB	148
PA5502	112
PA5503	408
PA5504	462
PA5505	859
PA5506	293
PA5507	375
PA5508,pauA7	305
PA5509	420
PA5510	712
PA5511,mifR	321
PA5512,mifS	244
PA5513,poxA	81
PA5514	71
PA5515	313
PA5516,pdxY	258
PA5517	175
PA5518	325
PA5519	84
PA5520	106
PA5521	184
PA5522,pauA6	122
PA5523	174
PA5524	87
PA5525	166
PA5526	339
PA5527	239
PA5528	3563
PA5529	1413
PA5530	49
PA5531,tonB1	605
PA5532	33
PA5533	59
PA5534	19
PA5535	44
PA5536	3
PA5537	44
PA5538,amiA	9
PA5539	4
PA5540	3
PA5541,pyrQ	2
PA5542	90
PA5543	17
PA5544	131
PA5545	189
PA5546	419
PA5547	178
PA5548	24
PA5549,glmS	536
PA5550,glmR	134
PA5551	179
PA5552,glmU	973
PA5553,atpC	1364
PA5554,atpD	11791
PA5555,atpG	9099
PA5556,atpA	11938
PA5557,atpH	5227
PA5558,atpF	8306
PA5559,atpE	5054
PA5560,atpB	7176
PA5561,atpI	2754
PA5562,spoOJ	1612
PA5563,soj	822
PA5564,gidB	572
PA5565,gidA	1232
PA5566	5
PA5567	309
PA5568	4155
PA5569,rnpA	2041
PA5570,rpmH	1976

