PA0001,dnaA	3870
PA0002,dnaN	2086
PA0003,recF	1890
PA0004,gyrB	3334
PA0005,lptA	411
PA0006	108
PA0007	1931
PA0008,glyS	855
PA0009,glyQ	301
PA0010,tag	39
PA0011	291
PA0012	69
PA0013	21
PA0014	29
PA0015	48
PA0016,trkA	415
PA0017	159
PA0018,fmt	88
PA0019,def	812
PA0020	675
PA0021	8
PA0022	45
PA0023,qor	427
PA0024,hemF	109
PA0025,aroE	68
PA0026,plcB	567
PA0027	455
PA0028	211
PA0029	8
PA0030	18
PA0031,betC	12
PA0032	79
PA0033,hptC	7
PA0034	11
PA0035,trpA	142
PA0036,trpB	262
PA0037,trpI	29
PA0038	4473
PA0039	13083
PA0040	66
PA0041	1420
PA0042	26
PA0043	72
PA0044,exoT	135
PA0045	29
PA0046	39
PA0047	9
PA0048	7
PA0049	4
PA0050	779
PA0051,phzH	133
PA0052	269
PA0053	218
PA0054	21
PA0055	104
PA0056	7
PA0057	17
PA0058	6
PA0059,osmC	1803
PA0060	329
PA0061	157
PA0062	83
PA0063	107
PA0064	202
PA0065	154
PA0066	152
PA0067,prlC	1353
PA0068	440
PA0069	33
PA0070,tagQ1	3583
PA0071,tagR1	2331
PA0072,tagS1	41
PA0073,tagT1	22
PA0074,ppkA	714
PA0075,pppA	204
PA0076,tagF1	104
PA0077,tssM1	1504
PA0078,tssL1	265
PA0079,tssK1	378
PA0080,tssJ1	161
PA0081,fha1	528
PA0082,tssA1	686
PA0083,tssB1	857
PA0084,tssC1	5490
PA0085,hcp1	3331
PA0086,tagJ1	510
PA0087,tssE1	264
PA0088,tssF1	1015
PA0089,tssG1	431
PA0090,clpV1	1182
PA0091,vgrG1	608
PA0092	184
PA0093	319
PA0094	80
PA0095	1612
PA0096	122
PA0097	390
PA0098	233
PA0099	1405
PA0100	564
PA0101	259
PA0102	545
PA0103	77
PA0104	55
PA0105,coxB	4627
PA0106,coxA	4358
PA0107	1361
PA0108,coIII	2708
PA0109	173
PA0110	601
PA0111	384
PA0112	374
PA0113	534
PA0114,senC	234
PA0115	20
PA0116	223
PA0117	26
PA0118	36
PA0119	129
PA0120	203
PA0121	74
PA0122,rahU	8900
PA0123	78
PA0124	66
PA0125	37
PA0126	57
PA0127	91
PA0128	300
PA0129,bauD	77
PA0130,bauC	413
PA0131,bauB	146
PA0132,bauA	378
PA0133,bauR	46
PA0134	199
PA0135	8
PA0136	5
PA0137	12
PA0138	8
PA0139,ahpC	3611
PA0140,ahpF	265
PA0141	1500
PA0142	69
PA0143,nuh	393
PA0144	80
PA0145	24
PA0146	15
PA0147	66
PA0148	212
PA0149	7
PA0150	11
PA0151	13
PA0152,pcaQ	8
PA0153,pcaH	14
PA0154,pcaG	19
PA0155,pcaR	84
PA0156,triA	203
PA0157,triB	208
PA0158,triC	2727
PA0159	293
PA0160	77
PA0161	874
PA0162,opdC	52
PA0163	40
PA0164	46
PA0165	24
PA0166	4
PA0167	117
PA0168	22
PA0169,siaD	26
PA0170	35
PA0171	25
PA0172,siaA	47
PA0173	197
PA0174	338
PA0175	1107
PA0176,aer2	3733
PA0177	1225
PA0178	2861
PA0179	2658
PA0180,cttP	778
PA0181	130
PA0182	9
PA0183,atsA	26
PA0184	9
PA0185	12
PA0186	9
PA0187	30
PA0188	31
PA0189	6
PA0190	5
PA0191	13
PA0192	2
PA0193	2
PA0194	4
PA0195,pntAA	99
PA0195.1,pntAB	56
PA0196,pntB	355
PA0197,tonB2	3
PA0198,exbB1	10
PA0199,exbD1	5
PA0200	196
PA0201	110
PA0202	11
PA0203	18
PA0204	1
PA0205	1
PA0206	4
PA0207	51
PA0208,mdcA	43
PA0209	8
PA0210,mdcC	0
PA0211,mdcD	28
PA0212,mdcE	27
PA0213	8
PA0214	42
PA0215	39
PA0216	32
PA0217	35
PA0218	55
PA0219	14
PA0220	21
PA0221	11
PA0222	6
PA0223	181
PA0224	10
PA0225	84
PA0226	13
PA0227	11
PA0228,pcaF	26
PA0229,pcaT	301
PA0230,pcaB	186
PA0231,pcaD	140
PA0232,pcaC	244
PA0233	51
PA0234	20
PA0235,pcaK	6
PA0236	8
PA0237	5
PA0238	6
PA0239	53
PA0240	4
PA0241	4
PA0242	24
PA0243	68
PA0244	4
PA0245,aroQ2	6
PA0246	47
PA0247,pobA	12
PA0248	79
PA0249	67
PA0250	250
PA0251	7
PA0252	7
PA0253	14
PA0254	42
PA0255	52
PA0256	401
PA0257	102
PA0258	176
PA0259	869
PA0260	610
PA0261	137
PA0262	426
PA0263,hcpC	73
PA0263.1	100
PA0264	4
PA0265,gabD	2253
PA0266,gabT	2098
PA0267	67
PA0268	53
PA0269	190
PA0270	275
PA0271	161
PA0272	8
PA0273	3
PA0274	18
PA0275	87
PA0276	21
PA0277	34
PA0278	14
PA0279	25
PA0280,cysA	122
PA0281,cysW	115
PA0282,cysT	46
PA0283,sbp	62
PA0284	18
PA0285	137
PA0286,desA	604
PA0287,gpuP	17
PA0288,gpuA	14
PA0289,gpuR	144
PA0290	316
PA0291,oprE	1194
PA0292,aguA	174
PA0293,aguB	70
PA0294,aguR	72
PA0295	143
PA0296,spuI	2894
PA0297,spuA	2026
PA0298,spuB	3721
PA0299,spuC	3631
PA0300,spuD	4943
PA0301,spuE	985
PA0302,spuF	756
PA0303,spuG	1170
PA0304,spuH	1644
PA0305,hacB	200
PA0306	46
PA0307	23
PA0308	67
PA0309	101
PA0310	135
PA0311	1
PA0312	150
PA0313	156
PA0314	420
PA0315	944
PA0316,serA	464
PA0317	689
PA0318	261
PA0319	139
PA0320	32
PA0321	28
PA0322	29
PA0323	32
PA0324	2
PA0325	14
PA0326	7
PA0327	306
PA0328	139
PA0329	854
PA0330,rpiA	149
PA0331,ilvA1	176
PA0332	356
PA0333	217
PA0334	43
PA0335	93
PA0336,ygdP	1640
PA0337,ptsP	5009
PA0338	703
PA0339	21
PA0340	83
PA0341,lgt	115
PA0342,thyA	181
PA0343	356
PA0344	401
PA0345	173
PA0346	12
PA0347,glpQ	11
PA0348	23
PA0349	18
PA0350,folA	25
PA0351	79
PA0352	75
PA0353,ilvD	582
PA0354	444
PA0355,pfpI	1283
PA0356	97
PA0357,mutM	96
PA0358	41
PA0359	169
PA0360	202
PA0361	253
PA0362,fdx1	212
PA0363,coaD	116
PA0364	171
PA0365	100
PA0366	392
PA0367	147
PA0368	105
PA0369	51
PA0370	208
PA0371	354
PA0372	149
PA0373,ftsY	554
PA0374,ftsE	342
PA0375,ftsX	1137
PA0376,rpoH	3964
PA0377	67
PA0378	21
PA0379	44
PA0380	26
PA0381,thiG	58
PA0382,micA	37
PA0383	16
PA0384	21
PA0385	8
PA0386	30
PA0387	301
PA0388	587
PA0389	210
PA0390,metX	91
PA0391	362
PA0392	764
PA0393,proC	271
PA0394	196
PA0395,pilT	1024
PA0396,pilU	1304
PA0397	241
PA0398	536
PA0399	519
PA0400	559
PA0401	326
PA0402,pyrB	597
PA0403,pyrR	286
PA0404	54
PA0405	234
PA0406,tonB3	120
PA0407,gshB	177
PA0408,pilG	2241
PA0409,pilH	1040
PA0410,pilI	991
PA0411,pilJ	1991
PA0412,pilK	1166
PA0413,chpA	5621
PA0414,chpB	520
PA0415,chpC	129
PA0416,chpD	106
PA0417,chpE	17
PA0418	79
PA0419	32
PA0420,bioA	229
PA0421	334
PA0422	4495
PA0423,pasP	6174
PA0424,mexR	151
PA0425,mexA	800
PA0426,mexB	3204
PA0427,oprM	1559
PA0428	817
PA0429	2115
PA0430,metF	617
PA0431	268
PA0432,sahH	1237
PA0433	14
PA0434	43
PA0435	45
PA0436	1273
PA0437,codA	70
PA0438,codB	23
PA0439	6
PA0440	2
PA0441,dht	28
PA0442	3
PA0443	18
PA0444	16
PA0445	84
PA0446	545
PA0447,gcdH	2972
PA0448	132
PA0449	758
PA0450	46
PA0451	109
PA0452	112
PA0453	9
PA0454	283
PA0455,dbpA	243
PA0456	2773
PA0457	31
PA0457.1	74
PA0458	321
PA0459	4171
PA0460	897
PA0461	286
PA0462	311
PA0463,creB	89
PA0464,creC	122
PA0465,creD	46
PA0466	17
PA0467	87
PA0468	103
PA0469	490
PA0470	55
PA0471	45
PA0472	51
PA0473	278
PA0474	6
PA0475	28
PA0476	167
PA0477	57
PA0478	19
PA0479	96
PA0480	15
PA0481	31
PA0482,glcB	3270
PA0483	431
PA0484	637
PA0485	90
PA0486	166
PA0487	88
PA0488	25
PA0489	5
PA0490	335
PA0491	53
PA0492	6
PA0493	21
PA0494	37
PA0495	36
PA0496	52
PA0497	104
PA0498	74
PA0499	8
PA0500,bioB	347
PA0501,bioF	203
PA0502	116
PA0503	75
PA0504,bioD	31
PA0505	454
PA0506	1863
PA0507	104
PA0508	136
PA0509,nirN	161
PA0510	68
PA0511,nirJ	152
PA0512	81
PA0513	55
PA0514,nirL	40
PA0515	38
PA0516,nirF	184
PA0517,nirC	73
PA0518,nirM	127
PA0519,nirS	1002
PA0520,nirQ	171
PA0521	11
PA0522	0
PA0523,norC	16
PA0524,norB	79
PA0525	33
PA0526	23
PA0527,dnr	121
PA0527.1,rsmY	19164
PA0528	60
PA0529	71
PA0530	21
PA0531	28
PA0532	22
PA0533	131
PA0534,pauB1	163
PA0535	95
PA0536	376
PA0537	611
PA0538,dsbB	362
PA0539	75
PA0540	107
PA0541	42
PA0542	252
PA0543	376
PA0544	23
PA0545	738
PA0546,metK	1447
PA0547	1019
PA0548,tktA	1250
PA0549	111
PA0550	19
PA0551,epd	172
PA0552,pgk	548
PA0553	401
PA0554	1286
PA0555,fda	4290
PA0556	74
PA0557	45
PA0558	247
PA0559	60
PA0560	101
PA0561	199
PA0562	15
PA0563	442
PA0564	29
PA0565	94
PA0566	90
PA0567	918
PA0568	33
PA0569	45
PA0570	21
PA0571	50
PA0572	1268
PA0573	10
PA0574	174
PA0574.1	1
PA0575	869
PA0576,rpoD	5388
PA0577,dnaG	1189
PA0578	62
PA0579,rpsU	996
PA0580,gcp	80
PA0581	222
PA0582,folB	21
PA0583	77
PA0584,cca	154
PA0585	140
PA0586	5647
PA0587	5050
PA0588	27872
PA0589	97
PA0590,apaH	399
PA0591	128
PA0592,ksgA	85
PA0593,pdxA	241
PA0594,surA	3853
PA0595,ostA	3988
PA0596	555
PA0597	260
PA0598	328
PA0599	131
PA0600	289
PA0601	241
PA0602	306
PA0603	209
PA0604	431
PA0605	175
PA0606	90
PA0607,rpe	60
PA0608	264
PA0609,trpE	208
PA0610,prtN	340
PA0611,prtR	419
PA0612,ptrB	115
PA0613	780
PA0614	616
PA0615	833
PA0616	386
PA0617	731
PA0618	1676
PA0619	1093
PA0620	4238
PA0621	1263
PA0622	4823
PA0623	2429
PA0624	1336
PA0625	3612
PA0626	861
PA0627	328
PA0628	1111
PA0629	217
PA0630	144
PA0631	95
PA0632	2174
PA0633	2563
PA0634	980
PA0635	1692
PA0636	3163
PA0637	470
PA0638	583
PA0639	617
PA0640	566
PA0641	2230
PA0642	761
PA0643	891
PA0644	527
PA0645	517
PA0646	1116
PA0647	644
PA0648	754
PA0649,trpG	221
PA0650,trpD	926
PA0651,trpC	579
PA0652,vfr	492
PA0653	341
PA0654,speD	189
PA0655	356
PA0656	298
PA0657	405
PA0658	244
PA0659	392
PA0660	323
PA0661	203
PA0662,argC	223
PA0663	265
PA0664	209
PA0665	423
PA0666	569
PA0667	2135
PA0668,tyrZ	1892
PA0668.1	151144
PA0668.2	129
PA0668.3	102
PA0668.4	482647
PA0668.5	7073
PA0669	85
PA0670	15
PA0671	9
PA0672,hemO	119
PA0673	40
PA0674,vreA	12
PA0675,vreI	7
PA0676,vreR	18
PA0677	4
PA0678	0
PA0679	17
PA0680	0
PA0681	4
PA0682	3
PA0683	9
PA0684	4
PA0685	1
PA0686	1
PA0687	2
PA0688	6
PA0689	100
PA0690	450
PA0691	5
PA0692	6
PA0693,exbB2	7
PA0694,exbD2	2
PA0695	1
PA0696	11
PA0697	7
PA0698	4
PA0699	13
PA0700	15
PA0701	22
PA0702	2
PA0703	17
PA0704	232
PA0705,migA	293
PA0706,cat	241
PA0707,toxR	14
PA0708	67
PA0709	20
PA0710,gloA2	6
PA0711	20
PA0712	18
PA0713	277
PA0714	32
PA0714.1,phrD	7529
PA0715	3357
PA0716	2415
PA0717	217
PA0718	179
PA0719	205
PA0720	180
PA0721	70
PA0722	656
PA0723,coaB	787
PA0724	119
PA0725	11
PA0726	38
PA0727	114
PA0728	60
PA0729	424
PA0729.1	441
PA0730	42
PA0731	323
PA0732	772
PA0733	20
PA0734	10
PA0735	81
PA0736	94
PA0737	90
PA0738	26
PA0739	19
PA0740,sdsA1	36
PA0741	84
PA0742	39
PA0743	725
PA0744	2083
PA0745	2040
PA0746	1709
PA0747	1988
PA0748	41
PA0749	91
PA0750,ung	167
PA0751	160
PA0752	317
PA0753	66
PA0754	332
PA0755,opdH	362
PA0756	23
PA0757	62
PA0758	143
PA0759	270
PA0760	104
PA0761,nadB	1012
PA0762,algU	10838
PA0763,mucA	3328
PA0764,mucB	3124
PA0765,mucC	885
PA0766,mucD	2542
PA0767,lepA	857
PA0768,lepB	1033
PA0769	700
PA0770,rnc	350
PA0771,era	831
PA0772,recO	121
PA0773,pdxJ	166
PA0774	30
PA0775	16
PA0776	98
PA0777	16
PA0778,icp	51
PA0779	1443
PA0780,pruR	33
PA0781	18
PA0782,putA	667
PA0783,putP	224
PA0784	494
PA0785,azoR1	20
PA0786	22
PA0787	80
PA0788	1632
PA0789	351
PA0790	2
PA0791	54
PA0792,prpD	899
PA0793	770
PA0794	2034
PA0795,prpC	4163
PA0796,prpB	1170
PA0797	261
PA0798,pmtA	97
PA0799	123
PA0800	10
PA0801	52
PA0802	19
PA0803	65
PA0804	239
PA0805	643
PA0806	9
PA0807,ampDh3	654
PA0808	135
PA0809	11
PA0810	59
PA0811	58
PA0812	13
PA0813	37
PA0814	1
PA0815	333
PA0816	70
PA0817	27
PA0818	6
PA0819	35
PA0820	844
PA0821	160
PA0822	42
PA0823	2
PA0824	3
PA0825	15
PA0826	124
PA0826.2,ssrA	13426
PA0826.1	224752
PA0827	62
PA0828	29
PA0829	58
PA0830	52
PA0831,oruR	153
PA0832	168
PA0833	547
PA0834	100
PA0835,pta	1314
PA0836,ackA	729
PA0836.1,P5	1
PA0837,slyD	1338
PA0838	692
PA0839	16
PA0840	39
PA0841	61
PA0842	7
PA0843,plcR	83
PA0844,plcH	22
PA0845	20
PA0846	201
PA0847	319
PA0848	54
PA0849,trxB2	4493
PA0850	14
PA0851	65
PA0852,cbpD	2980
PA0853	399
PA0854,fumC2	879
PA0855	128
PA0856	577
PA0857,bolA	175
PA0858	376
PA0859	107
PA0860	378
PA0861	2186
PA0862	696
PA0863	32
PA0864	8
PA0865,hpd	28451
PA0866,aroP2	1041
PA0867,mliC	1287
PA0868	30
PA0869,pbpG	231
PA0870,phhC	3111
PA0871,phhB	1645
PA0872,phhA	4043
PA0873,phhR	827
PA0874	79
PA0875	24
PA0876	349
PA0877	64
PA0878	24
PA0879	40
PA0880	13
PA0881	15
PA0882	24
PA0883	14
PA0884	63
PA0885	17
PA0886	31
PA0887,acsA	7416
PA0887.1,P7	58
PA0888,aotJ	1859
PA0889,aotQ	205
PA0890,aotM	241
PA0891	357
PA0892,aotP	331
PA0893,argR	592
PA0894	41
PA0895,aruC	2202
PA0896,aruF	1746
PA0897,aruG	1707
PA0898,aruD	1717
PA0899,aruB	3394
PA0900	668
PA0901,aruE	1434
PA0902	69
PA0903,alaS	804
PA0904,lysC	1152
PA0905,rsmA	2631
PA0905.1	904
PA0905.2	473
PA0905.3	20
PA0906	342
PA0907	157
PA0908	93
PA0909	59
PA0910	201
PA0911	294
PA0912	52
PA0913,mgtE	633
PA0914	8
PA0915	22
PA0916	218
PA0917,kup	627
PA0918	1052
PA0919	665
PA0920	410
PA0921	60
PA0922	181
PA0922.1	2337
PA0923,dinB	113
PA0924	34
PA0925	49
PA0926	83
PA0927,ldhA	263
PA0928,gacS	583
PA0929	72
PA0930	106
PA0931,pirA	106
PA0932,cysM	362
PA0933,ygcA	661
PA0934,relA	2404
PA0935	431
PA0936,lpxO2	499
PA0937	465
PA0938	2252
PA0939	31
PA0940	38
PA0941	40
PA0942	525
PA0943	866
PA0944,purN	289
PA0945,purM	209
PA0946	290
PA0947	166
PA0948	118
PA0949,wrbA	276
PA0950	192
PA0951	348
PA0952	50
PA0953	172
PA0954	143
PA0955	410
PA0956,proS	829
PA0957	24
PA0958,oprD	12465
PA0959	1147
PA0960	129
PA0961	79
PA0962	4188
PA0963,aspS	1858
PA0964,pmpR	1917
PA0965,ruvC	221
PA0966,ruvA	474
PA0967,ruvB	731
PA0968	500
PA0969,tolQ	1311
PA0970,tolR	765
PA0971,tolA	2349
PA0972,tolB	2691
PA0973,oprL	4277
PA0974	1226
PA0975	60
PA0976	54
PA0976.1	42
PA0977	19
PA0978	29
PA0979	122
PA0980	93
PA0981	189
PA0982	175
PA0983	231
PA0984	94
PA0985,pyoS5	908
PA0986	6
PA0987	15
PA0988	273
PA0989	15
PA0990	49
PA0991,hptA	154
PA0992,cupC1	39
PA0993,cupC2	13
PA0994,cupC3	140
PA0995,ogt	195
PA0996,pqsA	1069
PA0997,pqsB	1859
PA0998,pqsC	1887
PA0999,pqsD	1612
PA1000,pqsE	1514
PA1001,phnA	2166
PA1002,phnB	349
PA1003,mvfR	588
PA1004,nadA	349
PA1005	762
PA1006	49
PA1007	145
PA1008,bcp	470
PA1009	179
PA1010,dapA	807
PA1011	1678
PA1012	671
PA1013,purC	1557
PA1013.1	36
PA1014	446
PA1015	33
PA1016	40
PA1017,pauA	52
PA1018	14
PA1019,mucK	16
PA1020	74
PA1021	32
PA1022	113
PA1023	110
PA1024	69
PA1025	41
PA1026	14
PA1027	140
PA1028	90
PA1029	115
PA1030	281
PA1030.1,P8	27
PA1031	513
PA1032,quiP	573
PA1033	176
PA1034	78
PA1035	197
PA1036	113
PA1037	22
PA1038	96
PA1039	186
PA1040	137
PA1041	2080
PA1042	128
PA1043	137
PA1044	10
PA1045	243
PA1046	232
PA1047	196
PA1048	2251
PA1049,pdxH	355
PA1050	174
PA1051	62
PA1052	32
PA1053	996
PA1054	680
PA1055	138
PA1056	310
PA1057	246
PA1058	88
PA1059	216
PA1060	246
PA1061	206
PA1062	172
PA1063	110
PA1064	168
PA1065	155
PA1066	72
PA1067	54
PA1068	219
PA1069	800
PA1070,braG	1194
PA1071,braF	880
PA1072,braE	1107
PA1073,braD	727
PA1074,braC	5038
PA1075	100
PA1076	406
PA1077,flgB	357
PA1078,flgC	366
PA1079,flgD	814
PA1080,flgE	1623
PA1081,flgF	491
PA1082,flgG	615
PA1083,flgH	361
PA1084,flgI	853
PA1085,flgJ	674
PA1086,flgK	1581
PA1087,flgL	1583
PA1088	1020
PA1089	465
PA1090	507
PA1091,fgtA	3210
PA1092,fliC	16775
PA1093	1686
PA1094,fliD	6483
PA1095	2190
PA1096	858
PA1097,fleQ	4471
PA1098,fleS	656
PA1099,fleR	444
PA1100,fliE	237
PA1101,fliF	1166
PA1102,fliG	1300
PA1103	1270
PA1104,fliI	565
PA1105,fliJ	296
PA1106	307
PA1107	152
PA1108	1
PA1109	41
PA1110	49
PA1111	125
PA1112	463
PA1112.1	617
PA1113	47
PA1114	126
PA1115	909
PA1116	18
PA1117	37
PA1118	944
PA1119,yfiB	283
PA1120,tpbB	464
PA1121,yfiR	174
PA1122	248
PA1123	92
PA1124,dgt	494
PA1125	100
PA1126	71
PA1127	226
PA1128	31
PA1129	13
PA1130,rhlC	386
PA1131	541
PA1132	57
PA1133	12
PA1134	3
PA1135	215
PA1136	64
PA1137	116
PA1138	25
PA1139	99
PA1140	427
PA1141	18
PA1142	22
PA1143	1
PA1144	9
PA1145	62
PA1146	2
PA1147	27
PA1148,toxA	17
PA1149	4
PA1150,pys2	3972
PA1151,imm2	1293
PA1152	122
PA1153	2
PA1154	1
PA1155,nrdB	2517
PA1156,nrdA	1964
PA1157	47
PA1158	71
PA1159	1403
PA1160	74
PA1161,rrmA	86
PA1162,dapE	50
PA1163,ndvB	384
PA1164	59
PA1165,pcpS	40
PA1166	152
PA1167	164
PA1168	1798
PA1169	612
PA1170	76
PA1171	118
PA1172,napC	383
PA1173,napB	616
PA1174,napA	3475
PA1175,napD	751
PA1176,napF	348
PA1177,napE	504
PA1178,oprH	2425
PA1179,phoP	513
PA1180,phoQ	653
PA1181	836
PA1182	32
PA1183,dctA	258
PA1184	42
PA1185	8
PA1186	11
PA1187	37
PA1188	73
PA1189	8
PA1190	1628
PA1191	300
PA1192	160
PA1193	85
PA1194	22
PA1195	25
PA1196	291
PA1197	360
PA1198	1539
PA1199	536
PA1200	554
PA1201	67
PA1202	649
PA1203	73
PA1204	159
PA1205	290
PA1206	87
PA1207,kefB	450
PA1208	134
PA1209	50
PA1210	136
PA1211	7
PA1212	37
PA1213	41
PA1214	90
PA1215	90
PA1216	181
PA1217	281
PA1218	328
PA1219	60
PA1220	48
PA1221	58
PA1222	65
PA1223	38
PA1224	12
PA1225	12
PA1226	56
PA1227	57
PA1228	7
PA1229	22
PA1230	0
PA1231	5
PA1232	12
PA1233	0
PA1234	35
PA1235	14
PA1236	9
PA1237	3
PA1238	4
PA1239	22
PA1240	35
PA1241	57
PA1242	255
PA1243	1030
PA1244	1122
PA1245,aprX	1058
PA1246,aprD	481
PA1247,aprE	1110
PA1248,aprF	2427
PA1249,aprA	6642
PA1250,aprI	188
PA1251	7
PA1252	93
PA1253	2
PA1254	8
PA1255	14
PA1256	11
PA1257	11
PA1258	1
PA1259	7
PA1260	7
PA1261	10
PA1262	1
PA1263	37
PA1264	13
PA1265	3
PA1266	2
PA1267	2
PA1268	6
PA1269	126
PA1270	8
PA1271	164
PA1272,cobO	66
PA1273,cobB	46
PA1274	31
PA1275,cobD	32
PA1276,cobC	18
PA1277,cobQ	71
PA1278,cobP	38
PA1279,cobU	27
PA1280	43
PA1281,cobV	16
PA1282	9
PA1283	81
PA1284	27
PA1285	69
PA1286	11
PA1287	407
PA1288	1756
PA1289	242
PA1290	54
PA1291	74
PA1292	167
PA1293	305
PA1294,rnd	197
PA1295	180
PA1296	133
PA1297	38
PA1298	16
PA1299	34
PA1300	35
PA1301	31
PA1302	77
PA1303	29
PA1304	141
PA1305	123
PA1306	123
PA1307	589
PA1308	414
PA1309	61
PA1310,phnW	32
PA1311,phnX	34
PA1312	21
PA1313	18
PA1314	11
PA1315	41
PA1316	22
PA1317,cyoA	13
PA1318,cyoB	52
PA1319,cyoC	9
PA1320,cyoD	24
PA1321,cyoE	13
PA1322	31
PA1323	3457
PA1324	8332
PA1324.1,P9	812
PA1325	12
PA1326,ilvA2	38
PA1327	852
PA1328	50
PA1329	0
PA1330	17
PA1331	179
PA1332	8
PA1333	21
PA1334	6
PA1335	336
PA1336	546
PA1337,ansB	7191
PA1338,ggt	2633
PA1339	2982
PA1340	1687
PA1341	1466
PA1342	7869
PA1343	48
PA1344	354
PA1345	99
PA1346	9
PA1347	5
PA1348	166
PA1349	16
PA1350	119
PA1351	23
PA1352	1
PA1353	58
PA1354	72
PA1355	17
PA1356	36
PA1357	38
PA1358	65
PA1359	23
PA1360	7
PA1361	60
PA1362	17
PA1363	16
PA1364	7
PA1365	37
PA1366	1498
PA1367	36
PA1368	128
PA1369	507
PA1370	1768
PA1371	2412
PA1372	3042
PA1373,fabF2	28
PA1374	14
PA1375,pdxB	15
PA1376,aceK	464
PA1377	78
PA1378	69
PA1379	9
PA1380	81
PA1381	10
PA1382	448
PA1383	210
PA1384,galE	29
PA1385	245
PA1386	100
PA1387	108
PA1388	149
PA1389	124
PA1390	85
PA1391	119
PA1392	269
PA1393,cysC	31
PA1394	3
PA1395	12
PA1396	30
PA1397	30
PA1398	12
PA1399	5
PA1400	25
PA1401	36
PA1402	17
PA1403	30
PA1404	277
PA1405	173
PA1406	92
PA1407	189
PA1408	647
PA1409,aphA	41
PA1410	34
PA1411	56
PA1412	0
PA1413	38
PA1414	2446
PA1415	94
PA1416	12
PA1417	8
PA1418	20
PA1419	15
PA1420	10
PA1421,gbuA	28
PA1422,gbuR	66
PA1423,bdlA	187
PA1424	16
PA1425	18
PA1426	4
PA1427	10
PA1428	4
PA1429	1366
PA1430,lasR	9075
PA1431,rsaL	5632
PA1432,lasI	2528
PA1433	189
PA1434	44
PA1435	15
PA1436	71
PA1437	120
PA1438	186
PA1439	42
PA1440	408
PA1441	535
PA1442	474
PA1443,fliM	1085
PA1444,fliN	376
PA1445,fliO	161
PA1446,fliP	749
PA1447,fliQ	325
PA1448,fliR	354
PA1449,flhB	321
PA1450	219
PA1451	121
PA1452,flhA	1554
PA1453,flhF	1117
PA1454,fleN	1881
PA1455,fliA	2544
PA1456,cheY	2314
PA1457,cheZ	2921
PA1458	3073
PA1459	750
PA1460,motC	919
PA1461,motD	693
PA1462	727
PA1463	1365
PA1464	2333
PA1465	147
PA1466	9
PA1467	40
PA1468	23
PA1469	39
PA1470	55
PA1471	53
PA1472	90
PA1473	139
PA1474	647
PA1475,ccmA	29
PA1476,ccmB	115
PA1477,ccmC	356
PA1478	51
PA1479,ccmE	116
PA1480,ccmF	650
PA1481,ccmG	334
PA1482,ccmH	225
PA1483,cycH	180
PA1484	50
PA1485	28
PA1486	22
PA1487	86
PA1488	73
PA1489	65
PA1490	41
PA1491	15
PA1492	10
PA1493,cysP	539
PA1494	175
PA1495	12
PA1496	62
PA1497	2
PA1498,pykF	28
PA1499	6
PA1500	55
PA1501	18
PA1502,gcl	22
PA1503	24
PA1504	38
PA1505,moaA2	831
PA1506	15
PA1507	190
PA1508	153
PA1509	1022
PA1510	664
PA1511	346
PA1512,hcpA	122
PA1513	213
PA1514	249
PA1515,alc	241
PA1516	121
PA1517	199
PA1518	68
PA1519	30
PA1520	387
PA1521	117
PA1522	115
PA1523,xdhB	539
PA1524,xdhA	454
PA1525,alkB2	99
PA1526	839
PA1527	2540
PA1528,zipA	2259
PA1529,lig	620
PA1530	357
PA1530.1,ffs	1529
PA1531	195
PA1532,dnaX	674
PA1533	870
PA1534,recR	149
PA1535	121
PA1536	9
PA1537	49
PA1538	57
PA1539	75
PA1540	9
PA1541	15
PA1542	51
PA1543,apt	91
PA1544,anr	2404
PA1545	1661
PA1546,hemN	4988
PA1547	32
PA1548	79
PA1549	313
PA1550	718
PA1551	4001
PA1552,ccoP1	806
PA1552.1,ccoQ1	200
PA1553,ccoO1	851
PA1554,ccoN1	552
PA1555,ccoP2	1157
PA1555.1,ccoQ2	548
PA1556,ccoO2	1723
PA1557,ccoN2	1837
PA1558	26
PA1559	77
PA1560	41
PA1561,aer	2420
PA1562,acnA	7340
PA1563	270
PA1564	74
PA1565,pauB2	17
PA1566,pauA3	2
PA1567	25
PA1568	1
PA1569	15
PA1570	84
PA1571	366
PA1572	559
PA1573	263
PA1574	42
PA1575	119
PA1576	212
PA1577	55
PA1578	82
PA1579	1601
PA1580,gltA	1131
PA1581,sdhC	569
PA1582,sdhD	551
PA1583,sdhA	6157
PA1584,sdhB	4622
PA1585,sucA	9621
PA1586,sucB	4166
PA1587,lpdG	5069
PA1588,sucC	5166
PA1589,sucD	3289
PA1590,braB	424
PA1591	36
PA1592	8313
PA1593	15
PA1594	20
PA1595	43
PA1596,htpG	1703
PA1597	56
PA1598	9
PA1599	16
PA1600	28
PA1601	89
PA1602	34
PA1603	39
PA1604	658
PA1605	195
PA1606	64
PA1607	120
PA1608	142
PA1609,fabB	2002
PA1610,fabA	957
PA1611	627
PA1612	91
PA1613	226
PA1614,gpsA	763
PA1615	86
PA1616	183
PA1617	1068
PA1618	285
PA1619	57
PA1620	1
PA1621	105
PA1622	195
PA1623	422
PA1624	289
PA1625	187
PA1626	33
PA1627	32
PA1628	141
PA1629	70
PA1630	290
PA1631	119
PA1632,kdpF	0
PA1633,kdpA	10
PA1634,kdpB	10
PA1635,kdpC	1
PA1636,kdpD	103
PA1637,kdpE	39
PA1638	45
PA1639	63
PA1640	211
PA1641	107
PA1642,selD	420
PA1643	544
PA1644	45
PA1645	7
PA1646	56
PA1647	276
PA1648	50
PA1649	52
PA1650	221
PA1651	119
PA1652	41
PA1653	17
PA1654	266
PA1655	287
PA1656	6501
PA1657	2294
PA1658	6069
PA1659	735
PA1660	1849
PA1661	1605
PA1662	1945
PA1663	1006
PA1664	90
PA1665	415
PA1666	450
PA1667	1019
PA1668	633
PA1669	1823
PA1670,stp1	217
PA1671,stk1	229
PA1672	117
PA1673	5925
PA1674,folE2	161
PA1675	40
PA1676	40
PA1677	187
PA1678	134
PA1679	369
PA1680	128
PA1681,aroC	143
PA1682	78
PA1683	151
PA1684	236
PA1685,masA	357
PA1686,alkA	71
PA1687,speE	56
PA1688	210
PA1689	600
PA1690,pscU	14
PA1691,pscT	3
PA1692	3
PA1693,pscR	44
PA1694,pscQ	2
PA1695,pscP	0
PA1696,pscO	4
PA1697	9
PA1698,popN	13
PA1699,pcr1	8
PA1700,pcr2	2
PA1701,pcr3	0
PA1702,pcr4	1
PA1703,pcrD	68
PA1704,pcrR	6
PA1705,pcrG	7
PA1706,pcrV	47
PA1707,pcrH	13
PA1708,popB	118
PA1709,popD	96
PA1710,exsC	220
PA1711,exsE	20
PA1712,exsB	131
PA1713,exsA	332
PA1714,exsD	113
PA1715,pscB	3
PA1716,pscC	60
PA1717,pscD	12
PA1718,pscE	7
PA1719,pscF	32
PA1720,pscG	15
PA1721,pscH	6
PA1722,pscI	22
PA1723,pscJ	43
PA1724,pscK	9
PA1725,pscL	17
PA1726,bglX	139
PA1727,mucR	225
PA1728	690
PA1729	410
PA1730	421
PA1731	208
PA1732	161
PA1733	337
PA1734	18
PA1735	69
PA1736	105
PA1737	255
PA1738	177
PA1739	24
PA1740	15
PA1741	51
PA1742,pauD2	818
PA1743	0
PA1744	3
PA1745	140
PA1746	1949
PA1747	15
PA1748	49
PA1749	1281
PA1750	254
PA1751	114
PA1752	331
PA1753	448
PA1754,cysB	1051
PA1755	55
PA1756,cysH	218
PA1757,thrH	39
PA1758,pabB	178
PA1759	2358
PA1760	2456
PA1761	353
PA1762	223
PA1763	60
PA1764	37
PA1765	182
PA1766	1508
PA1767	690
PA1768	158
PA1769	670
PA1770,ppsA	4635
PA1771,estX	29
PA1772	783
PA1773,cmaX	835
PA1774,crfX	868
PA1775,cmpX	3002
PA1776,sigX	10947
PA1777,oprF	65780
PA1778,cobA	24
PA1779	50
PA1780,nirD	9
PA1781,nirB	20
PA1781.1,P11	0
PA1782	7
PA1783,nasA	6
PA1784	174
PA1785	5
PA1786	6
PA1787,acnB	4110
PA1788	140
PA1789	3090
PA1790	46
PA1791	29
PA1792	110
PA1793,ppiB	1541
PA1794,glnS	1676
PA1795,cysS	1712
PA1796,folD	71
PA1796.1	47
PA1796.2	56
PA1796.3	89
PA1796.4	69
PA1797	27
PA1798,parS	77
PA1799,parR	56
PA1800,tig	6999
PA1801,clpP	1824
PA1802,clpX	14418
PA1803,lon	7523
PA1804,hupB	15401
PA1804.1	513
PA1805,ppiD	2663
PA1806,fabI	282
PA1807	437
PA1808	457
PA1809	406
PA1810	822
PA1811	383
PA1812,mltD	462
PA1813	347
PA1814	352
PA1815,rnhA	233
PA1816,dnaQ	215
PA1817	197
PA1818,ldcA	2217
PA1819	1162
PA1820,nhaB	135
PA1821	661
PA1822,fimL	1091
PA1823	676
PA1824	7
PA1825	46
PA1826	76
PA1827	9
PA1828	244
PA1829	144
PA1830	995
PA1831	995
PA1832	1312
PA1833	1764
PA1834	100
PA1835	18
PA1836	41
PA1837	37
PA1838,cysI	228
PA1839	12
PA1840	37
PA1841	42
PA1842	267
PA1843,metH	1294
PA1844,tse1	18
PA1845	24
PA1846,cti	241
PA1847	434
PA1848	36
PA1849	0
PA1850	25
PA1851	277
PA1852	1379
PA1853	70
PA1854	0
PA1855	1
PA1856	32
PA1857	82
PA1858,str	41
PA1859	62
PA1860	331
PA1861,modC	58
PA1862,modB	41
PA1863,modA	53
PA1864	9
PA1865	291
PA1866	182
PA1867,xphA	1
PA1868,xqhA	13
PA1869	10942
PA1870	69
PA1871,lasA	3180
PA1872	137
PA1873	27
PA1874	9096
PA1875	1357
PA1876	1560
PA1877	1604
PA1878	4
PA1879	3
PA1880	456
PA1881	99
PA1882	15
PA1883	12
PA1884	10
PA1885	18
PA1886,polB	249
PA1887	384
PA1888	503
PA1889	160
PA1890	52
PA1891	3
PA1892	25
PA1893	90
PA1894	109
PA1895	160
PA1896	111
PA1897	65
PA1898,qscR	57
PA1899,phzA2	548
PA1900,phzB2	920
PA1901,phzC2	365
PA1902,phzD2	182
PA1903,phzE2	779
PA1904,phzF2	266
PA1905,phzG2	208
PA1906	15
PA1907	19
PA1908	5
PA1909	49
PA1910,femA	18
PA1911,femR	14
PA1912,femI	14
PA1913	29
PA1914	750
PA1915	367
PA1916	3
PA1917	1
PA1918	6
PA1919,nrdG	2
PA1920,nrdD	42
PA1921	20
PA1922	8
PA1923	3
PA1924	1
PA1925	1
PA1926	110
PA1927,metE	40
PA1928,rimJ	15
PA1929	10
PA1930	637
PA1931	66
PA1932	31
PA1933	171
PA1934	70
PA1935	112
PA1936	1
PA1937	69
PA1938	32
PA1939	5404
PA1940	352
PA1941	258
PA1942	28
PA1943	383
PA1944	957
PA1945	119
PA1946,rbsB	1862
PA1947,rbsA	1332
PA1948,rbsC	1237
PA1949,rbsR	1167
PA1950,rbsK	787
PA1951	218
PA1952	0
PA1953	1
PA1954	5
PA1955	0
PA1956	0
PA1957	7
PA1958	20
PA1959,bacA	42
PA1960	38
PA1961	47
PA1962,azoR2	18
PA1963	73
PA1964	125
PA1965	20
PA1966	2
PA1967	93
PA1968	129
PA1969	238
PA1970	6
PA1971,braZ	14
PA1972	8
PA1973,pqqF	44
PA1974	11
PA1975	20
PA1976,ercS'	48
PA1977	6
PA1978,erbR	30
PA1979,eraS	14
PA1980,eraR	12
PA1981	1
PA1982,exaA	16
PA1983,exaB	2
PA1984,exaC	453
PA1985,pqqA	507
PA1986,pqqB	199
PA1987,pqqC	220
PA1988,pqqD	139
PA1989,pqqE	401
PA1990,pqqH	164
PA1991	106
PA1992,ercS	2
PA1993	0
PA1994	1
PA1995	0
PA1996,ppiC1	0
PA1997	0
PA1998,dhcR	0
PA1999,dhcA	3
PA2000,dhcB	0
PA2001,atoB	2
PA2002	1
PA2003,bdhA	0
PA2004	1
PA2005	0
PA2006	0
PA2007,maiA	0
PA2008,fahA	1
PA2009,hmgA	1
PA2010	0
PA2011,liuE	1
PA2012,liuD	2
PA2013,liuC	1
PA2014,liuB	1
PA2015,liuA	3
PA2016,liuR	3
PA2017	0
PA2018	1
PA2019	2
PA2020	0
PA2021	0
PA2022	0
PA2023,galU	6
PA2024	0
PA2025,gor	4
PA2026	1
PA2027	0
PA2028	1
PA2029	0
PA2030	0
PA2031	0
PA2032	0
PA2033	0
PA2034	0
PA2035	0
PA2036	0
PA2037	0
PA2038	1
PA2039	2
PA2040,pauA4	338
PA2041	0
PA2042	3
PA2043	0
PA2044	6
PA2045	0
PA2046	0
PA2047	0
PA2048	0
PA2049	0
PA2050	0
PA2051	0
PA2052,cynS	0
PA2053,cynT	0
PA2054,cynR	0
PA2055	0
PA2056	0
PA2057	0
PA2058	0
PA2059	0
PA2060	1
PA2061	0
PA2062	1
PA2063	0
PA2064,pcoB	0
PA2065,pcoA	0
PA2066	0
PA2067	0
PA2068	0
PA2069	0
PA2070	1
PA2071,fusA2	4
PA2072	0
PA2073	0
PA2074	0
PA2075	0
PA2076	2
PA2077	0
PA2078	0
PA2079	1
PA2080,kynU	1
PA2081,kynB	1
PA2082	0
PA2083	1
PA2084	0
PA2085	0
PA2086	0
PA2087	0
PA2088	0
PA2089	0
PA2090	0
PA2091	0
PA2092	0
PA2093	0
PA2094	0
PA2095	1
PA2096	0
PA2097	0
PA2098	0
PA2099	0
PA2100	1
PA2101	0
PA2102	0
PA2103	0
PA2104	3
PA2105	0
PA2106	2
PA2107	0
PA2108	0
PA2109	0
PA2110	0
PA2111	0
PA2112	0
PA2113,opdO	0
PA2114	3
PA2115	0
PA2116	0
PA2117	0
PA2118,ada	0
PA2119	6
PA2120	0
PA2121	0
PA2122	0
PA2123	0
PA2124	0
PA2125	0
PA2126	0
PA2127	8
PA2128,cupA1	0
PA2129,cupA2	0
PA2130,cupA3	0
PA2131,cupA4	0
PA2132,cupA5	0
PA2133	0
PA2134	0
PA2135	0
PA2136	1
PA2137	0
PA2138	0
PA2139	0
PA2140	0
PA2141	0
PA2142	0
PA2143	0
PA2144,glgP	0
PA2145	0
PA2146	2
PA2147,katE	0
PA2148	0
PA2149	0
PA2150	0
PA2151	0
PA2152	0
PA2153,glgB	0
PA2154	0
PA2155	0
PA2156	0
PA2157	0
PA2158	0
PA2159	0
PA2160	0
PA2161	0
PA2162	0
PA2163	0
PA2164	0
PA2165	0
PA2166	0
PA2167	0
PA2168	0
PA2169	0
PA2170	0
PA2171	0
PA2172	0
PA2173	0
PA2174	0
PA2175	0
PA2176	0
PA2177	1
PA2178	0
PA2179	0
PA2180	0
PA2181	0
PA2182	0
PA2183	0
PA2184	0
PA2185,katN	1
PA2186	0
PA2187	0
PA2188	0
PA2189	0
PA2190	0
PA2191,exoY	0
PA2192	0
PA2193,hcnA	0
PA2194,hcnB	0
PA2195,hcnC	2
PA2196	1
PA2197	1
PA2198	0
PA2199	0
PA2200	0
PA2201	0
PA2202	0
PA2203	0
PA2204	5
PA2205	0
PA2206	0
PA2207	0
PA2208	0
PA2209	0
PA2210	171
PA2211	171
PA2212	166
PA2213	14
PA2214	6
PA2215	29
PA2216	16
PA2217	9
PA2218	48
PA2219,opdE	23
PA2220	99
PA2221	33
PA2222	301
PA2223	600
PA2224	207
PA2225	98
PA2226	303
PA2227,vqsM	465
PA2228	167
PA2229	49
PA2230	29
PA2231,pslA	1807
PA2232,pslB	1034
PA2233,pslC	752
PA2234,pslD	1002
PA2235,pslE	2465
PA2236,pslF	482
PA2237,pslG	875
PA2238,pslH	457
PA2239,pslI	535
PA2240,pslJ	1035
PA2241,pslK	299
PA2242,pslL	764
PA2243,pslM	9
PA2244,pslN	148
PA2245,pslO	43
PA2246,bkdR	51
PA2247,bkdA1	8049
PA2248,bkdA2	6736
PA2249,bkdB	8594
PA2250,lpdV	7741
PA2251	120
PA2252	10
PA2253,ansA	23
PA2254,pvcA	1
PA2255,pvcB	3
PA2256,pvcC	4
PA2257,pvcD	0
PA2258,ptxR	73
PA2259,ptxS	217
PA2260	38
PA2261	32
PA2262	68
PA2263	18
PA2264	163
PA2265	307
PA2266	137
PA2267	55
PA2268	11
PA2269	39
PA2270	32
PA2271	29
PA2272,pbpC	151
PA2273,soxR	25
PA2274	27
PA2275	6
PA2276	21
PA2277,arsR	12
PA2278,arsB	41
PA2279,arsC	33
PA2280	34
PA2281	59
PA2282	35
PA2283	1
PA2284	2
PA2285	5
PA2286	5
PA2287	2
PA2288	24
PA2289	274
PA2290,gcd	705
PA2291	2328
PA2292	0
PA2293	1
PA2294	3
PA2295	4
PA2296	11
PA2297	17
PA2298	151
PA2299	78
PA2300,chiC	1419
PA2301	129
PA2302,ambE	2633
PA2303,ambD	740
PA2304,ambC	758
PA2305,ambB	1469
PA2306,ambA	99
PA2307	28
PA2308	1
PA2309	5
PA2310	10
PA2311	5
PA2312	9
PA2313	4
PA2314	6
PA2315	4
PA2316	50
PA2317	430
PA2318	168
PA2319	84
PA2320,gntR	69
PA2321	12
PA2322	15
PA2323	377
PA2324	3
PA2325	2
PA2326	14
PA2327	29
PA2328	18
PA2329	12
PA2330	11
PA2331	17
PA2332	36
PA2333	3
PA2334	12
PA2335	7
PA2336	3
PA2337,mtlR	29
PA2338	82
PA2339	74
PA2340	73
PA2341	51
PA2342,mtlD	41
PA2343,mtlY	25
PA2344,mtlZ	11
PA2345	119
PA2346	1
PA2347	2
PA2348	5
PA2349	4
PA2350	4
PA2351	4
PA2352	6
PA2353	67
PA2354	11
PA2355	14
PA2356,msuD	1
PA2357,msuE	0
PA2358	9
PA2359	31
PA2360	211
PA2361	721
PA2362	102
PA2363	292
PA2364	347
PA2365	226
PA2366	1308
PA2367	385
PA2368	113
PA2369	540
PA2370	102
PA2371	788
PA2372	1359
PA2373	460
PA2374	64
PA2375	26
PA2376	20
PA2377	43
PA2378	396
PA2379	149
PA2380	49
PA2381	249
PA2382,lldA	45
PA2383	30
PA2384	26
PA2385,pvdQ	66
PA2386,pvdA	135
PA2387,fpvI	66
PA2388,fpvR	290
PA2389,pvdR	12
PA2390,pvdT	40
PA2391,opmQ	38
PA2392,pvdP	75
PA2393	27
PA2394,pvdN	36
PA2395,pvdO	30
PA2396,pvdF	186
PA2397,pvdE	32
PA2398,fpvA	94
PA2399,pvdD	1366
PA2400,pvdJ	827
PA2402	1047
PA2403	60
PA2404	35
PA2405	18
PA2406	10
PA2407	41
PA2408	6
PA2409	39
PA2410	38
PA2411	71
PA2412	44
PA2413,pvdH	202
PA2414	628
PA2415	66
PA2416,treA	123
PA2417	148
PA2418	7
PA2419	18
PA2420	7
PA2421	1
PA2422	5
PA2423	360
PA2424,pvdL	356
PA2425,pvdG	20
PA2426,pvdS	17
PA2427	7
PA2428	19
PA2429	1
PA2430	112
PA2431	184
PA2432,bexR	51
PA2433	1119
PA2434	64
PA2435	176
PA2436	98
PA2437	6
PA2438	15
PA2439	18
PA2440	18
PA2441	63
PA2442,gcvT2	477
PA2443,sdaA	1621
PA2444,glyA2	1996
PA2445,gcvP2	4240
PA2446,gcvH2	186
PA2447	26
PA2448	182
PA2449	141
PA2450	41
PA2451	37
PA2452	16
PA2453	39
PA2454	36
PA2455	47
PA2456	113
PA2457	105
PA2458	6
PA2459	648
PA2460	180
PA2461	488
PA2462	2367
PA2463	73
PA2464	98
PA2465	4
PA2466,foxA	29
PA2467,foxR	30
PA2468,foxI	85
PA2469	25
PA2470,gtdA	11
PA2471	6
PA2472	0
PA2473	0
PA2474	2
PA2475	190
PA2476,dsbG	80
PA2477	32
PA2478	34
PA2479	26
PA2480	33
PA2481	146
PA2482	91
PA2483	401
PA2484	121
PA2485	400
PA2486	149
PA2487	13
PA2488	7
PA2489	9
PA2490	19
PA2491	547
PA2492,mexT	154
PA2493,mexE	10
PA2494,mexF	21
PA2495,oprN	9
PA2496	23
PA2497	34
PA2498	11
PA2499	5
PA2500	17
PA2501	247
PA2502	15
PA2503	20
PA2504	513
PA2505,opdT	12
PA2506	4
PA2507,catA	9
PA2508,catC	3
PA2509,catB	4
PA2510,catR	9
PA2511	31
PA2512,antA	31
PA2513,antB	21
PA2514,antC	16
PA2515,xylL	6
PA2516,xylZ	2
PA2517,xylY	2
PA2518,xylX	9
PA2519,xylS	35
PA2520,czcA	52
PA2521,czcB	4
PA2522,czcC	0
PA2523	24
PA2524	27
PA2525	186
PA2526	520
PA2527	434
PA2528	112
PA2529	205
PA2530	103
PA2531	12
PA2532,tpx	163
PA2533	232
PA2534	72
PA2535	22
PA2536	280
PA2537	147
PA2538	43
PA2539	217
PA2540	497
PA2541	155
PA2542	414
PA2543	346
PA2544	217
PA2545,xthA	180
PA2546	39
PA2547	9
PA2548	12
PA2549	214
PA2550	118
PA2551	219
PA2552	3695
PA2553	2736
PA2554	1516
PA2555	3467
PA2556	788
PA2557	2395
PA2558	83
PA2559	298
PA2560	248
PA2561	46
PA2562	419
PA2563	7
PA2564	1243
PA2565	734
PA2566	1311
PA2567	1003
PA2568	133
PA2569	289
PA2570,lecA	1996
PA2570.1	21
PA2571	547
PA2572	2039
PA2573	2361
PA2574,alkB1	80
PA2575	904
PA2576	61
PA2577	67
PA2578	188
PA2579,kynA	194
PA2580	53
PA2581	350
PA2581.1	257
PA2582	765
PA2583	1835
PA2583.1	177
PA2584,pgsA	129
PA2585,uvrC	811
PA2586,gacA	1739
PA2587,pqsH	1131
PA2588	1046
PA2589	10
PA2590	46
PA2591	2980
PA2592	2535
PA2593,qteE	42
PA2594	28
PA2595	9
PA2596	8
PA2597	19
PA2598	16
PA2599	37
PA2600	30
PA2601	150
PA2602	10
PA2603	18
PA2603.1	20
PA2604	2963
PA2605	181
PA2606	237
PA2607	270
PA2608	290
PA2609	609
PA2610	274
PA2611,cysG	664
PA2612,serS	870
PA2613	1455
PA2614,lolA	1161
PA2615,ftsK	2965
PA2616,trxB1	585
PA2617,aat	87
PA2618	659
PA2619,infA	109
PA2620,clpA	13258
PA2621	4014
PA2622,cspD	1075
PA2623,icd	12759
PA2624,idh	2264
PA2625	15
PA2626,trmU	423
PA2627	88
PA2628	46
PA2629,purB	306
PA2630	558
PA2631	279
PA2632	202
PA2633	490
PA2634,aceA	1620
PA2635	41
PA2636	2
PA2637,nuoA	2161
PA2638,nuoB	2442
PA2639,nuoD	2749
PA2640,nuoE	1114
PA2641,nuoF	3193
PA2642,nuoG	5307
PA2643,nuoH	2269
PA2644,nuoI	849
PA2645,nuoJ	724
PA2646,nuoK	532
PA2647,nuoL	2462
PA2648,nuoM	1776
PA2649,nuoN	1320
PA2650	8
PA2651	526
PA2652	303
PA2653	28
PA2654	581
PA2655	4
PA2656	278
PA2657	156
PA2658	203
PA2659	338
PA2660	49
PA2661	42
PA2662	174
PA2663,ppyR	97
PA2664,fhp	146
PA2665	132
PA2666	21
PA2667,mvaU	1203
PA2668	59
PA2669	38
PA2670	39
PA2671	39
PA2672	26
PA2673	30
PA2674	22
PA2675	10
PA2676	32
PA2677	39
PA2678	14
PA2679	353
PA2680	13
PA2681	27
PA2682	20
PA2683	121
PA2684	989
PA2685,vgrG4	600
PA2686,pfeR	80
PA2687,pfeS	51
PA2688,pfeA	10
PA2689	1
PA2690	69
PA2691	51
PA2692	152
PA2693	84
PA2694	42
PA2695	58
PA2696	178
PA2697	16
PA2698	40
PA2699	91
PA2700,opdB	70
PA2701	54
PA2702,tse2	22
PA2703,tsi2	31
PA2704	33
PA2705	661
PA2706	176
PA2707	1383
PA2708	664
PA2709,cysK	492
PA2710	102
PA2711	61
PA2712	50
PA2713	92
PA2714	17
PA2715	3
PA2716	71
PA2717,cpo	607
PA2718	220
PA2719	54
PA2720	54
PA2721	89
PA2722	178
PA2723	42
PA2724	3
PA2725	364
PA2726	75
PA2727	417
PA2728	389
PA2729	170
PA2730	1055
PA2731	805
PA2732	4554
PA2733	1248
PA2734	1609
PA2735	3363
PA2736	254
PA2736.1	145
PA2737	1818
PA2738,himA	3579
PA2739,pheT	5315
PA2740,pheS	650
PA2741,rplT	7327
PA2742,rpmI	2638
PA2743,infC	20052
PA2744,thrS	2886
PA2744.1	4
PA2745	59
PA2746	92
PA2747	3013
PA2748	74
PA2749,endA	10
PA2750	3
PA2751	550
PA2752	24
PA2753	641
PA2754	1342
PA2755,eco	1321
PA2756	654
PA2757	26
PA2758	65
PA2759	14
PA2760,oprQ	2643
PA2761	2
PA2762	29
PA2763	7
PA2764	77
PA2765	127
PA2766	32
PA2767	15
PA2768	16
PA2769	40
PA2770	231
PA2771	182
PA2772	27
PA2773	23
PA2774	93
PA2775	109
PA2775.1	4
PA2776,pauB3	769
PA2777	1208
PA2778	215
PA2779	424
PA2780	435
PA2781	288
PA2782	6
PA2783	6
PA2784	9
PA2785	1
PA2786	16
PA2787,cpg2	177
PA2788	1058
PA2789	71
PA2790	86
PA2791	9
PA2792	46
PA2793	108
PA2794	1101
PA2795	38
PA2796,tal	1620
PA2797	1212
PA2798	3916
PA2799	375
PA2800	497
PA2801	26
PA2802	73
PA2803	4
PA2804	1
PA2805	1018
PA2806	47
PA2807	8
PA2808,ptrA	3
PA2809,copR	74
PA2810,copS	80
PA2811	284
PA2812	148
PA2813	108
PA2814	192
PA2815	3548
PA2816	59
PA2817	128
PA2818,arr	231
PA2819	4
PA2819.1	31
PA2819.2	156
PA2819.3	67
PA2820	962
PA2821	240
PA2822	180
PA2823	337
PA2824	1162
PA2825,ospR	166
PA2826	145
PA2827	367
PA2828	117
PA2829	2
PA2830,htpX	1306
PA2831	132
PA2832,tpm	165
PA2833	19
PA2834	63
PA2835	7
PA2836	3
PA2837	1
PA2838	7
PA2839	79
PA2840	58
PA2841	57
PA2842	51
PA2843	95
PA2844	56
PA2845	16
PA2846	41
PA2847	10
PA2848	9
PA2849,ohrR	131
PA2850,ohr	23
PA2851,efp	567
PA2852	106
PA2852.1	273
PA2853,oprI	44413
PA2854	577
PA2855	36
PA2856,tesA	153
PA2857	69
PA2858	168
PA2859,greB	135
PA2860	59
PA2861,ligT	6
PA2862,lipA	62
PA2863,lipH	39
PA2864	207
PA2865	398
PA2866,mttC	19
PA2867	1123
PA2868	126
PA2869	537
PA2870	96
PA2871	84
PA2872	42
PA2873	211
PA2874	41
PA2875	149
PA2876,pyrF	16
PA2877	66
PA2878	9
PA2879	77
PA2880	11
PA2881	2
PA2882	9
PA2883	1513
PA2884	349
PA2885,atuR	221
PA2886,atuA	88
PA2887,atuB	74
PA2888,atuC	139
PA2889,atuD	173
PA2890,atuE	16
PA2891,atuF	115
PA2892,atuG	28
PA2893,atuH	71
PA2894	725
PA2895	386
PA2896	600
PA2897	1456
PA2898	20
PA2899	87
PA2900	231
PA2901	203
PA2902	138
PA2903,cobJ	53
PA2904,cobI	72
PA2905,cobH	34
PA2906	42
PA2907,cobL	31
PA2908,cbiD	43
PA2909	7
PA2910	1
PA2911	27
PA2912	0
PA2913	6
PA2914	6
PA2915	158
PA2916	7
PA2917	60
PA2918	18
PA2919	2
PA2920	491
PA2921	45
PA2922	8
PA2923,hisJ	11
PA2924,hisQ	1
PA2925,hisM	10
PA2926,hisP	7
PA2927	139
PA2928	21
PA2929	15
PA2930	95
PA2931,cifR	32
PA2932,morB	9
PA2933	0
PA2934,cif	32
PA2935	10
PA2936	13
PA2937	158
PA2938	22
PA2939	12091
PA2940	33
PA2941	20
PA2942	56
PA2942.1,P15	64
PA2943	15
PA2944,cobN	225
PA2945	146
PA2946	310
PA2947	16
PA2948,cobM	75
PA2949	96
PA2950	556
PA2951,etfA	5862
PA2952,etfB	3286
PA2953	545
PA2954	92
PA2955	133
PA2956	168
PA2957	436
PA2958	263
PA2958.1,rgsA	1572
PA2959	314
PA2960,pilZ	498
PA2961,holB	343
PA2962,tmk	125
PA2963	194
PA2964,pabC	211
PA2965,fabF1	730
PA2966,acpP	13923
PA2967,fabG	2848
PA2968,fabD	379
PA2969,plsX	177
PA2970,rpmF	634
PA2971	1901
PA2972	14
PA2973	527
PA2974	604
PA2975,rluC	793
PA2976,rne	2668
PA2977,murB	356
PA2978,ptpA	241
PA2979,kdsB	239
PA2980	141
PA2981,lpxK	324
PA2982	167
PA2983	189
PA2984	71
PA2985	93
PA2986	373
PA2987	212
PA2988	399
PA2989	320
PA2990	434
PA2991,sth	1781
PA2992	240
PA2993	715
PA2994,nqrF	818
PA2995,nqrE	370
PA2996,nqrD	591
PA2997,nqrC	463
PA2998,nqrB	383
PA2999,nqrA	354
PA3000,aroP1	182
PA3001	891
PA3002,mfd	1057
PA3003	217
PA3004	209
PA3005,nagZ	235
PA3006,psrA	1130
PA3007,lexA	406
PA3008	209
PA3009	110
PA3010	493
PA3011,topA	3130
PA3012	185
PA3013,foaB	1090
PA3014,faoA	2301
PA3015	239
PA3016	11
PA3017	300
PA3018	54
PA3019	172
PA3020	1000
PA3021	335
PA3022	316
PA3023	612
PA3024	157
PA3025	93
PA3026	69
PA3027	68
PA3028,moeA2	478
PA3029,moaB2	200
PA3030,mobA	39
PA3031	2159
PA3031.1	4
PA3032,snr1	438
PA3033	81
PA3034	198
PA3035	24
PA3036	10
PA3037	5
PA3038	2250
PA3039	26
PA3040	2218
PA3041	3201
PA3042	602
PA3043	583
PA3044,rocsS2	49
PA3045,rocA2	59
PA3046	675
PA3047	354
PA3048	284
PA3049,rmf	7468
PA3050,pyrD	146
PA3051	15
PA3052	148
PA3053	62
PA3054	312
PA3055	237
PA3056	179
PA3057	20
PA3058,pelG	46
PA3059,pelF	41
PA3060,pelE	22
PA3061,pelD	40
PA3062,pelC	9
PA3063,pelB	78
PA3064,pelA	62
PA3065	33
PA3066	67
PA3067	105
PA3068,gdhB	11596
PA3069	75
PA3070	326
PA3071	111
PA3072	22
PA3073	114
PA3074	139
PA3075	148
PA3076	286
PA3077	34
PA3078	171
PA3079	3861
PA3080	525
PA3081	98
PA3082,gbt	261
PA3083,pepN	1966
PA3084	263
PA3085	182
PA3086	371
PA3087	332
PA3088	334
PA3089	171
PA3090	10
PA3091	935
PA3092,fadH1	151
PA3093	99
PA3094	105
PA3094.1	1673
PA3094.2	1228
PA3094.3	75
PA3095,xcpZ	63
PA3096,xcpY	278
PA3097,xcpX	431
PA3098,xcpW	331
PA3099,xcpV	188
PA3100,xcpU	516
PA3101,xcpT	850
PA3102,xcpS	1278
PA3103,xcpR	908
PA3104,xcpP	858
PA3105,xcpQ	1711
PA3106	227
PA3107,metZ	381
PA3108,purF	768
PA3109	113
PA3110	582
PA3111,folC	935
PA3112,accD	908
PA3113,trpF	220
PA3114,truA	436
PA3115,fimV	8540
PA3116	244
PA3117,asd	489
PA3118,leuB	443
PA3119	54
PA3120,leuD	387
PA3121,leuC	496
PA3122	11
PA3123	390
PA3124	200
PA3125	105
PA3126,ibpA	541
PA3127	98
PA3128	164
PA3129	37
PA3130	48
PA3131	102
PA3132	35
PA3133	45
PA3133.1	72
PA3133.2	623
PA3133.3	61
PA3133.4	119
PA3134,gltX	624
PA3135	64
PA3136	1
PA3137	22
PA3138,uvrB	833
PA3139	577
PA3139.1	173
PA3140	46
PA3141,wbpM	4542
PA3142	281
PA3143	480
PA3144	291
PA3145,wbpL	1940
PA3146,wbpK	1505
PA3147,wbpJ	3244
PA3148,wbpI	3346
PA3149,wbpH	3156
PA3150,wbpG	6670
PA3151,hisF2	3372
PA3152,hisH2	1509
PA3153,wzx	1689
PA3154,wzy	2940
PA3155,wbpE	5083
PA3156,wbpD	3199
PA3157	3466
PA3158,wbpB	3700
PA3159,wbpA	6608
PA3160,wzz	4818
PA3161,himD	501
PA3162,rpsA	8157
PA3163,cmk	353
PA3164	1152
PA3165,hisC2	509
PA3166,pheA	1256
PA3167,serC	1164
PA3168,gyrA	3074
PA3169	163
PA3170	194
PA3171,ubiG	225
PA3172	176
PA3173	144
PA3174	33
PA3175	7
PA3176,gltS	16
PA3177	257
PA3178	32
PA3179	182
PA3180	88
PA3181	642
PA3182,pgl	238
PA3183,zwf	1586
PA3184	148
PA3185	776
PA3186,oprB	11909
PA3187	5887
PA3188	5137
PA3189	2559
PA3190	8000
PA3191	858
PA3192,gltR	576
PA3193,glk	927
PA3194,edd	2051
PA3195,gapA	1046
PA3196	22
PA3197	137
PA3198	321
PA3199	272
PA3200	261
PA3201	823
PA3202	271
PA3203	365
PA3204	162
PA3205	1410
PA3206	62
PA3207	13
PA3208	25
PA3209	2
PA3210,trkH	61
PA3211	768
PA3212	327
PA3213	457
PA3214	288
PA3215	45
PA3216	93
PA3217,cyaB	184
PA3218	0
PA3219	0
PA3220	31
PA3221,csaA	161
PA3222	327
PA3223,azoR3	144
PA3224	37
PA3225	420
PA3226	394
PA3227,ppiA	650
PA3228	710
PA3229	24
PA3230	153
PA3231	259
PA3232	504
PA3233	1558
PA3234	7932
PA3235	3387
PA3236	83
PA3237	14
PA3238	127
PA3239	249
PA3240	527
PA3241	248
PA3242	104
PA3243,minC	140
PA3244,minD	1866
PA3245,minE	939
PA3246,rluA	19
PA3247	486
PA3248	76
PA3249	61
PA3250	425
PA3251	78
PA3252	65
PA3253	137
PA3254	227
PA3255	227
PA3256	424
PA3257,prc	4627
PA3258	17
PA3259	86
PA3260	157
PA3261	234
PA3262	766
PA3262.1	251
PA3262.2	514
PA3263	123
PA3264	41
PA3265	18
PA3266,capB	208
PA3267	651
PA3268	63
PA3269	52
PA3270	166
PA3271	1366
PA3272	987
PA3273	192
PA3274	32
PA3275	46
PA3276	26
PA3277	105
PA3278	827
PA3279,oprP	10
PA3280,oprO	63
PA3281	91
PA3282	48
PA3283	180
PA3284	177
PA3285	385
PA3286	656
PA3287	23
PA3288	62
PA3289	63
PA3290	1541
PA3291	312
PA3292	182
PA3293	36
PA3294	206
PA3295	175
PA3296,phoA	3
PA3297	531
PA3298	2
PA3299,fadD1	957
PA3300,fadD2	420
PA3301	307
PA3302	422
PA3303	28
PA3304	102
PA3304.1,P18	31
PA3305	275
PA3305.1,phrS	13483
PA3306	370
PA3307	172
PA3308,hepA	234
PA3309	4529
PA3310	91
PA3311	1200
PA3312	33
PA3313	158
PA3314	25
PA3315	77
PA3316	95
PA3317	138
PA3318	8
PA3319,plcN	32
PA3320	4
PA3321	27
PA3322	75
PA3323	22
PA3324	56
PA3325	24
PA3326,clpP2	7038
PA3327	3302
PA3328	580
PA3329	747
PA3330	342
PA3331	746
PA3332	356
PA3333,fabH2	485
PA3334	293
PA3335	232
PA3336	150
PA3337,rfaD	2558
PA3338	11
PA3339,plpD	53
PA3340	522
PA3341	269
PA3342	487
PA3343	484
PA3344,recQ	504
PA3345,hptB	222
PA3346	1548
PA3347	669
PA3348	2202
PA3349	7822
PA3350	431
PA3351,flgM	1647
PA3352	887
PA3353	1764
PA3354	312
PA3355	410
PA3356,pauA5	1733
PA3357,dsdA	73
PA3358	19
PA3359	11
PA3360	7
PA3361,lecB	1250
PA3362	1258
PA3363,amiR	1245
PA3364,amiC	1717
PA3365	1687
PA3366,amiE	5722
PA3366.1,amiL	647
PA3367	56
PA3368.1	33
PA3368	318
PA3369	751
PA3370	511
PA3371	176
PA3372	29
PA3373	53
PA3374	65
PA3375	12
PA3376	12
PA3377	5
PA3378	6
PA3379	5
PA3380	0
PA3381	3
PA3382,phnE	6
PA3383	7
PA3384,phnC	10
PA3385,amrZ	2362
PA3386	36
PA3387,rhlG	15
PA3388	10
PA3390	18
PA3389	11
PA3391,nosR	26
PA3392,nosZ	43
PA3393,nosD	30
PA3394,nosF	0
PA3395,nosY	3
PA3396,nosL	1
PA3397,fpr	111
PA3398	43
PA3399	104
PA3400	108
PA3401	96
PA3402	58
PA3403	9
PA3404	7
PA3405,hasE	8
PA3406,hasD	3
PA3407,hasAp	17
PA3408,hasR	8
PA3409	9
PA3410	11
PA3411	1
PA3412	5
PA3413	209
PA3414	39
PA3415	306
PA3416	384
PA3417	404
PA3418,ldh	622
PA3419	69
PA3420	32
PA3421	25
PA3422	22
PA3423	64
PA3424	25
PA3425	6
PA3426	102
PA3427	97
PA3428	9
PA3429	134
PA3430	119
PA3431	8
PA3432	7
PA3433	39
PA3434	69
PA3435	56
PA3436	3
PA3437,folM	30
PA3438,folE1	88
PA3439,folX	104
PA3440	113
PA3441	16
PA3442	17
PA3443	5
PA3444	2
PA3445	31
PA3446	55
PA3447	1
PA3448	2
PA3449	5
PA3450	193
PA3451	475
PA3452,mqoA	215
PA3453	33
PA3454	114
PA3455	811
PA3456	48
PA3457	12
PA3458	493
PA3459	726
PA3460	560
PA3461	449
PA3462	240
PA3463	21
PA3464	51
PA3465	1364
PA3466	147
PA3467	10
PA3468	71
PA3469	23
PA3470	38
PA3471	711
PA3472	123
PA3473	48
PA3474	31
PA3475,pheC	289
PA3476,rhlI	1165
PA3477,rhlR	5342
PA3478,rhlB	2689
PA3479,rhlA	3506
PA3480	179
PA3481	171
PA3482,metG	1275
PA3483	135
PA3484,tse3	137
PA3485	80
PA3486	303
PA3487,pldA	1481
PA3488	155
PA3489	43
PA3490	19
PA3491	116
PA3492	75
PA3493	33
PA3494	82
PA3495,nth	166
PA3496	212
PA3497	16
PA3498	93
PA3499	7
PA3500	41
PA3501	9
PA3502	16
PA3503	33
PA3504	45
PA3505	43
PA3506	78
PA3507	35
PA3508	46
PA3509	35
PA3510	65
PA3511	38
PA3512	31
PA3513	22
PA3514	34
PA3515	91
PA3516	61
PA3517	21
PA3518	10
PA3519	15
PA3520	69
PA3521	6
PA3522	38
PA3523	6
PA3524,gloA1	204
PA3525,argG	613
PA3526	583
PA3527,pyrC	184
PA3528,rnt	312
PA3529	2674
PA3530	127
PA3531,bfrB	2952
PA3532	13
PA3533	1144
PA3534	67
PA3535	483
PA3536	59
PA3537,argF	45
PA3538	139
PA3539	114
PA3540,algD	31
PA3541,alg8	11
PA3542,alg44	7
PA3543,algK	4
PA3544,algE	16
PA3545,algG	12
PA3546,algX	15
PA3547,algL	6
PA3548,algI	32
PA3549,algJ	7
PA3550,algF	27
PA3551,algA	47
PA3552,arnB	51
PA3553,arnC	24
PA3554,arnA	129
PA3555,arnD	20
PA3556,arnT	60
PA3557,arnE	10
PA3558,arnF	17
PA3559	131
PA3560,fruA	147
PA3561,fruK	91
PA3562,fruI	139
PA3563,fruR	58
PA3564	24
PA3565	57
PA3566	37
PA3567	83
PA3568	2331
PA3569,mmsB	2295
PA3570,mmsA	4398
PA3571,mmsR	116
PA3572	473
PA3573	17
PA3574,nalD	122
PA3575	53
PA3576	143
PA3577	9
PA3578	216
PA3579	34
PA3580	13
PA3581,glpF	37
PA3582,glpK	182
PA3583,glpR	54
PA3584,glpD	72
PA3585,glpM	6
PA3586	7
PA3587,metR	123
PA3588	14
PA3589	5
PA3590	23
PA3591	2
PA3592	12
PA3593	19
PA3594	45
PA3595	13
PA3596	35
PA3597	74
PA3598	74
PA3599	199
PA3600	49
PA3601	78
PA3602	383
PA3603,dgkA	24
PA3604,erdR	119
PA3605	16
PA3606	30
PA3607,potA	9
PA3608,potB	7
PA3609,potC	7
PA3610,potD	8
PA3611	164
PA3612	79
PA3613	2838
PA3614	1696
PA3615	2234
PA3616	218
PA3617,recA	1844
PA3618	43
PA3619	44
PA3620,mutS	467
PA3621,fdxA	802
PA3621.1,rsmZ	7310
PA3622,rpoS	12975
PA3623	4125
PA3624,pcm	440
PA3625,surE	300
PA3626	317
PA3627,ygbB	147
PA3628	386
PA3629,adhC	517
PA3630	74
PA3631	138
PA3632	13
PA3633,ygbP	46
PA3634	138
PA3635,eno	3519
PA3636,kdsA	981
PA3637,pyrG	1194
PA3638	81
PA3639,accA	1416
PA3640,dnaE	1588
PA3641	97
PA3642,rnhB	205
PA3643,lpxB	400
PA3644,lpxA	1066
PA3645,fabZ	933
PA3646,lpxD	2437
PA3647	2523
PA3648,opr86	3293
PA3649,mucP	1277
PA3650,dxr	540
PA3651,cdsA	261
PA3652,uppS	613
PA3653,frr	1030
PA3654,pyrH	536
PA3655,tsf	1158
PA3656,rpsB	1561
PA3657,map	672
PA3658,glnD	278
PA3659	101
PA3660	408
PA3661	6
PA3662	261
PA3663	21
PA3664	109
PA3665	134
PA3666,dapD	373
PA3667	236
PA3668	43
PA3669	135
PA3670	160
PA3671	58
PA3672	53
PA3673,plsB	369
PA3674	107
PA3675	58
PA3676	450
PA3677	83
PA3678	217
PA3679	15
PA3680	42
PA3681	43
PA3682	20
PA3683	189
PA3684	57
PA3685	20
PA3686,adk	757
PA3687,ppc	1045
PA3688	744
PA3689	114
PA3690	823
PA3691	12669
PA3692,lptF	19795
PA3693	52
PA3694	88
PA3695	233
PA3696	308
PA3697	710
PA3698	400
PA3699	138
PA3700,lysS	376
PA3701	588
PA3702,wspR	545
PA3703,wspF	474
PA3704,wspE	1114
PA3705,wspD	261
PA3706,wspC	670
PA3707,wspB	516
PA3708,wspA	1674
PA3709	197
PA3710	241
PA3711	38
PA3712	587
PA3713,spdH	36
PA3714	18
PA3715	174
PA3716	374
PA3717	36
PA3718	26
PA3719,armR	17
PA3720	18
PA3721,nalC	41
PA3722	126
PA3723	1558
PA3724,lasB	28534
PA3725,recJ	170
PA3726	55
PA3727	263
PA3728	2107
PA3729	1519
PA3730	507
PA3731	413
PA3732	404
PA3733	245
PA3734	441
PA3735,thrC	547
PA3736,hom	347
PA3737,dsbC	536
PA3738,xerD	68
PA3739	245
PA3740	488
PA3741	7
PA3742,rplS	1979
PA3743,trmD	2574
PA3744,rimM	911
PA3745,rpsP	566
PA3746,ffh	596
PA3747	223
PA3748	206
PA3749	23
PA3750	63
PA3751,purT	318
PA3752	157
PA3753	584
PA3754	663
PA3755	480
PA3756	564
PA3757,nagR	43
PA3758	55
PA3759	55
PA3760	237
PA3761,nagE	221
PA3762	135
PA3763,purL	1286
PA3764	589
PA3765	20
PA3766	32
PA3767	401
PA3768	390
PA3769,guaA	628
PA3770,guaB	431
PA3771	111
PA3772	15
PA3773	2
PA3774	0
PA3775	4
PA3776	3
PA3777,xseA	105
PA3778	41
PA3779	36
PA3780	10
PA3781	35
PA3782	38
PA3783	4
PA3784	412
PA3785	518
PA3786	434
PA3787	488
PA3788	133
PA3789	153
PA3790,oprC	977
PA3791	1114
PA3792,leuA	992
PA3793	67
PA3794	55
PA3795	964
PA3796	509
PA3797	656
PA3798	125
PA3799	1395
PA3800	1463
PA3801	1002
PA3802,hisS	1941
PA3803,gcpE	1875
PA3804	642
PA3805,pilF	699
PA3806	1375
PA3807,ndk	1430
PA3808	398
PA3809,fdx2	442
PA3810,hscA	520
PA3811,hscB	280
PA3812,iscA	279
PA3813,iscU	536
PA3814,iscS	704
PA3815,iscR	149
PA3816,cysE	245
PA3817	181
PA3818	83
PA3819	3024
PA3820,secF	966
PA3821,secD	630
PA3822	324
PA3823,tgt	125
PA3824,queA	23
PA3824.1	112
PA3825	341
PA3826	56
PA3827	665
PA3828	345
PA3829	47
PA3830	46
PA3831,pepA	926
PA3832,holC	173
PA3833	152
PA3834,valS	944
PA3835	117
PA3836	754
PA3837	156
PA3838	100
PA3839	1001
PA3840	60
PA3841,exoS	324
PA3842,spcS	34
PA3843	4
PA3844	128
PA3845	36
PA3846	238
PA3847	51
PA3848	468
PA3849	307
PA3850	404
PA3851	211
PA3852	182
PA3853	78
PA3854	44
PA3855	179
PA3856	97
PA3857,pcs	560
PA3858	1057
PA3859	61
PA3860	691
PA3861,rhl	594
PA3862,dauB	109
PA3863,dauA	113
PA3864,dauR	194
PA3865	263
PA3866	2872
PA3867	44
PA3868	24
PA3869	17
PA3870,moaA1	9
PA3871	22
PA3872,narI	16
PA3873,narJ	11
PA3874,narH	64
PA3875,narG	54
PA3876,narK2	20
PA3877,narK1	37
PA3878,narX	413
PA3879,narL	784
PA3880	59
PA3881	62
PA3882	81
PA3883	35
PA3884	11
PA3885,tpbA	2
PA3886	74
PA3887,nhaP	107
PA3888	265
PA3889	380
PA3890	392
PA3891	791
PA3892	22
PA3893	73
PA3894	52
PA3895	125
PA3896	47
PA3897	17
PA3898	67
PA3899	14
PA3900	11
PA3901,fecA	169
PA3902	149
PA3903,prfC	331
PA3904	78
PA3905	198
PA3906	195
PA3907	407
PA3908	1003
PA3909,eddB	21
PA3910,eddA	10
PA3911	14
PA3912	67
PA3913	62
PA3914,moeA1	16
PA3915,moaB1	8
PA3916,moaE	104
PA3917,moaD	90
PA3918,moaC	123
PA3919	2435
PA3920	77
PA3921	760
PA3922	5855
PA3923	3623
PA3924	816
PA3925	167
PA3926	10
PA3927	53
PA3928	393
PA3929,cioB	1201
PA3930,cioA	1062
PA3931	143
PA3932	41
PA3933	238
PA3934	543
PA3935,tauD	6
PA3936	5
PA3937	21
PA3938	55
PA3939	32
PA3940	609
PA3941	55
PA3942,tesB	152
PA3943	247
PA3944	211
PA3945	1090
PA3946,rocS1	111
PA3947,rocR	57
PA3948,rocA1	352
PA3949	68
PA3950	134
PA3951	131
PA3952	101
PA3953	5
PA3954	8
PA3955	13
PA3956	45
PA3957	201
PA3958	72
PA3959	6
PA3960	2
PA3961	226
PA3962	166
PA3963	69
PA3964	9
PA3965	90
PA3966	80
PA3967	4
PA3968	26
PA3969	94
PA3970,amn	272
PA3971	57
PA3972	556
PA3973	210
PA3974,ladS	966
PA3975,thiD	79
PA3976,thiE	81
PA3977,hemL	492
PA3978	824
PA3979	25
PA3980	163
PA3981	1281
PA3982	1254
PA3983	1462
PA3984,lnt	212
PA3985	91
PA3986	727
PA3987,leuS	2592
PA3988	565
PA3989,holA	450
PA3990	19
PA3991	5
PA3992	193
PA3993	83
PA3994	15
PA3995	148
PA3996,lis	1400
PA3997,lipB	1222
PA3998	691
PA3999,dacC	2664
PA4000	1234
PA4001,sltB1	585
PA4002,rodA	531
PA4003,pbpA	405
PA4004	211
PA4005	182
PA4006,nadD	263
PA4007,proA	506
PA4008	57
PA4009	56
PA4010	128
PA4011	182
PA4012	229
PA4013	123
PA4014	43
PA4015	339
PA4016	674
PA4017	1107
PA4018	16
PA4019	279
PA4020,mpl	249
PA4021	548
PA4022	2236
PA4023	280
PA4024,eutB	355
PA4025	238
PA4026	250
PA4027	147
PA4028	0
PA4029	107
PA4030	55
PA4031,ppa	595
PA4032	306
PA4033,mucE	11
PA4034,aqpZ	30
PA4035	95
PA4036	137
PA4037	26
PA4038	4
PA4039	23
PA4040	84
PA4041	167
PA4042,xseB	37
PA4043,ispA	35
PA4044,dxs	474
PA4045	71
PA4046	113
PA4047,ribA	173
PA4048	239
PA4049	167
PA4050,pgpA	140
PA4051,thiL	107
PA4052,nusB	215
PA4053,ribE	289
PA4054,ribB	400
PA4055,ribC	142
PA4056,ribD	146
PA4057,nrdR	136
PA4058	13
PA4059	47
PA4060	33
PA4061	420
PA4062	19
PA4063	43
PA4064	16
PA4065	78
PA4066	42
PA4067,oprG	12985
PA4068	383
PA4069	293
PA4070	95
PA4071	32
PA4072	152
PA4073	406
PA4074	21
PA4075	50
PA4076	40
PA4077	24
PA4078	491
PA4079	246
PA4080	146
PA4081,cupB6	17
PA4082,cupB5	61
PA4083,cupB4	6
PA4084,cupB3	22
PA4085,cupB2	17
PA4086,cupB1	41
PA4087	0
PA4088	2
PA4089	3
PA4090	18
PA4091,hpaA	95
PA4092,hpaC	22
PA4093	18
PA4094	99
PA4095	2
PA4096	3
PA4097	1
PA4098	0
PA4099	0
PA4100	184
PA4101,bfmR	61
PA4102,bfmS	93
PA4103	0
PA4104	5
PA4105	6
PA4106	21
PA4107	7
PA4108	598
PA4109,ampR	118
PA4110,ampC	19
PA4111	71
PA4112	1753
PA4113	21
PA4114	133
PA4115	468
PA4116,bphO	508
PA4117,bphP	1360
PA4118	49
PA4119,aph	7
PA4120	33
PA4121	20
PA4122	50
PA4123,hpcC	145
PA4124,hpcB	99
PA4125,hpcD	74
PA4126	86
PA4127,hpcG	49
PA4128	29
PA4129	8
PA4130	35
PA4131	53
PA4132	112
PA4133	58
PA4134	14
PA4135	82
PA4136	32
PA4137	13
PA4138,tyrS	24
PA4139	800
PA4140	170
PA4141	17743
PA4142	364
PA4143	324
PA4144	102
PA4145	84
PA4146	6
PA4147,acoR	317
PA4148	1
PA4149	0
PA4150	11
PA4151,acoB	7
PA4152	21
PA4153	52
PA4154	32
PA4155	5
PA4156	27
PA4157	24
PA4158,fepC	7
PA4159,fepB	16
PA4160,fepD	2
PA4161,fepG	5
PA4162	51
PA4163	199
PA4164	65
PA4165	36
PA4166	10
PA4167	2
PA4168,fpvB	36
PA4169	18
PA4170	65
PA4171	42
PA4172	9
PA4173	1
PA4174	43
PA4175,piv	487
PA4176,ppiC2	160
PA4177	0
PA4178	6
PA4179	2
PA4180	418
PA4181	18
PA4182	41
PA4183	41
PA4184	120
PA4185	67
PA4186	84
PA4187	29
PA4188	5
PA4189	14
PA4190,pqsL	172
PA4191	6
PA4192	2
PA4193	3
PA4194	16
PA4195	30
PA4196,bfiR	53
PA4197,bfiS	121
PA4198	218
PA4199	477
PA4200	110
PA4201,ddlA	266
PA4202	105
PA4203	25
PA4204,ppgL	311
PA4205,mexG	119
PA4206,mexH	183
PA4207,mexI	475
PA4208,opmD	92
PA4209,phzM	629
PA4210,phzA1	603
PA4211,phzB1	1256
PA4212,phzC1	230
PA4213,phzD1	117
PA4214,phzE1	570
PA4215,phzF1	185
PA4216,phzG1	195
PA4217,phzS	684
PA4218,ampP	293
PA4219	189
PA4220	84
PA4221,fptA	1196
PA4222	364
PA4223	468
PA4224,pchG	377
PA4225,pchF	3342
PA4226,pchE	1580
PA4227,pchR	162
PA4228,pchD	727
PA4229,pchC	357
PA4230,pchB	213
PA4231,pchA	1136
PA4232,ssb	185
PA4233	293
PA4234,uvrA	718
PA4235,bfrA	338
PA4236,katA	16742
PA4237,rplQ	1574
PA4238,rpoA	5086
PA4239,rpsD	3417
PA4240,rpsK	1714
PA4241,rpsM	2519
PA4242,rpmJ	962
PA4243,secY	7261
PA4244,rplO	3088
PA4245,rpmD	1494
PA4246,rpsE	1759
PA4247,rplR	1112
PA4248,rplF	1292
PA4249,rpsH	1286
PA4250,rpsN	3059
PA4251,rplE	6565
PA4252,rplX	2968
PA4253,rplN	2877
PA4254,rpsQ	954
PA4255,rpmC	3287
PA4256,rplP	2928
PA4257,rpsC	3885
PA4258,rplV	2533
PA4259,rpsS	2200
PA4260,rplB	4182
PA4261,rplW	1606
PA4262,rplD	2538
PA4263,rplC	1895
PA4264,rpsJ	2961
PA4265,tufA	8377
PA4266,fusA1	12496
PA4267,rpsG	1819
PA4268,rpsL	1486
PA4269,rpoC	14116
PA4270,rpoB	12320
PA4270.1,P26	49
PA4271,rplL	5516
PA4272,rplJ	3168
PA4272.1,P27	33
PA4273,rplA	2084
PA4274,rplK	1751
PA4275,nusG	3066
PA4276,secE	1168
PA4276.1	257
PA4277,tufB	6923
PA4277.1	98
PA4277.2	184
PA4277.3	339
PA4278	340
PA4279	204
PA4280,birA	229
PA4280.1	1398
PA4280.2	437201
PA4280.3	91
PA4280.4	121
PA4280.5	120138
PA4281,sbcD	201
PA4282	869
PA4283,recD	436
PA4284,recB	1242
PA4285,recC	686
PA4286	93
PA4287	13
PA4288	39
PA4289	46
PA4290	1199
PA4291	127
PA4292	94
PA4293,pprA	851
PA4294	1051
PA4295,fppA	47
PA4296,pprB	2599
PA4297,tadG	532
PA4298	109
PA4299,tadD	181
PA4300,tadC	622
PA4301,tadB	492
PA4302,tadA	712
PA4303,tadZ	553
PA4304,rcpA	1113
PA4305,rcpC	546
PA4306,flp	2494
PA4307,pctC	428
PA4308	552
PA4309,pctA	1221
PA4310,pctB	1464
PA4311	1461
PA4312	701
PA4313	1101
PA4314,purU1	459
PA4315,mvaT	6895
PA4316,sbcB	380
PA4317	206
PA4318	140
PA4319	185
PA4320	693
PA4321	397
PA4322	346
PA4323	394
PA4324	488
PA4325	57
PA4326	116
PA4327	175
PA4328	613
PA4329,pykA	690
PA4330	98
PA4331	144
PA4332	734
PA4333	393
PA4334	160
PA4335	378
PA4336	165
PA4337	98
PA4338	283
PA4339	64
PA4340	125
PA4341	19
PA4342	52
PA4343	26
PA4344	264
PA4345	1275
PA4346	90
PA4347	187
PA4348	3712
PA4349	92
PA4350,olsB	23
PA4351,olsA	4
PA4352	5199
PA4353	67
PA4354	4
PA4355	17
PA4356,xenB	44
PA4357	62
PA4358	947
PA4359	54
PA4360	98
PA4361	149
PA4362	129
PA4363,iciA	33
PA4364	0
PA4365	6
PA4366,sodB	7439
PA4367,bifA	976
PA4368	406
PA4369	1135
PA4370,icmP	494
PA4371	81
PA4372	196
PA4373	168
PA4374	463
PA4375	1158
PA4376,pncB2	276
PA4377	503
PA4378,inaA	486
PA4379	335
PA4380	224
PA4381	250
PA4382	6
PA4383	94
PA4384	147
PA4385,groEL	5204
PA4386,groES	1851
PA4387	307
PA4388	114
PA4389	297
PA4390	106
PA4391	46
PA4392	49
PA4393,ampG	284
PA4394	1348
PA4395	1239
PA4396	45
PA4397,panE	57
PA4398	197
PA4399	140
PA4400	256
PA4401	200
PA4402,argJ	726
PA4403,secA	3922
PA4404	152
PA4405	223
PA4406,lpxC	9620
PA4406.1	917
PA4407,ftsZ	9189
PA4408,ftsA	4800
PA4409,ftsQ	1795
PA4410,ddlB	1477
PA4411,murC	2736
PA4412,murG	1619
PA4413,ftsW	2738
PA4414,murD	3200
PA4415,mraY	3024
PA4416,murF	2585
PA4417,murE	2259
PA4418,ftsI	5543
PA4419,ftsL	727
PA4420	5477
PA4421	4827
PA4421.1,rnpB	7
PA4422	141
PA4423	661
PA4424	482
PA4425	558
PA4426	594
PA4427,sspB	159
PA4428,sspA	243
PA4429	4669
PA4430	3499
PA4431	1133
PA4432,rpsI	1078
PA4433,rplM	1107
PA4434	314
PA4435	893
PA4436	63
PA4437	20
PA4438	116
PA4439,trpS	327
PA4440	163
PA4441	222
PA4442,cysN	523
PA4443,cysD	221
PA4444,mltB1	393
PA4445	59
PA4446,algW	262
PA4447,hisC1	338
PA4448,hisD	175
PA4449,hisG	406
PA4450,murA	1634
PA4451	153
PA4451.1,P35	8
PA4452	124
PA4453	1071
PA4454	787
PA4455	554
PA4456	452
PA4457	566
PA4458	325
PA4459	495
PA4460	876
PA4461	1671
PA4462,rpoN	2102
PA4463	17389
PA4464,ptsN	3765
PA4465	2094
PA4466	1163
PA4467	114
PA4468,sodM	98
PA4469	71
PA4470,fumC1	264
PA4471	49
PA4472,pmbA	646
PA4473	57
PA4474	1553
PA4475	1347
PA4476	1932
PA4477,cafA	1259
PA4478	116
PA4479,mreD	62
PA4480,mreC	121
PA4481,mreB	324
PA4482,gatC	67
PA4483,gatA	365
PA4484,gatB	1158
PA4485	51
PA4486	50
PA4487	333
PA4488	461
PA4489	2365
PA4490	347
PA4491	830
PA4492	236
PA4493,roxR	1391
PA4494,roxS	2044
PA4495	1093
PA4496	1410
PA4497	675
PA4498	350
PA4499	53
PA4500	6333
PA4501,opdD	1959
PA4502	2823
PA4503	1629
PA4504	1008
PA4505	1380
PA4506	1385
PA4507	22
PA4508	18
PA4509	68
PA4510	62
PA4511	132
PA4512,lpxO1	123
PA4513	92
PA4514	79
PA4515	36
PA4516	51
PA4517	32
PA4518	74
PA4519,speC	583
PA4520	1453
PA4521	216
PA4522,ampD	211
PA4523	7635
PA4524,nadC	181
PA4524.1	125
PA4525,pilA	8391
PA4526,pilB	1839
PA4527,pilC	4022
PA4528,pilD	950
PA4529,coaE	333
PA4530	91
PA4531	72
PA4532	329
PA4533	271
PA4534	195
PA4535	834
PA4536	288
PA4537	44
PA4538,ndh	1014
PA4539	287
PA4540	5
PA4541	336
PA4541.1	11
PA4541.2	16
PA4541.3	15
PA4542,clpB	6300
PA4543	56
PA4544,rluD	185
PA4545,comL	443
PA4546,pilS	332
PA4547,pilR	533
PA4548	177
PA4549,fimT	34
PA4550,fimU	346
PA4551,pilV	278
PA4552,pilW	334
PA4553,pilX	247
PA4554,pilY1	1896
PA4555,pilY2	351
PA4556,pilE	239
PA4557,lytB	210
PA4558	471
PA4559,lspA	1044
PA4560,ileS	3160
PA4561,ribF	747
PA4562	127
PA4563,rpsT	84
PA4564	299
PA4565,proB	748
PA4566,obg	1391
PA4567,rpmA	176
PA4568,rplU	1063
PA4569,ispB	221
PA4570	111
PA4571	2492
PA4572,fklB	222
PA4573	1086
PA4574	54
PA4575	235
PA4576	1549
PA4577	263
PA4578	2827
PA4579	590
PA4580	110
PA4581,rtcR	251
PA4581.1	114
PA4582	171
PA4583	176
PA4584	184
PA4585,rtcA	57
PA4586	12
PA4587,ccpR	1318
PA4588,gdhA	109
PA4589	58
PA4590,pra	578
PA4591	214
PA4592	187
PA4593	106
PA4594	125
PA4595	2243
PA4596	172
PA4597,oprJ	21
PA4598,mexD	104
PA4599,mexC	24
PA4600,nfxB	78
PA4601,morA	857
PA4602,glyA3	197
PA4603	98
PA4604	460
PA4605	452
PA4606	3324
PA4607	12897
PA4608	624
PA4609,radA	177
PA4610	141
PA4611	2166
PA4612	36
PA4613,katB	88
PA4614,mscL	2535
PA4615	180
PA4616	44
PA4617	132
PA4618	259
PA4619	834
PA4620	117
PA4621	606
PA4622	8
PA4623	13
PA4624,cdrB	415
PA4625,cdrA	2015
PA4626,hprA	27
PA4627	24
PA4628,lysP	52
PA4629	11
PA4630	36
PA4631	127
PA4632	214
PA4633	1930
PA4634	18
PA4635	12
PA4636	167
PA4637	34
PA4638	17
PA4639	224
PA4640,mqoB	1584
PA4641	160
PA4642	26
PA4643	63
PA4644	46
PA4645	99
PA4646,upp	132
PA4647,uraA	392
PA4648,cupE1	606
PA4649,cupE2	227
PA4650,cupE3	207
PA4651,cupE4	338
PA4652,cupE5	419
PA4653,cupE6	190
PA4654	10
PA4655,hemH	319
PA4656	316
PA4657	566
PA4658	159
PA4659	96
PA4660,phr	140
PA4661,pagL	3585
PA4662,murI	289
PA4663,moeB	275
PA4664,hemK	219
PA4665,prfA	118
PA4666,hemA	205
PA4667	805
PA4668	163
PA4669,ipk	1354
PA4669.1	148
PA4670,prs	689
PA4671	1146
PA4672	102
PA4673	142
PA4673.1	100
PA4674	222
PA4675	109
PA4676	244
PA4677	489
PA4678,rimI	66
PA4679	45
PA4680	130
PA4681	238
PA4682	274
PA4683	36
PA4684	36
PA4685	9
PA4686	454
PA4687,hitA	401
PA4688,hitB	268
PA4689	1129
PA4690	793
PA4690.1	1182
PA4690.2	417375
PA4690.3	64
PA4690.4	119
PA4690.5	92293
PA4691	210
PA4692	206
PA4693,pssA	696
PA4694,ilvC	1753
PA4695,ilvH	918
PA4696,ilvI	1024
PA4697	385
PA4698	180
PA4699	326
PA4700,mrcB	644
PA4701	850
PA4702	400
PA4703	322
PA4704,cbpA	217
PA4704.1,prrF1	982
PA4704.2,prrF2	11281
PA4705	213
PA4706	106
PA4707	161
PA4708,phuT	198
PA4709	69
PA4710,phuR	71
PA4711	28
PA4712	34
PA4713	91
PA4714	94
PA4715	313
PA4716	129
PA4717	741
PA4718	54
PA4719	208
PA4720,trmA	151
PA4721	180
PA4722	296
PA4723,dksA	1576
PA4724	41
PA4724.1	45
PA4725,cbrA	1565
PA4726,cbrB	1864
PA4726.1,P36	3
PA4726.11,crcZ	157684
PA4726.2,P30	23
PA4727,pcnB	722
PA4728,folK	75
PA4729,panB	89
PA4730,panC	73
PA4731,panD	53
PA4732,pgi	1043
PA4733,acsB	705
PA4734	118
PA4735	4267
PA4736	1093
PA4737	137
PA4738	2935
PA4739	33213
PA4740,pnp	2063
PA4741,rpsO	1875
PA4742,truB	1871
PA4743,rbfA	182
PA4744,infB	4390
PA4745,nusA	2104
PA4746	312
PA4746.1	623
PA4746.2	1402
PA4747,secG	4507
PA4748,tpiA	1344
PA4749,glmM	1546
PA4750,folP	866
PA4751,ftsH	6933
PA4752,ftsJ	422
PA4753	249
PA4754	325
PA4755,greA	678
PA4756,carB	2576
PA4757	320
PA4758,carA	772
PA4758.1,P32	45
PA4759,dapB	160
PA4760,dnaJ	423
PA4761,dnaK	4200
PA4762,grpE	577
PA4763,recN	423
PA4764,fur	868
PA4765,omlA	325
PA4766	101
PA4767	469
PA4768,smpB	251
PA4769	255
PA4770,lldP	63
PA4771,lldD	51
PA4772	128
PA4773	3
PA4774	21
PA4775	170
PA4776,pmrA	34
PA4777,pmrB	116
PA4778,cueR	518
PA4779	46
PA4780	397
PA4781	796
PA4782	37
PA4783	19
PA4784	13
PA4785	575
PA4786	228
PA4787	785
PA4788	54
PA4789	30
PA4790	35
PA4791	22
PA4792	81
PA4793	225
PA4794	132
PA4795	112
PA4796	91
PA4797	130
PA4798	46
PA4799	20
PA4800	17
PA4801	7
PA4802	7
PA4802.1	32
PA4803	74
PA4804	46
PA4805	32
PA4806	17
PA4807,selB	329
PA4808,selA	281
PA4809,fdhE	171
PA4810,fdnI	2387
PA4811,fdnH	2447
PA4812,fdnG	11072
PA4813,lipC	18
PA4814,fadH2	5
PA4815	15
PA4816	11
PA4817	0
PA4818	9
PA4819	6
PA4820	1
PA4821	16
PA4822	14
PA4823	4
PA4824	1
PA4825,mgtA	41
PA4826	36
PA4827	86
PA4828	11
PA4829,lpd3	174
PA4830	12
PA4831	47
PA4832	14
PA4833	380
PA4834	21
PA4835	24
PA4836	13
PA4837	43
PA4838	49
PA4839,speA	330
PA4840	50
PA4841	399
PA4842	1597
PA4843	1768
PA4844	17
PA4845,dipZ	172
PA4846,aroQ1	618
PA4847,accB	1190
PA4848,accC	2129
PA4849	38
PA4850,prmA	50
PA4851	284
PA4852	337
PA4853,fis	53
PA4854,purH	181
PA4855,purD	96
PA4856,retS	1632
PA4857	48
PA4858	8
PA4859	2
PA4860	1
PA4861	13
PA4862	22
PA4863	20
PA4864,ureD	29
PA4865,ureA	4
PA4866	18
PA4867,ureB	20
PA4868,ureC	87
PA4869	160
PA4870	43
PA4871	5
PA4872	72
PA4873	26
PA4874	950
PA4875	32
PA4876,osmE	2247
PA4877	98
PA4878	78
PA4879	1398
PA4880	5201
PA4881	0
PA4882	15
PA4883	4
PA4884	4
PA4885,irlR	69
PA4886	63
PA4887	46
PA4888,desB	22
PA4889	35
PA4890,desT	25
PA4891,ureE	6
PA4892,ureF	12
PA4893,ureG	25
PA4894	1
PA4895	9
PA4896	20
PA4897	39
PA4898,opdK	28
PA4899	38
PA4900	22
PA4901,mdlC	21
PA4902	38
PA4903	11
PA4904,vanA	27
PA4905,vanB	5
PA4906	76
PA4907	162
PA4908	36
PA4909	127
PA4910	98
PA4911	89
PA4912	59
PA4913	615
PA4914	56
PA4915	2419
PA4916	359
PA4917	705
PA4918	160
PA4919,pncB1	457
PA4920,nadE	282
PA4921	57
PA4922,azu	8537
PA4923	18
PA4924	131
PA4925	715
PA4926	91
PA4927	211
PA4928	128
PA4929	400
PA4930,alr	72
PA4931,dnaB	344
PA4932,rplI	1274
PA4933	1420
PA4934,rpsR	896
PA4935,rpsF	2647
PA4936	930
PA4937,rnr	4073
PA4937.1	367
PA4937.2	466
PA4938,purA	1805
PA4939	464
PA4940	133
PA4941,hflC	2816
PA4942,hflK	4012
PA4943	3372
PA4944,hfq	4457
PA4945,miaA	4314
PA4946,mutL	1804
PA4947,amiB	1783
PA4948	802
PA4949	272
PA4950	139
PA4951,orn	489
PA4952	136
PA4953,motB	873
PA4954,motA	744
PA4955	379
PA4956,rhdA	129
PA4957,psd	136
PA4958	869
PA4959,fimX	1367
PA4960	440
PA4961	969
PA4962	99
PA4963	420
PA4964,parC	2138
PA4965	286
PA4966	226
PA4967,parE	978
PA4968	110
PA4969,cpdA	170
PA4970	273
PA4971,aspP	430
PA4972	556
PA4973,thiC	224
PA4974	201
PA4975	73
PA4976,aruH	81
PA4977,aruI	44
PA4978	58
PA4979	62
PA4980	15
PA4981	51
PA4982	112
PA4983	83
PA4984	59
PA4985	13
PA4986	22
PA4987	42
PA4988,waaA	58
PA4989	39
PA4990	6
PA4991	115
PA4992	167
PA4993	114
PA4994	62
PA4995	48
PA4996,rfaE	569
PA4997,msbA	512
PA4998	71
PA4999,waaL	272
PA5000,wapR	1595
PA5001	950
PA5002	622
PA5003	800
PA5004	1144
PA5005	2487
PA5006	622
PA5007	338
PA5008	353
PA5009,waaP	622
PA5010,waaG	446
PA5011,waaC	427
PA5012,waaF	384
PA5013,ilvE	1776
PA5014,glnE	2184
PA5015,aceE	5120
PA5016,aceF	2325
PA5017	1394
PA5018,msrA	290
PA5019	290
PA5020	48
PA5021	200
PA5022	490
PA5023	52
PA5024	21
PA5025,metY	136
PA5026	62
PA5027	1253
PA5028	614
PA5029	62
PA5030	28
PA5031	3
PA5032	6
PA5033	33
PA5034,hemE	92
PA5035,gltD	441
PA5036,gltB	1056
PA5037	1751
PA5038,aroB	1043
PA5039,aroK	531
PA5040,pilQ	6472
PA5041,pilP	1459
PA5042,pilO	1715
PA5043,pilN	1177
PA5044,pilM	4030
PA5045,ponA	866
PA5046	577
PA5047	1005
PA5048	455
PA5049,rpmE	532
PA5050,priA	93
PA5051,argS	1118
PA5052	101
PA5053,hslV	214
PA5054,hslU	657
PA5055	142
PA5056,phaC1	826
PA5057,phaD	623
PA5058,phaC2	714
PA5059	177
PA5060,phaF	23058
PA5061	5657
PA5062	155
PA5063,ubiE	258
PA5064	154
PA5065,ubiB	516
PA5066,hisI	671
PA5067,hisE	716
PA5068,tatA	551
PA5069,tatB	203
PA5070,tatC	849
PA5071	33
PA5072	71
PA5073	85
PA5074	110
PA5075	129
PA5076	300
PA5077,mdoH	3330
PA5078	2400
PA5079	336
PA5080	269
PA5081	44
PA5082	95
PA5083	35
PA5084	22
PA5085	69
PA5086	250
PA5087	167
PA5088	238
PA5089	213
PA5090	126
PA5091,hutG	173
PA5092,hutI	191
PA5093	216
PA5094	296
PA5095	317
PA5096	205
PA5097	677
PA5098,hutH	279
PA5099	216
PA5100,hutU	430
PA5101	127
PA5102	18
PA5103	346
PA5104	174
PA5105,hutC	361
PA5106	400
PA5107,blc	768
PA5108	381
PA5109	220
PA5110,fbp	1176
PA5111,gloA3	1183
PA5112,estA	1871
PA5113	601
PA5114	689
PA5115	20
PA5116	7
PA5117,typA	299
PA5118,thiI	93
PA5119,glnA	3121
PA5120	3
PA5121	332
PA5122	65
PA5123	115
PA5124,ntrB	109
PA5125,ntrC	1806
PA5126	80
PA5127	60
PA5128,secB	376
PA5129,grx	147
PA5130	116
PA5131,pgm	1128
PA5132	18
PA5133	327
PA5134	784
PA5135	40
PA5136	156
PA5137	247
PA5138	105
PA5139	29
PA5140,hisF1	232
PA5141,hisA	195
PA5142,hisH1	240
PA5143,hisB	208
PA5144	2
PA5145	34
PA5146	1102
PA5147,mutY	683
PA5148	284
PA5149	146
PA5149.1	16
PA5150	200
PA5151	51
PA5152	1108
PA5153	2420
PA5154	586
PA5155	623
PA5156	26
PA5157	37
PA5158	77
PA5159	81
PA5160	112
PA5160.1	241
PA5161,rmlB	1001
PA5162,rmlD	871
PA5163,rmlA	1503
PA5164,rmlC	1773
PA5165	320
PA5166	292
PA5167	1715
PA5168	717
PA5169	1601
PA5170,arcD	7556
PA5171,arcA	4320
PA5172,arcB	5202
PA5173,arcC	2879
PA5174	1017
PA5175,cysQ	176
PA5176	153
PA5177	54
PA5178	4532
PA5179	55
PA5180	3
PA5181	35
PA5181.1,P34	76
PA5182	144
PA5183	23
PA5184	78
PA5185	57
PA5186	89
PA5187	192
PA5188	81
PA5189	42
PA5190	110
PA5191	133
PA5192,pckA	473
PA5193,yrfI	89
PA5194	52
PA5195	126
PA5196	36
PA5197,rimK	366
PA5198	288
PA5199,amgS	231
PA5200,amgR	339
PA5201	247
PA5202	21
PA5203,gshA	294
PA5204,argA	272
PA5205	41
PA5206,argE	510
PA5207	478
PA5208	2887
PA5209	542
PA5210	1129
PA5211	49
PA5212	339
PA5213,gcvP1	1379
PA5214,gcvH1	1109
PA5215,gcvT1	511
PA5216	128
PA5217	178
PA5218	84
PA5219	1023
PA5220	3466
PA5221	180
PA5222	208
PA5223,ubiH	600
PA5224,pepP	857
PA5225	145
PA5226	837
PA5227	935
PA5227.1,ssrS	2337
PA5228	183
PA5229	106
PA5230	1485
PA5231	3287
PA5232	3342
PA5233	196
PA5234	117
PA5235,glpT	46
PA5236	249
PA5237	665
PA5238	122
PA5239,rho	780
PA5240,trxA	822
PA5241,ppx	970
PA5242,ppk	4956
PA5243,hemB	1639
PA5244	166
PA5245	773
PA5246	41
PA5247	126
PA5248	234
PA5249	218
PA5250	514
PA5251	286
PA5252	449
PA5253,algP	4101
PA5254	43
PA5255,algQ	1469
PA5256,dsbH	133
PA5257	2049
PA5258	1234
PA5259,hemD	985
PA5260,hemC	655
PA5261,algR	4182
PA5262,algZ	2433
PA5263,argH	282
PA5264	673
PA5265	799
PA5266	141
PA5267,hcpB	149
PA5268,corA	206
PA5269	156
PA5270	438
PA5271	303
PA5272,cyaA	657
PA5273	60
PA5274,rnk	295
PA5275	88
PA5276,lppL	223
PA5277,lysA	619
PA5278,dapF	615
PA5279	387
PA5280,sss	152
PA5281	99
PA5282	10
PA5283	90
PA5284	13
PA5285	511
PA5286	127
PA5287,amtB	408
PA5288,glnK	1757
PA5289	75
PA5290	124
PA5291	1490
PA5292,pchP	107
PA5293	32
PA5294	20
PA5295	724
PA5296,rep	122
PA5297,poxB	394
PA5298	74
PA5299	576
PA5300,cycB	1107
PA5301,pauR	816
PA5302,dadX	1144
PA5303	2472
PA5304,dadA	3310
PA5305	687
PA5306	454
PA5307	1044
PA5308,lrp	187
PA5309,pauB4	283
PA5310	159
PA5311	44
PA5312,pauC	3545
PA5313,gabT2	635
PA5314	511
PA5315,rpmG	234
PA5316,rpmB	923
PA5316.1	1
PA5317	427
PA5318	51
PA5319,radC	144
PA5320,coaC	679
PA5321,dut	137
PA5322,algC	1629
PA5323,argB	2500
PA5324	200
PA5325	16
PA5326	16
PA5327	9
PA5328	1
PA5329	143
PA5330	666
PA5331,pyrE	535
PA5332,crc	2349
PA5333	496
PA5334,rph	453
PA5335	148
PA5336,gmk	232
PA5337,rpoZ	1140
PA5338,spoT	2135
PA5339	699
PA5340	507
PA5341	9
PA5342	62
PA5343	61
PA5344,oxyR	510
PA5345,recG	687
PA5346,sadB	2701
PA5347	237
PA5348	1052
PA5349	410
PA5350,rubA2	188
PA5351,rubA1	667
PA5352	206
PA5353,glcF	477
PA5354,glcE	621
PA5355,glcD	1755
PA5356,glcC	79
PA5357	8
PA5358,ubiA	126
PA5359	651
PA5360,phoB	225
PA5361,phoR	78
PA5362	703
PA5363	402
PA5364	988
PA5365,phoU	460
PA5366,pstB	571
PA5367,pstA	430
PA5368,pstC	282
PA5369,pstS	827
PA5369.1	11032
PA5369.2	1236668
PA5369.3	331
PA5369.4	168
PA5369.5	277984
PA5370	258
PA5371	392
PA5372,betA	129
PA5373,betB	780
PA5374,betI	374
PA5375,betT1	52
PA5376	527
PA5377	203
PA5378	553
PA5379,sdaB	39
PA5380,gbdR	290
PA5381	47
PA5382	33
PA5383	1
PA5384	0
PA5385,cdhB	2
PA5386,cdhA	3
PA5387,cdhC	6
PA5388	13
PA5389,cdhR	47
PA5390	43
PA5391	2
PA5392	8
PA5393	20
PA5394,cls	257
PA5395	27
PA5396	130
PA5397	22
PA5398,dgcA	85
PA5399,dgcB	30
PA5400	20
PA5401	18
PA5402	71
PA5403	17
PA5404	1
PA5405	2
PA5406	8
PA5407	5
PA5408	14
PA5409	459
PA5410,gbcA	244
PA5411,gbcB	17
PA5412	433
PA5413,ltaA	853
PA5414	126
PA5415,glyA1	212
PA5416,soxB	58
PA5417,soxD	14
PA5418,soxA	124
PA5419,soxG	30
PA5420,purU2	38
PA5421,fdhA	102
PA5422	208
PA5423	390
PA5424	2887
PA5425,purK	120
PA5426,purE	30
PA5427,adhA	4203
PA5428	141
PA5429,aspA	3122
PA5430	186
PA5431	21
PA5432	33
PA5433	21
PA5434,mtr	43
PA5435	5657
PA5436	2633
PA5437	59
PA5438	855
PA5439	724
PA5440	95
PA5441	952
PA5442	171
PA5443,uvrD	1128
PA5444	105
PA5445	365
PA5446	2865
PA5447,wbpZ	1407
PA5448,wbpY	709
PA5449,wbpX	999
PA5450,wzt	873
PA5451,wzm	922
PA5452,wbpW	1461
PA5453,gmd	2299
PA5454,rmd	839
PA5455	567
PA5456	464
PA5457	231
PA5458	158
PA5459	134
PA5460	48
PA5461	713
PA5462	23
PA5463	30
PA5464	175
PA5465	71
PA5466	68
PA5467	22
PA5468	17
PA5469	19
PA5470	21
PA5471	80
PA5471.1	7
PA5472	98
PA5473	1297
PA5474	467
PA5475	3776
PA5476,citA	61
PA5477	145
PA5478	125
PA5479,gltP	192
PA5480	12
PA5481	20698
PA5482	3527
PA5483,algB	815
PA5484,kinB	1471
PA5485,ampDh2	98
PA5486	82
PA5487	1882
PA5488	1446
PA5489,dsbA	2891
PA5490,cc4	941
PA5491	340
PA5492	727
PA5493,polA	1126
PA5494	1675
PA5495,thrB	1006
PA5496,nrdJb	606
PA5497,nrdJa	695
PA5498	447
PA5499,np20	163
PA5500,znuC	132
PA5501,znuB	129
PA5502	76
PA5503	94
PA5504	132
PA5505	388
PA5506	17
PA5507	14
PA5508,pauA7	26
PA5509	34
PA5510	71
PA5511,mifR	188
PA5512,mifS	83
PA5513,poxA	73
PA5514	49
PA5515	100
PA5516,pdxY	68
PA5517	124
PA5518	257
PA5519	85
PA5520	226
PA5521	871
PA5522,pauA6	648
PA5523	422
PA5524	108
PA5525	192
PA5526	1134
PA5527	663
PA5528	1404
PA5529	559
PA5530	37
PA5531,tonB1	591
PA5532	58
PA5533	28
PA5534	45
PA5535	114
PA5536	11
PA5537	38
PA5538,amiA	12
PA5539	8
PA5540	21
PA5541,pyrQ	10
PA5542	670
PA5543	193
PA5544	743
PA5545	887
PA5546	3194
PA5547	128
PA5548	27
PA5549,glmS	252
PA5550,glmR	50
PA5551	135
PA5552,glmU	834
PA5553,atpC	613
PA5554,atpD	6029
PA5555,atpG	5052
PA5556,atpA	7070
PA5557,atpH	2859
PA5558,atpF	4013
PA5559,atpE	2171
PA5560,atpB	2349
PA5561,atpI	594
PA5562,spoOJ	854
PA5563,soj	360
PA5564,gidB	274
PA5565,gidA	873
PA5566	6
PA5567	217
PA5568	637
PA5569,rnpA	495
PA5570,rpmH	424

