PA0263.1,tRNA-Arg	0
PA0296-PA0297,P1	8
PA0826.2,ssrA	38764
PA0836.1,P5	1
PA0887.1,P7	23
PA0976.1,tRNA-Lys	0
PA1030.1,P8	11
PA1052-PA1053,sRNA622	224
PA1324.1,P9	15
PA14_00010,dnaA	903
PA14_00020,dnaN	570
PA14_00030,recF	348
PA14_00050,gyrB	1129
PA14_00060	103
PA14_00070	46
PA14_00080	267
PA14_00090,glyS	342
PA14_00100,glyQ	191
PA14_00110,tag	35
PA14_00120	143
PA14_00130	24
PA14_00140	19
PA14_00150	6
PA14_00160	38
PA14_00170,trkA	190
PA14_00180,sun	50
PA14_00190,fmt	19
PA14_00200,def	343
PA14_00210	214
PA14_00230,smf	1
PA14_00240	23
PA14_00250,qor	133
PA14_00280,hemF	58
PA14_00290,aroE	23
PA14_00300,plcB	224
PA14_00310	68
PA14_00320	62
PA14_00340	4
PA14_00360	2
PA14_00380,betC	8
PA14_00400	28
PA14_00410	58
PA14_00420	3
PA14_00430,bvga	1
PA14_00440,trpA	94
PA14_00450,trpB	204
PA14_00460,trpI	19
PA14_00470	200
PA14_00480	648
PA14_00490	72
PA14_00510	511
PA14_00520	3
PA14_00530	14
PA14_00550	18
PA14_00560,exoT	134
PA14_00570	51
PA14_00580	18
PA14_00590	8
PA14_00600	2
PA14_00620	4
PA14_00630	146
PA14_00640,phzH	54
PA14_00650	39
PA14_00660	8
PA14_00670	37
PA14_00680	3
PA14_00690	10
PA14_00700	2
PA14_00710,osmC	98
PA14_00720	39
PA14_00730	29
PA14_00740	42
PA14_00750	21
PA14_00760	39
PA14_00770	35
PA14_00780	32
PA14_00790,prlC	471
PA14_00800	84
PA14_00810	16
PA14_00820	367
PA14_00830	404
PA14_00850	11
PA14_00860	0
PA14_00875,ppkA	72
PA14_00890	19
PA14_00900	5
PA14_00910	113
PA14_00925	34
PA14_00940	33
PA14_00960	27
PA14_00970	33
PA14_00980	50
PA14_00990	95
PA14_01010	170
PA14_01020	761
PA14_01030	457
PA14_01040	54
PA14_01060	39
PA14_01070	102
PA14_01080	33
PA14_01100,clpB	188
PA14_01110	90
PA14_01120	37
PA14_01130	46
PA14_01140	78
PA14_01150	33
PA14_01160	346
PA14_01170	13
PA14_01180	40
PA14_01190	20
PA14_01200	97
PA14_01220	101
PA14_01230	24
PA14_01240	144
PA14_01250,ychM	105
PA14_01270	24
PA14_01290,coxB	201
PA14_01300,coxA	95
PA14_01310,coxG	25
PA14_01320,coIII	60
PA14_01330	56
PA14_01340	11
PA14_01350	8
PA14_01360,ctaA	8
PA14_01380,ctaB	26
PA14_01390	44
PA14_01400,elaA	10
PA14_01410	44
PA14_01430	13
PA14_01440	2
PA14_01460,dctA	10
PA14_01470	13
PA14_01480	12
PA14_01490	1726
PA14_01500	20
PA14_01510	4
PA14_01520	19
PA14_01540	53
PA14_01550	15
PA14_01560,phnA	93
PA14_01580,gabP	19
PA14_01600,mmsA	67
PA14_01610	10
PA14_01620,aptA	54
PA14_01640	16
PA14_01660,guaD	67
PA14_01670	5
PA14_01680	2
PA14_01690	5
PA14_01710,ahpC	1079
PA14_01720,ahpF	325
PA14_01730	808
PA14_01750	6
PA14_01760,nuh	145
PA14_01770	34
PA14_01780	32
PA14_01790	4
PA14_01800	15
PA14_01810	15
PA14_01830,add	61
PA14_01840	2
PA14_01860	4
PA14_01870	9
PA14_01890,pcaQ	9
PA14_01900,pcaH	37
PA14_01910,pcaG	22
PA14_01930,pcaR	15
PA14_01940	54
PA14_01960	49
PA14_01970	433
PA14_01980	58
PA14_01990	6
PA14_02010	20
PA14_02020	28
PA14_02030	18
PA14_02050	22
PA14_02060	6
PA14_02070	1
PA14_02090	61
PA14_02100	8
PA14_02110	14
PA14_02130	24
PA14_02140	15
PA14_02150	22
PA14_02180,cheB	14
PA14_02190,cheD	36
PA14_02200,cheR	156
PA14_02220	422
PA14_02230,cheW	159
PA14_02250,cheA	344
PA14_02260,cheY	239
PA14_02270	147
PA14_02290	31
PA14_02300,fabG	3
PA14_02310,atsA	4
PA14_02330,atsC	3
PA14_02340,atsB	4
PA14_02360,atsR	6
PA14_02370	1
PA14_02380	0
PA14_02390	19
PA14_02410	4
PA14_02420,atsK	5
PA14_02435	1
PA14_02450	79
PA14_02460	30
PA14_02470,pntB	112
PA14_02490,tonB2	5
PA14_02500,exbB1	11
PA14_02510,exbD1	14
PA14_02520	87
PA14_02530	14
PA14_02550,mdcA	10
PA14_02560,mdcB	3
PA14_02570,mdcC	2
PA14_02580,mdcD	4
PA14_02590,mdcE	3
PA14_02610,mdcG	0
PA14_02620,mdcH	6
PA14_02630,mdcL	3
PA14_02640,mcdM	7
PA14_02650	28
PA14_02660	19
PA14_02680,aldH	8
PA14_02690	5
PA14_02700	3
PA14_02720	1
PA14_02730	3
PA14_02740	3
PA14_02750	49
PA14_02760,catI	39
PA14_02770,pcaJ	19
PA14_02790,pcaF	16
PA14_02810,pcaT	46
PA14_02830,pcaB	13
PA14_02840,pcaD	32
PA14_02850,pcaC	38
PA14_02870	16
PA14_02890	4
PA14_02900,pcaK	1
PA14_02910	16
PA14_02930	7
PA14_02960	2
PA14_02970	8
PA14_02980	3
PA14_02990	3
PA14_03000	16
PA14_03010	30
PA14_03020,aroE	1
PA14_03030,aroQ2	5
PA14_03040	19
PA14_03050,pobA	24
PA14_03070,pobR	18
PA14_03080	28
PA14_03090	75
PA14_03100	9
PA14_03110	5
PA14_03120	7
PA14_03130	42
PA14_03150	27
PA14_03160	124
PA14_03163	1229
PA14_03166	109
PA14_03170	153
PA14_03180	180
PA14_03190	1007
PA14_03200	1326
PA14_03210	248
PA14_03220	657
PA14_03240,hcpC	258
PA14_03250	295
PA14_03265	95
PA14_03270	651
PA14_03285	166
PA14_03290	244
PA14_03300	59
PA14_03310	23
PA14_03320	164
PA14_03330	105
PA14_03340	132
PA14_03350	515
PA14_03360	470
PA14_03370	152
PA14_03380	359
PA14_03390	14
PA14_03400	4
PA14_03410	67
PA14_03420	4
PA14_03430,gabD	430
PA14_03450,gabT	225
PA14_03470	17
PA14_03480	17
PA14_03490	55
PA14_03510	68
PA14_03520	39
PA14_03530	17
PA14_03550,cynX	1
PA14_03560	2
PA14_03580	31
PA14_03590	29
PA14_03610,ycaL	50
PA14_03620	4
PA14_03630	5
PA14_03650,cysA	239
PA14_03670,cysW	302
PA14_03680,cysT	89
PA14_03700,sbp	125
PA14_03710	42
PA14_03720	66
PA14_03730	543
PA14_03760	6
PA14_03770,speB1	4
PA14_03780	18
PA14_03790	134
PA14_03800,oprE	698
PA14_03810,aguA	77
PA14_03830,aguB	20
PA14_03840,aguR	44
PA14_03855	41
PA14_03860	241
PA14_03870,spuA	56
PA14_03880,spuB	223
PA14_03900,spuC	400
PA14_03920,spuD	730
PA14_03930,spuE	263
PA14_03940,spuF	211
PA14_03950,spuG	276
PA14_03960,spuH	139
PA14_03980	100
PA14_04000	19
PA14_04010	227
PA14_04020	37
PA14_04030	38
PA14_04040	49
PA14_04050	31
PA14_04060	1
PA14_04070	20
PA14_04080,yecS	77
PA14_04090,fliY	75
PA14_04100	164
PA14_04110,serA	451
PA14_04140	314
PA14_04150,ycgM	195
PA14_04160	119
PA14_04180	212
PA14_04190,aphA	4
PA14_04210	6
PA14_04220	9
PA14_04230	0
PA14_04240	6
PA14_04250	2
PA14_04270	143
PA14_04290	18
PA14_04300	78
PA14_04310,rpiA	91
PA14_04320,ilvA1	120
PA14_04330	82
PA14_04340	52
PA14_04350	31
PA14_04370	13
PA14_04380	37
PA14_04390,ygdP	360
PA14_04410,ptsP	1002
PA14_04420	231
PA14_04430	4
PA14_04440	61
PA14_04460,lgt	76
PA14_04480,thyA	147
PA14_04490	34
PA14_04510	62
PA14_04520	29
PA14_04530	6
PA14_04550,glpQ	32
PA14_04560	11
PA14_04570	1
PA14_04580,folA	10
PA14_04590	27
PA14_04610,yicE	16
PA14_04630,ilvD	369
PA14_04640	50
PA14_04650,pfpI	64
PA14_04660	57
PA14_04670,mutM	34
PA14_04680	6
PA14_04690	24
PA14_04700	111
PA14_04710	41
PA14_04730	103
PA14_04750,fdx1	102
PA14_04760,coaD	183
PA14_04780	52
PA14_04790	38
PA14_04810	279
PA14_04820	45
PA14_04830	17
PA14_04840	22
PA14_04850	12
PA14_04860,yhhF	42
PA14_04870	116
PA14_04890	123
PA14_04900,ftsY	223
PA14_04910,ftsE	69
PA14_04920,ftsX	182
PA14_04930,rpoH	1388
PA14_04940	32
PA14_04950,mtgA	33
PA14_04960	29
PA14_04970,thiS	4
PA14_04980,thiG	86
PA14_05000,trmB	93
PA14_05010	9
PA14_05020	5
PA14_05030	14
PA14_05040	11
PA14_05050	66
PA14_05060	179
PA14_05070,metW	56
PA14_05080,metX	45
PA14_05110	116
PA14_05120	8
PA14_05130	258
PA14_05150,proC	49
PA14_05160	104
PA14_05180,pilT	229
PA14_05190,pilU	356
PA14_05200,czcD	76
PA14_05210	46
PA14_05220	155
PA14_05230	161
PA14_05250,pyrC	56
PA14_05260,pyrB	129
PA14_05270,pyrR	36
PA14_05280,yqgF	14
PA14_05290,algH	28
PA14_05300	74
PA14_05310,gshB	108
PA14_05320,pilG	912
PA14_05330,pilH	324
PA14_05340,pilI	287
PA14_05360,pilJ	680
PA14_05380,pilK	365
PA14_05390,chpA	896
PA14_05400	87
PA14_05410,chpC	22
PA14_05420,chpD	13
PA14_05430,chpE	1
PA14_05440	44
PA14_05450	14
PA14_05460,bioA	102
PA14_05480	198
PA14_05500	594
PA14_05510,yceI	505
PA14_05520,mexR	22
PA14_05530,mexA	411
PA14_05540,mexB	1530
PA14_05550,oprM	536
PA14_05560,rhlE	567
PA14_05580	660
PA14_05590,metF	315
PA14_05600	153
PA14_05620,sahH	1271
PA14_05630	11
PA14_05640,bfrG	46
PA14_05650	8
PA14_05660	155
PA14_05690,codA	40
PA14_05700,codB	19
PA14_05740,pydA	4
PA14_05750,gltX	1
PA14_05770,dhT	5
PA14_05775	0
PA14_05790	6
PA14_05810,amaB	11
PA14_05820	37
PA14_05840,gcdH	122
PA14_05850	42
PA14_05860	104
PA14_05870	41
PA14_05880,nfeD	17
PA14_05890	23
PA14_05910	23
PA14_05920	64
PA14_05950,dbpA	38
PA14_05960,cspB	159
PA14_05970	11
PA14_05990,emrA	61
PA14_06000,clpA	1725
PA14_06010	184
PA14_06030	120
PA14_06040	69
PA14_06060,creB	29
PA14_06070,creC	36
PA14_06080,creD	14
PA14_06090	4
PA14_06120	12
PA14_06130	29
PA14_06150	196
PA14_06160,fiuA	9
PA14_06170,fiuR	1
PA14_06180,fiuI	0
PA14_06190,psfA	36
PA14_06200	0
PA14_06210	3
PA14_06230	5
PA14_06240	5
PA14_06250	4
PA14_06260	29
PA14_06270,catD	41
PA14_06280	24
PA14_06290,glcB	878
PA14_06300	55
PA14_06310	130
PA14_06320,rarD	40
PA14_06330	75
PA14_06340,modR	31
PA14_06350,yfiM	5
PA14_06360,comF	1
PA14_06390	63
PA14_06400	13
PA14_06420	9
PA14_06430	9
PA14_06450,accC	11
PA14_06460	8
PA14_06480	19
PA14_06500,bioB	245
PA14_06510,bioF	36
PA14_06530,bioH	37
PA14_06540,bioC	18
PA14_06570,bioD	1
PA14_06580	25
PA14_06600	866
PA14_06620	46
PA14_06640	94
PA14_06650,nirN	28
PA14_06660,nirE	8
PA14_06670,nirJ	22
PA14_06680,nirH	7
PA14_06690,nirG	3
PA14_06700,nirL	10
PA14_06710,nirD	6
PA14_06720,nirF	30
PA14_06730,nirC	2
PA14_06740,nirM	32
PA14_06750,nirS	196
PA14_06770,nirQ	25
PA14_06790,nirO	2
PA14_06800	0
PA14_06810,norC	7
PA14_06830,norB	42
PA14_06840,norD	3
PA14_06860	2
PA14_06870,dnr	16
PA14_06875,rsmY	183
PA14_06880	6
PA14_06890	13
PA14_06900	3
PA14_06920,argD	10
PA14_06930	4
PA14_06940	5
PA14_06950	39
PA14_06960	21
PA14_06970	14
PA14_06980	132
PA14_06990	261
PA14_07000,dsbB	71
PA14_07010	17
PA14_07020	23
PA14_07030	57
PA14_07040,yqjC	47
PA14_07050	30
PA14_07060	12
PA14_07070	186
PA14_07090,metK	967
PA14_07110	473
PA14_07130,tktA	817
PA14_07140	35
PA14_07150,hyi	12
PA14_07170,epd	73
PA14_07190,pgk	300
PA14_07200	47
PA14_07210	113
PA14_07230,fda	745
PA14_07240	51
PA14_07250	28
PA14_07260	66
PA14_07280,yhiN	31
PA14_07290,ygjP	53
PA14_07300	79
PA14_07310	5
PA14_07330	165
PA14_07340	6
PA14_07355	8
PA14_07360	14
PA14_07370	59
PA14_07380	34
PA14_07400	47
PA14_07410	11
PA14_07420	40
PA14_07430	1021
PA14_07440	3
PA14_07450	52
PA14_07460	2
PA14_07470	1
PA14_07480	1418
PA14_07500	128
PA14_07520,rpoD	3621
PA14_07530,dnaG	438
PA14_07550	55
PA14_07560,rpsU	359
PA14_07570,gcp	71
PA14_07580	36
PA14_07590,folB	26
PA14_07600,folk	49
PA14_07620,cca	34
PA14_07630	11
PA14_07650,ycgB	905
PA14_07660	912
PA14_07680,prkA	5411
PA14_07690,glpE	22
PA14_07700,apaH	101
PA14_07710,apaG	68
PA14_07730,ksgA	52
PA14_07740,pdxA	45
PA14_07760,surA	830
PA14_07770,ostA	2104
PA14_07780	180
PA14_07790	62
PA14_07800,djlA	79
PA14_07810	63
PA14_07820	126
PA14_07840,uhpA	58
PA14_07850	44
PA14_07860	45
PA14_07870	78
PA14_07890	22
PA14_07900	25
PA14_07910,rpe	71
PA14_07930,gph	187
PA14_07940,trpE	275
PA14_07950,prtN	84
PA14_07960,prtR	177
PA14_07970	21
PA14_07980	97
PA14_07990,hol	93
PA14_08000	166
PA14_08010,gpV	46
PA14_08020,gpW	103
PA14_08030	336
PA14_08040,gpI	235
PA14_08050	1036
PA14_08060	202
PA14_08070,gpFI	999
PA14_08090,gpFII	525
PA14_08100	405
PA14_08110	74
PA14_08120	665
PA14_08130,gpU	145
PA14_08140,XR2	14
PA14_08150,gpD	195
PA14_08160,lys	72
PA14_08180	34
PA14_08190	29
PA14_08200	62
PA14_08210	584
PA14_08220	130
PA14_08230	87
PA14_08240	595
PA14_08250	110
PA14_08260	175
PA14_08270	164
PA14_08280	159
PA14_08300,JF1	826
PA14_08310	581
PA14_08320	123
PA14_08330	121
PA14_08340,trpG	81
PA14_08350,trpD	291
PA14_08360,trpC	179
PA14_08370,vfr	194
PA14_08380	37
PA14_08390,speD	105
PA14_08400	162
PA14_08420	85
PA14_08430	121
PA14_08440	64
PA14_08450	124
PA14_08460	119
PA14_08470	57
PA14_08480,argC	116
PA14_08490	87
PA14_08500	66
PA14_08510,yadR	188
PA14_08520,anmK	184
PA14_08540	1116
PA14_08560,tyrZ	538
PA14_08570,16S-rRNA	43531
PA14_08580	22
PA14_08590	160
PA14_08600,23S-rRNA	261727
PA14_08610,5S-rRNA	4412
PA14_08620,birA	155
PA14_08630	96
PA14_08640	129
PA14_08650	416
PA14_08660	65
PA14_08670	40
PA14_08680,tufB	6663
PA14_08690	97
PA14_08695,secE	1351
PA14_08710,nusG	1503
PA14_08720,rplK	1873
PA14_08730,rplA	2418
PA14_08740,rplJ	2209
PA14_08750,rplL	2626
PA14_08760,rpoB	12655
PA14_08780,rpoC	15476
PA14_08790,rpsL	2734
PA14_08810,rpsG	2880
PA14_08820,fusA1	15792
PA14_08830,tufA	7928
PA14_08840,rpsJ	1917
PA14_08850,rplC	2254
PA14_08860,rplD	3333
PA14_08870,rplW	1678
PA14_08880,rplB	4845
PA14_08890,rpsS	1888
PA14_08900,rplV	1247
PA14_08910,rpsC	3280
PA14_08920,rplP	2128
PA14_08930,rpmC	1888
PA14_08940,rpsQ	604
PA14_08950,rplN	1646
PA14_08960,rplX	1702
PA14_08970,rplE	3837
PA14_08980,rpsN	1125
PA14_08990,rpsH	1395
PA14_09000,rplF	2129
PA14_09010,rplR	1581
PA14_09020,rpsE	2543
PA14_09030,rpmD	1483
PA14_09040,rplO	2170
PA14_09050,secY	5518
PA14_09070,rpmJ	114
PA14_09080,rpsM	3200
PA14_09090,rpsK	1598
PA14_09100,rpsD	3628
PA14_09115,rpoA	4755
PA14_09130,rplQ	843
PA14_09150,katA	1659
PA14_09160,bfrA	102
PA14_09180,uvrA	315
PA14_09195,yajR	142
PA14_09200,ssb	146
PA14_09210,pchA	3
PA14_09220,pchB	0
PA14_09230,pchC	2
PA14_09240,pchD	2
PA14_09260,pchR	5
PA14_09270,pchE	4
PA14_09280,pchF	6
PA14_09290,pchG	0
PA14_09300,pchH	1
PA14_09320,pchI	2
PA14_09340,fptA	19
PA14_09350,fptB	1
PA14_09370	0
PA14_09380	1
PA14_09400,phzS	1334
PA14_09410,phzG1	522
PA14_09420,phzF1	756
PA14_09440,phzE1	2604
PA14_09450,phzD1	421
PA14_09460,phzC1	697
PA14_09470,phzB1	1436
PA14_09480,phzA1	1097
PA14_09490,phzM	335
PA14_09500,opmD	328
PA14_09520,mexI	2084
PA14_09530,mexH	1058
PA14_09540,mexG	578
PA14_09550	48
PA14_09570	8
PA14_09580	11
PA14_09600,ddlA	97
PA14_09610	19
PA14_09630	107
PA14_09660	38
PA14_09680	28
PA14_09690	8
PA14_09700,pqsL	71
PA14_09710,aldH	6
PA14_09730,dapA	1
PA14_09740,yaaU	11
PA14_09750	30
PA14_09760	18
PA14_09770	25
PA14_09780	13
PA14_09790	23
PA14_09810	3
PA14_09820	182
PA14_09850,opdN	0
PA14_09870	3
PA14_09880	3
PA14_09890,ppiC2	24
PA14_09900,prpL	772
PA14_09910,lysR	13
PA14_09920	1
PA14_09930	10
PA14_09940,pfpI	31
PA14_09950	14
PA14_09960	7
PA14_09970,fpvB	8
PA14_09980,dkgB	0
PA14_09990	1
PA14_10010	11
PA14_10020	12
PA14_10040	83
PA14_10050	0
PA14_10070	3
PA14_10080	1
PA14_10090	19
PA14_10110	2
PA14_10120	23
PA14_10130	16
PA14_10140,fepG	0
PA14_10160,fepD	0
PA14_10170,fepB	1
PA14_10180,fepC	0
PA14_10190	10
PA14_10200	2
PA14_10210	4
PA14_10220,ygiM	23
PA14_10230,adh	15
PA14_10240,acoC	8
PA14_10250,acoB	7
PA14_10260,acoA	1
PA14_10270,acoX	2
PA14_10280	2
PA14_10290,acoR	49
PA14_10300	3
PA14_10320	38
PA14_10330,ompK	38
PA14_10340,cvaB	149
PA14_10350	157
PA14_10360	3436
PA14_10370,choS	226
PA14_10380	1472
PA14_10400	3
PA14_10410	0
PA14_10420,tyrS	12
PA14_10440,opdL	4
PA14_10470,bcr	11
PA14_10480	26
PA14_10490	281
PA14_10500,ccoN	2301
PA14_10530	900
PA14_10540,fixG	1343
PA14_10550,cysI	1369
PA14_10560	423
PA14_10570,hpcH	4
PA14_10590,hpcG	0
PA14_10600,hpaX	16
PA14_10610,hpcD	4
PA14_10620,hpcB	10
PA14_10630,hpcC	8
PA14_10640,hpaG2	7
PA14_10650,hpaG1	5
PA14_10660,hpaA	12
PA14_10670,aph	6
PA14_10680	19
PA14_10700	425
PA14_10710	127
PA14_10730	145
PA14_10740	16
PA14_10750,sotB	16
PA14_10770	180
PA14_10780	11
PA14_10790,ampC	12
PA14_10800,ampR	25
PA14_10820	78
PA14_10830	50
PA14_10840	13
PA14_10850	3
PA14_10870	2
PA14_10890	0
PA14_10900,ydjL	0
PA14_10910,phlE	3
PA14_10920,dad	0
PA14_10940	44
PA14_10950	1
PA14_10960	1
PA14_10970	3
PA14_10980	12
PA14_10990,hpaC	0
PA14_11000,hpaA	11
PA14_11010	1
PA14_11020,fabG	1
PA14_11030	2
PA14_11050,moaF	7
PA14_11060,cupB1	8
PA14_11070,cupB2	4
PA14_11080,cupB3	8
PA14_11090,cupB4	2
PA14_11100,cupB5	22
PA14_11110,cupB6	3
PA14_11120,rcsB	47
PA14_11130	106
PA14_11140	358
PA14_11150	8
PA14_11160	12
PA14_11170	48
PA14_11180	6
PA14_11190,styD	10
PA14_11210	4
PA14_11230	2
PA14_11240	15
PA14_11250	99
PA14_11260	121
PA14_11270,oprG	2123
PA14_11280	34
PA14_11290	27
PA14_11310	14
PA14_11320	9
PA14_11330	5
PA14_11340,trx-1	160
PA14_11350	21
PA14_11370	6
PA14_11380,nrdR	31
PA14_11400,ribD	39
PA14_11410,ribC	38
PA14_11420,ribB	71
PA14_11430,ribH	85
PA14_11450,nusB	72
PA14_11460,thiL	20
PA14_11470,pgpA	63
PA14_11480	25
PA14_11490	52
PA14_11510,ribA	91
PA14_11520	59
PA14_11530	15
PA14_11550,dxs	249
PA14_11560,ispA	31
PA14_11570,xseB	21
PA14_11580	29
PA14_11590	5
PA14_11600	8
PA14_11610	1
PA14_11620	6
PA14_11630	31
PA14_11650	66
PA14_11660,aqpZ	21
PA14_11670	2
PA14_11680	117
PA14_11690,ppa	262
PA14_11700	25
PA14_11720	65
PA14_11730	4
PA14_11740	26
PA14_11750	96
PA14_11760,eutC	24
PA14_11770,eutB	32
PA14_11790	15
PA14_11810	32
PA14_11830	70
PA14_11845,mpl	80
PA14_11860	43
PA14_11880	3
PA14_11890	100
PA14_11900	92
PA14_11910	58
PA14_11920	18
PA14_11930	54
PA14_11940	34
PA14_11960	48
PA14_11970	26
PA14_11980	10
PA14_11990	13
PA14_12010,proA	266
PA14_12020,nadD	93
PA14_12030	70
PA14_12050	64
PA14_12060,pbpA	140
PA14_12070,rodA	176
PA14_12080,sltB1	311
PA14_12090	370
PA14_12100,dacC	761
PA14_12110	281
PA14_12120,lipB	475
PA14_12130,lis	660
PA14_12140	40
PA14_12150	5
PA14_12160	74
PA14_12170	0
PA14_12180	2
PA14_12200,holA	94
PA14_12210	142
PA14_12230,leuS	847
PA14_12260	170
PA14_12270	37
PA14_12280,lnt	143
PA14_12300	216
PA14_12310	296
PA14_12330	214
PA14_12350,orf2	188
PA14_12360	17
PA14_12370	246
PA14_12390,hemL	160
PA14_12400,thiE	21
PA14_12410,thiD	43
PA14_12440	52
PA14_12450	151
PA14_12470	19
PA14_12490	99
PA14_12530	30
PA14_12540	15
PA14_12550	15
PA14_12560	79
PA14_12570	57
PA14_12590	3
PA14_12610,cepA	16
PA14_12620	52
PA14_12630	43
PA14_12640	1
PA14_12650	0
PA14_12670	55
PA14_12680	34
PA14_12690	8
PA14_12700	30
PA14_12710	7
PA14_12730	1
PA14_12740	83
PA14_12750	48
PA14_12760	63
PA14_12770	24
PA14_12780	84
PA14_12810	26
PA14_12820	55
PA14_12840	158
PA14_12850	57
PA14_12860	39
PA14_12870,tesB	37
PA14_12890	8
PA14_12900	315
PA14_12910	3
PA14_12920	39
PA14_12940	32
PA14_12960	14
PA14_12970,tauD	42
PA14_12980	115
PA14_12990	57
PA14_13000	26
PA14_13010	111
PA14_13030,cioA	1245
PA14_13040,cioB	1119
PA14_13050	24
PA14_13060	14
PA14_13070	8
PA14_13090	39
PA14_13110	154
PA14_13130	299
PA14_13140	225
PA14_13150	109
PA14_13170	9
PA14_13190	429
PA14_13200	22
PA14_13210	1
PA14_13220	9
PA14_13230,moaC	51
PA14_13240,moaD	36
PA14_13250,moaE	12
PA14_13260,moaB1	2
PA14_13280,moeA1	5
PA14_13290	25
PA14_13300	13
PA14_13320	6
PA14_13330	279
PA14_13340	360
PA14_13350	342
PA14_13360	223
PA14_13370	215
PA14_13380	233
PA14_13390	30
PA14_13410,prfC	206
PA14_13420	41
PA14_13430,fecA	4
PA14_13450,fecR	2
PA14_13460,fecI	0
PA14_13470	42
PA14_13490	30
PA14_13500	19
PA14_13510	30
PA14_13520	6
PA14_13530	10
PA14_13560	4
PA14_13580	143
PA14_13590	57
PA14_13600	72
PA14_13610	46
PA14_13620,nhaP	89
PA14_13630	9
PA14_13650	27
PA14_13660,tpbA	2
PA14_13670	1
PA14_13680	12
PA14_13690	21
PA14_13710	35
PA14_13720	16
PA14_13730,narL	112
PA14_13740,narX	93
PA14_13750,narK1	9
PA14_13770,narK2	9
PA14_13780,narG	29
PA14_13800,narH	24
PA14_13810,narJ	1
PA14_13830,narI	9
PA14_13840	5
PA14_13850,moaA	2
PA14_13860	2
PA14_13870	7
PA14_13880	6
PA14_13890	20
PA14_13920	0
PA14_13940	193
PA14_13950	134
PA14_13960	1
PA14_13970	26
PA14_13990	51
PA14_14000	30
PA14_14010	14
PA14_14020	15
PA14_14040,rhl	397
PA14_14060	16
PA14_14080,estB	64
PA14_14100,yhdW	173
PA14_14110,pcs	172
PA14_14130	18
PA14_14140	91
PA14_14150	15
PA14_14160	21
PA14_14170	49
PA14_14200	44
PA14_14210	98
PA14_14220	91
PA14_14230	209
PA14_14250	39
PA14_14270	55
PA14_14280	4
PA14_14290	22
PA14_14300	5
PA14_14310	103
PA14_14320	14
PA14_14330	12
PA14_14340,ybiN	14
PA14_14360	101
PA14_14370	34
PA14_14380	35
PA14_14390	154
PA14_14400	3
PA14_14420	8
PA14_14430	44
PA14_14440,valS	479
PA14_14450	25
PA14_14460,holC	91
PA14_14470,pepA	393
PA14_14480	15
PA14_14490	15
PA14_14500,yjgP	256
PA14_14510,yjgQ	267
PA14_14520	19
PA14_14530	94
PA14_14540	1001
PA14_14550	994
PA14_14560	0
PA14_14570	19
PA14_14590,queA	42
PA14_14600,tgt	81
PA14_14610,yajC	184
PA14_14630,secD	706
PA14_14650,secF	339
PA14_14660,ycfJ	513
PA14_14680,suhB	72
PA14_14690	118
PA14_14700,cysE	90
PA14_14710	102
PA14_14730,iscS	724
PA14_14740,iscU	361
PA14_14750,icsA	252
PA14_14770,hscB	120
PA14_14780,hscA	434
PA14_14800,fdx2	162
PA14_14810	45
PA14_14820,ndk	767
PA14_14830	1074
PA14_14850,pilF	506
PA14_14860	363
PA14_14880,ispG	622
PA14_14890,hisS	773
PA14_14900	342
PA14_14910	517
PA14_14930,engA	614
PA14_14940,ybdL	129
PA14_14960,yafV	308
PA14_14975	136
PA14_14990,mocA	155
PA14_15000	16
PA14_15020	32
PA14_15030,leuA	1477
PA14_15050	1312
PA14_15070,oprC	1436
PA14_15080	250
PA14_15090	12
PA14_15100	58
PA14_15110	304
PA14_15120	536
PA14_15130	427
PA14_15140	1
PA14_15150	35
PA14_15160	3
PA14_15180	11
PA14_15190	2
PA14_15200	15
PA14_15210	10
PA14_15230,xseA	52
PA14_15240	3
PA14_15250	2
PA14_15260	0
PA14_15270	0
PA14_15280	4
PA14_15290	23
PA14_15310,guaB	606
PA14_15340,guaA	366
PA14_15350	471
PA14_15360	306
PA14_15370	0
PA14_15380,repA	11
PA14_15400,repC	127
PA14_15430,tnpR	21
PA14_15435	114
PA14_15445,merE	19
PA14_15450,merD	12
PA14_15460,merA	155
PA14_15470,merP	29
PA14_15475,merT	12
PA14_15480,merR	120
PA14_15490	12
PA14_15500,traK	24
PA14_15510,traJ	25
PA14_15520,trbJ	21
PA14_15530,trbK	40
PA14_15540,trbL	54
PA14_15560	13
PA14_15570	33
PA14_15580	1102
PA14_15590	765
PA14_15600	366
PA14_15610	837
PA14_15620	2
PA14_15630	36
PA14_15650	26
PA14_15660	28
PA14_15670,cumA	54
PA14_15680,cumB	42
PA14_15700	12
PA14_15710	16
PA14_15720,yfhD	197
PA14_15740,purL	727
PA14_15750	3
PA14_15770	24
PA14_15780	23
PA14_15790	23
PA14_15810,glmS	10
PA14_15820,nagA	6
PA14_15830	14
PA14_15840	148
PA14_15850	149
PA14_15860	232
PA14_15870	226
PA14_15880	50
PA14_15890,purT	126
PA14_15910	11
PA14_15920,yhjE	53
PA14_15930,yfjD	38
PA14_15940	60
PA14_15960,ffh	604
PA14_15970,rpsP	391
PA14_15980,rimM	648
PA14_15990,trmD	1083
PA14_16000,rplS	557
PA14_16010	5
PA14_16020	193
PA14_16030	65
PA14_16040,xerD	25
PA14_16050,dsbC	204
PA14_16070,hom	305
PA14_16090,thrC	352
PA14_16100	114
PA14_16110	124
PA14_16130	92
PA14_16140	197
PA14_16150	159
PA14_16160	134
PA14_16180	837
PA14_16190	495
PA14_16200	83
PA14_16210	30
PA14_16220,recJ	45
PA14_16250,lasB	3509
PA14_16260	320
PA14_16270	71
PA14_16280	66
PA14_16290	26
PA14_16300	15
PA14_16310	43
PA14_16320,fkbP-1	17
PA14_16330	249
PA14_16340	72
PA14_16350	14
PA14_16360	18
PA14_16370	98
PA14_16380	12
PA14_16390	13
PA14_16410	6
PA14_16430,wspA	281
PA14_16440,wspB	63
PA14_16450,wspC	98
PA14_16460,wspD	21
PA14_16470,wspE	139
PA14_16480,wspF	103
PA14_16500,wspR	124
PA14_16510	360
PA14_16530,lysS	295
PA14_16550	22
PA14_16560	149
PA14_16580	250
PA14_16590	95
PA14_16600	95
PA14_16610	41
PA14_16620	10
PA14_16630	1150
PA14_16640	676
PA14_16660,cadA	191
PA14_16670,cadR	45
PA14_16680	111
PA14_16690,ppc	287
PA14_16700,adk	443
PA14_16710,yeaZ	9
PA14_16720	14
PA14_16730	98
PA14_16740	18
PA14_16750	12
PA14_16770	19
PA14_16780	20
PA14_16790	104
PA14_16800	25
PA14_16820	111
PA14_16830	40
PA14_16840	55
PA14_16860,plsB	166
PA14_16870	28
PA14_16880	47
PA14_16890	59
PA14_16910	69
PA14_16920,sufE	11
PA14_16930,csdA	59
PA14_16950,dapD	299
PA14_16960	48
PA14_16970	62
PA14_16980	11
PA14_16990	164
PA14_17000	1
PA14_17010,yjcE	129
PA14_17030,dapC	43
PA14_17040,glnD	151
PA14_17050,map	196
PA14_17060,rpsB	1203
PA14_17070,tsf	2207
PA14_17080,pyrH	683
PA14_17100,frr	497
PA14_17110,uppS	301
PA14_17120,cdsA	182
PA14_17130,dxr	331
PA14_17140,yaeL	348
PA14_17150	1530
PA14_17170,ompH	1041
PA14_17180,lpxD	732
PA14_17190,fabZ	489
PA14_17210,lpxA	418
PA14_17220,lpxB	183
PA14_17230,rnhB	64
PA14_17250,yaaJ	156
PA14_17260,dnaE	705
PA14_17270,accA	503
PA14_17280,mesJ	26
PA14_17290,pyrG	1178
PA14_17310,kdsA	455
PA14_17320,eno	1093
PA14_17330	94
PA14_17340,ispD	40
PA14_17350	5
PA14_17370,yedE	57
PA14_17380	33
PA14_17400,adhC	432
PA14_17410	167
PA14_17420,ispF	70
PA14_17440,truD	107
PA14_17450,surE	177
PA14_17460,pcm	219
PA14_17470,nlpD	1097
PA14_17480,rpoS	3257
PA14_17490,fdxA	58
PA14_17500,mutS	172
PA14_17510	37
PA14_17520,cinA	18
PA14_17530,recA	508
PA14_17540,recX	56
PA14_17550	407
PA14_17570	221
PA14_17580	421
PA14_17590	30
PA14_17600	83
PA14_17610,potD	9
PA14_17620,potC	1
PA14_17630,potB	2
PA14_17640,potA	3
PA14_17650	9
PA14_17660	11
PA14_17670	62
PA14_17675,dgkA	8
PA14_17690	161
PA14_17700,rpmE2	9
PA14_17710,rpmJ	4
PA14_17720	32
PA14_17730	12
PA14_17740,ycjJ	11
PA14_17760,ada	9
PA14_17780	2
PA14_17790	17
PA14_17810	3
PA14_17820	0
PA14_17850,fadB	1
PA14_17860,paaH	7
PA14_17880,paaJ	1
PA14_17890	12
PA14_17900,metR	56
PA14_17910,lipG	20
PA14_17920,glpM	11
PA14_17930,glpD	2505
PA14_17940,glpR	75
PA14_17960,glpK	1083
PA14_17980,glpF	451
PA14_17990,ybaK	68
PA14_18010,glpK	178
PA14_18020	92
PA14_18040	26
PA14_18050	46
PA14_18060	25
PA14_18070	2
PA14_18080	50
PA14_18090	12
PA14_18100	75
PA14_18110,mmsR	22
PA14_18120,mmsA	23
PA14_18140,mmsB	9
PA14_18150,acsL	15
PA14_18160	33
PA14_18180	10
PA14_18200	10
PA14_18210	4
PA14_18230,fruR	23
PA14_18250,fruI	19
PA14_18260,fruK	3
PA14_18275,fruA	12
PA14_18300	12
PA14_18310	1
PA14_18320	0
PA14_18330,arnT	2
PA14_18340	2
PA14_18350,fmt	16
PA14_18360,prmF	2
PA14_18370,arnB	5
PA14_18380,algA	32
PA14_18410,algF	16
PA14_18430,algJ	5
PA14_18450,algI	24
PA14_18470,algL	8
PA14_18480,algX	5
PA14_18500,algG	4
PA14_18510,algE	8
PA14_18520,algK	2
PA14_18550,alg44	2
PA14_18565,alg8	7
PA14_18580,algD	35
PA14_18590	94
PA14_18600	99
PA14_18610,argF	75
PA14_18620	18
PA14_18630,eprS	59
PA14_18640	17
PA14_18650,ydhD	105
PA14_18660	28
PA14_18670,bfrB	1575
PA14_18680,bfd	4
PA14_18690,ahpC	1530
PA14_18700,rnt	82
PA14_18710,pyrC	70
PA14_18720,motY	74
PA14_18740,argG	378
PA14_18750,gloA1	96
PA14_18760,mexE	0
PA14_18780,mexF	14
PA14_18790,opmE	1
PA14_18800	14
PA14_18810	7
PA14_18820	1
PA14_18830	6
PA14_18850	6
PA14_18860	25
PA14_18870	46
PA14_18880,nth	54
PA14_18890,rnfE	40
PA14_18900,rnfG	18
PA14_18910,rnfD	30
PA14_18920,rnfC	41
PA14_18930,rnfB	19
PA14_18950,rnfA	24
PA14_18960	96
PA14_18970,pldA	1085
PA14_18985	392
PA14_19010	10
PA14_19020	49
PA14_19030	64
PA14_19050,metG	768
PA14_19065,mrp	58
PA14_19090,dcd	98
PA14_19100,rhlA	4323
PA14_19110,rhlB	2906
PA14_19120,rhlR	2703
PA14_19130,rhlI	750
PA14_19140,pheC	192
PA14_19150,yigM	27
PA14_19160,rarD	26
PA14_19170,yafL	233
PA14_19190,sfcA	247
PA14_19205	6
PA14_19210	20
PA14_19230,ybdG	55
PA14_19270	4
PA14_19290,srmB	95
PA14_19310	159
PA14_19320	11
PA14_19330	5
PA14_19340	60
PA14_19350	320
PA14_19360	321
PA14_19370,asnB	548
PA14_19380	79
PA14_19390	8
PA14_19400,mnmC	28
PA14_19410	368
PA14_19430	25
PA14_19450	12
PA14_19470,mqoA	77
PA14_19480	38
PA14_19490,lsfA	166
PA14_19500,ssuA	3
PA14_19510,ssuC	6
PA14_19520,ssuB	1
PA14_19530,ssuE	28
PA14_19540,ssuA	63
PA14_19560,ssuD	56
PA14_19570,ssuC	36
PA14_19580,ssuB	38
PA14_19590,ssuF	13
PA14_19600	49
PA14_19610	52
PA14_19620,folX	89
PA14_19630,folE1	95
PA14_19640,ydgB	34
PA14_19650	2
PA14_19660,mioC	27
PA14_19670	15
PA14_19680	95
PA14_19690	34
PA14_19700	40
PA14_19710	14
PA14_19720	1
PA14_19730	19
PA14_19740	30
PA14_19750	0
PA14_19770	4
PA14_19800	15
PA14_19810	2
PA14_19830	8
PA14_19850	6
PA14_19860	17
PA14_19870,ldh	67
PA14_19900	36
PA14_19910,pdhB	40
PA14_19920	14
PA14_19930	3
PA14_19940	10
PA14_19950	78
PA14_19960	1
PA14_19970	2
PA14_19990	0
PA14_20000	4
PA14_20010,hasR	8
PA14_20020,hasAp	1
PA14_20030,hasD	1
PA14_20040,hasE	3
PA14_20050,hasF	0
PA14_20060	19
PA14_20070	6
PA14_20080	32
PA14_20100	41
PA14_20110	31
PA14_20120	19
PA14_20130,yeiE	16
PA14_20140,fpr	739
PA14_20150,nosL	1
PA14_20170,nosY	0
PA14_20180,nosF	0
PA14_20190,nosD	5
PA14_20200,nosZ	17
PA14_20230,nosR	4
PA14_20240	4
PA14_20250	3
PA14_20260	5
PA14_20270,rhlG	7
PA14_20280	14
PA14_20290,algZ	463
PA14_20300,phnC	405
PA14_20320,phnD	1274
PA14_20330,phnE	933
PA14_20350,phnF	101
PA14_20360,phnG	46
PA14_20370,phnH	113
PA14_20380,phnI	326
PA14_20390,phnJ	346
PA14_20400,phnK	142
PA14_20420,phnL	147
PA14_20430,phnM	160
PA14_20440,phnN	35
PA14_20450,phnP	34
PA14_20460	38
PA14_20470	110
PA14_20480	228
PA14_20491	38
PA14_20500	596
PA14_20510	68
PA14_20520	93
PA14_20530	62
PA14_20550	10
PA14_20560,amiE	73
PA14_20570,amiB	13
PA14_20580,amiC	24
PA14_20590,amiR	31
PA14_20600	88
PA14_20610,lecB	785
PA14_20620	6
PA14_20630	2
PA14_20640	5
PA14_20650,dsdA	25
PA14_20670	138
PA14_20680	94
PA14_20690	49
PA14_20700	530
PA14_20720,flgN	107
PA14_20730,flgM	228
PA14_20740,flgA	114
PA14_20750	2338
PA14_20760,cheR	692
PA14_20770	301
PA14_20780	422
PA14_20800	44
PA14_20810,recQ	304
PA14_20820	69
PA14_20840	57
PA14_20850,slyA	81
PA14_20860	152
PA14_20870	21
PA14_20880	0
PA14_20890,rfaD	236
PA14_20900	152
PA14_20920	128
PA14_20940	95
PA14_20950,fabH2	222
PA14_20960	225
PA14_20970,cyp23	368
PA14_20980	182
PA14_21000	178
PA14_21010	172
PA14_21020	1031
PA14_21030	1619
PA14_21040	7
PA14_21050	11
PA14_21060	2
PA14_21070	65
PA14_21080,toxR	8
PA14_21090	3
PA14_21110,plcN	217
PA14_21120	10
PA14_21130	42
PA14_21140	6
PA14_21150	7
PA14_21160	7
PA14_21175	166
PA14_21180	25
PA14_21190	209
PA14_21210	63
PA14_21220	692
PA14_21230,hepA	153
PA14_21240	13
PA14_21250,alkB	123
PA14_21260	46
PA14_21280	58
PA14_21290	14
PA14_21300	2
PA14_21310,phaJ1	36
PA14_21320	69
PA14_21340,fadD2	185
PA14_21370,fadD1	462
PA14_21380	1
PA14_21400,hrpA	203
PA14_21410,phoA	260
PA14_21440	89
PA14_21450	359
PA14_21460	49
PA14_21470	87
PA14_21480	312
PA14_21490	1046
PA14_21510	10
PA14_21520	52
PA14_21530	22
PA14_21540,fabH-2	282
PA14_21550	135
PA14_21560	10
PA14_21570	6
PA14_21580	16
PA14_21590	10
PA14_21600	6
PA14_21610,oprO	447
PA14_21620,oprP	67
PA14_21630	81
PA14_21640	52
PA14_21650	10
PA14_21660	3
PA14_21670	5
PA14_21680	30
PA14_21690,lhr1	120
PA14_21700	133
PA14_21710	78
PA14_21720	17
PA14_21730,fecA	20
PA14_21750	162
PA14_21760,capB	30
PA14_21770,sugE	11
PA14_21780	19
PA14_21790,rdgC	42
PA14_21800	58
PA14_21810	93
PA14_21820	409
PA14_21830	92
PA14_21840	54
PA14_21850	56
PA14_21860	26
PA14_21870	97
PA14_21880,tsp	1745
PA14_21890,qor	245
PA14_21900	87
PA14_21910	50
PA14_21920	46
PA14_21930	47
PA14_21940	46
PA14_21960	282
PA14_21970	34
PA14_21980	15
PA14_21990	132
PA14_22000,rluA	29
PA14_22010,minE	313
PA14_22020,minD	1180
PA14_22040,minC	130
PA14_22050,htrB	57
PA14_22060	61
PA14_22075	85
PA14_22080	181
PA14_22090	42
PA14_22100	16
PA14_22110	14
PA14_22120	47
PA14_22130	9
PA14_22140	24
PA14_22160	10
PA14_22180	8
PA14_22190	63
PA14_22210	39
PA14_22220	20
PA14_22230	4
PA14_22240	18
PA14_22250	22
PA14_22260	13
PA14_22270	60
PA14_22280	3
PA14_22290,vacJ	68
PA14_22310	99
PA14_22320	1
PA14_22330	22
PA14_22340,yjcH	63
PA14_22350,actP	81
PA14_22370	62
PA14_22380	13
PA14_22400	30
PA14_22410	66
PA14_22420	51
PA14_22440,bapA	170
PA14_22450,ppiA	188
PA14_22460	50
PA14_22470	97
PA14_22480	26
PA14_22490,acpD	9
PA14_22500	15
PA14_22510	3
PA14_22520	24
PA14_22530	9
PA14_22540,wrbA	5
PA14_22550	40
PA14_22560	19
PA14_22570,csaA	7
PA14_22580	14
PA14_22590	42
PA14_22600,grtA	31
PA14_22620,cyaB	87
PA14_22630	9
PA14_22640	19
PA14_22650	41
PA14_22660	99
PA14_22670,yrbF	62
PA14_22680,yrbE	193
PA14_22690,trkH	52
PA14_22700,ykgJ	2
PA14_22710,ydjA	10
PA14_22720	3
PA14_22730	16
PA14_22740	26
PA14_22760,cpxR	24
PA14_22770	82
PA14_22780,yciI	21
PA14_22800,yciB	199
PA14_22820,yciV	102
PA14_22830,yciO	117
PA14_22840,ypuG	79
PA14_22860	66
PA14_22870	51
PA14_22880	15
PA14_22890,gapA	440
PA14_22910,edd	1147
PA14_22930,glk	252
PA14_22940,gltR	96
PA14_22960	160
PA14_22980,gltB	408
PA14_22990,gltF	47
PA14_23000,gltG	73
PA14_23010,gltK	62
PA14_23030,oprB	166
PA14_23050	199
PA14_23060,hexR	98
PA14_23070,zwf	1382
PA14_23080,pgl	204
PA14_23090,edaA	251
PA14_23100,mutT	31
PA14_23110,yciL	103
PA14_23120	75
PA14_23130	85
PA14_23160,gltS	7
PA14_23170,hutG	5
PA14_23190	12
PA14_23200,yciK	104
PA14_23210	124
PA14_23220,ubiG	166
PA14_23240	71
PA14_23250,mtnA	98
PA14_23260,gyrA	1690
PA14_23270,serC	520
PA14_23280,pheA	447
PA14_23290,hisC2	189
PA14_23310	424
PA14_23320,cmk	68
PA14_23330,rpsA	5374
PA14_23340,ihfB	558
PA14_23350,orfA	370
PA14_23360,wzz	1452
PA14_23370,orfK	1552
PA14_23380,orfH	2423
PA14_23390,orfE	794
PA14_23400	545
PA14_23410,orfJ	481
PA14_23420	2778
PA14_23430	1635
PA14_23440,orfL	680
PA14_23450,orfM	800
PA14_23460,orfN	608
PA14_23470,wbpM	1415
PA14_23480	17
PA14_23490	269
PA14_23500,tyrB	432
PA14_23510,uvrB	336
PA14_23520	10
PA14_23530,mdr	5
PA14_23540,act	48
PA14_23560,gltx	491
PA14_23570	1365
PA14_23580	89
PA14_23590	15
PA14_23610	18
PA14_23620,kdgA	91
PA14_23630	43
PA14_23640	44
PA14_23650,ygfF	50
PA14_23670	14
PA14_23680,ibpA	466
PA14_23690	23
PA14_23700	19
PA14_23720	28
PA14_23730	3
PA14_23750,leuC	408
PA14_23760,leuD	232
PA14_23770,yafE	49
PA14_23790,leuB	267
PA14_23800,asd	494
PA14_23810	114
PA14_23830,fimV	1130
PA14_23840,truA	75
PA14_23850,trpF	106
PA14_23860,accD	516
PA14_23880,folC	339
PA14_23890	217
PA14_23900,cvpA	45
PA14_23920,purF	498
PA14_23930,metZ	124
PA14_23950	56
PA14_23970,xcpQ	375
PA14_23980,xcpP	336
PA14_23990,xcpR	324
PA14_24010,xcpS	262
PA14_24020,xcpT	247
PA14_24040,xcpU	109
PA14_24050,xcpV	28
PA14_24060,xcpW	54
PA14_24070,xcpX	115
PA14_24080,xcpY	72
PA14_24100,xcpZ	17
PA14_24110	255
PA14_24120	136
PA14_24130	186
PA14_24140	63
PA14_24150	53
PA14_24170,fadH1	63
PA14_24180	116
PA14_24190	11
PA14_24210	8
PA14_24220,ppnK	102
PA14_24230	75
PA14_24240	66
PA14_24245	51
PA14_24260	104
PA14_24270,pepN	864
PA14_24290,gbt	91
PA14_24300	48
PA14_24310	19
PA14_24330	48
PA14_24340	27
PA14_24350	8
PA14_24360	11
PA14_24370	83
PA14_24380	40
PA14_24390	25
PA14_24400	15
PA14_24410	6
PA14_24420	18
PA14_24430,moxR	53
PA14_24440	51
PA14_24445,gdhB	1816
PA14_24480,pelA	25
PA14_24490,pelB	18
PA14_24500,pelC	0
PA14_24510,pelD	7
PA14_24530,pelE	7
PA14_24550,pelF	10
PA14_24560,pelG	14
PA14_24570	4
PA14_24580	64
PA14_24590	75
PA14_24600	82
PA14_24610	46
PA14_24620	43
PA14_24630	16
PA14_24640,pyrD	55
PA14_24650,rmf	1468
PA14_24665	39
PA14_24675	77
PA14_24690,dacB	97
PA14_24700	242
PA14_24710	32
PA14_24720	32
PA14_24730	192
PA14_24740	145
PA14_24760,yqjE	429
PA14_24770	355
PA14_24780	19
PA14_24790,opdQ	85
PA14_24810	1
PA14_24820	0
PA14_24830	4
PA14_24840	81
PA14_24850	56
PA14_24860,snr1	170
PA14_24870	17
PA14_24880	184
PA14_24890,mobA	25
PA14_24900,moaB2	95
PA14_24910,moeA2	103
PA14_24920	12
PA14_24940	55
PA14_24950,glpD2	18
PA14_24960	38
PA14_24970,yegS	75
PA14_24980	345
PA14_24990	159
PA14_25000,slt	227
PA14_25020,uup	171
PA14_25030	32
PA14_25040	55
PA14_25050	10
PA14_25060	38
PA14_25080,fadB	1324
PA14_25090,fadA	424
PA14_25100	66
PA14_25110,topA	1454
PA14_25130	208
PA14_25140	30
PA14_25150	60
PA14_25160,lexA	126
PA14_25180,psrA	508
PA14_25195,nagZ	113
PA14_25210	71
PA14_25220	47
PA14_25230,mfd	358
PA14_25250,gapA	735
PA14_25270,aroP1	156
PA14_25280,nqrA	250
PA14_25305,nqrB	276
PA14_25320,nqrC	236
PA14_25330,nqrD	248
PA14_25340,nqrE	193
PA14_25350,nqrF	433
PA14_25360,apbE	156
PA14_25370	61
PA14_25390,sth	613
PA14_25400,ugpQ	153
PA14_25410	18
PA14_25420	90
PA14_25430,lolC	194
PA14_25440,lolD	49
PA14_25450,lolE	72
PA14_25470	23
PA14_25480	27
PA14_25490	162
PA14_25500,exbD	86
PA14_25510,lpxK	164
PA14_25520	101
PA14_25530,kdsB	129
PA14_25540,ptpA	68
PA14_25550,murB	136
PA14_25560,rne	1098
PA14_25580,rluC	465
PA14_25590	309
PA14_25600,sppA	227
PA14_25610,maf-1	12
PA14_25620	1860
PA14_25630,rpmF	337
PA14_25640,plsX	56
PA14_25650,fabD	138
PA14_25660,fabG	842
PA14_25670,acpP	447
PA14_25690,fabF1	472
PA14_25710,pabC	117
PA14_25730	107
PA14_25740,tmk	20
PA14_25760,holB	127
PA14_25770,pilZ	341
PA14_25780,ycfH	93
PA14_25790	76
PA14_25800	301
PA14_25810	91
PA14_25820	36
PA14_25830	29
PA14_25840	470
PA14_25860,etfB	1335
PA14_25880,etfA	1006
PA14_25900	323
PA14_25910	49
PA14_25920,cobM	41
PA14_25930	9
PA14_25940	217
PA14_25960,cobW	201
PA14_25970,cobN	202
PA14_25980,aroF	48
PA14_25990	16
PA14_26000	9
PA14_26010,phaA	10
PA14_26020	753
PA14_26050	3
PA14_26060	14
PA14_26070	6
PA14_26080	2
PA14_26090,cif	25
PA14_26110	6
PA14_26130,morB	24
PA14_26140,cifR	33
PA14_26150	0
PA14_26160	6
PA14_26165	20
PA14_26190	75
PA14_26200	4
PA14_26210,hisP	2
PA14_26220,hisM	2
PA14_26230,hisQ	0
PA14_26240,hisJ	0
PA14_26260	1
PA14_26270	17
PA14_26280	52
PA14_26300	0
PA14_26310	4
PA14_26330	6
PA14_26340	0
PA14_26350	98
PA14_26360,btuC	4
PA14_26390	14
PA14_26400	1
PA14_26420	62
PA14_26450,yebN	2
PA14_26460,cobK	0
PA14_26470,cbiD	7
PA14_26480,cobL	12
PA14_26485	19
PA14_26500,cobH	8
PA14_26510,cobI	24
PA14_26530,cobJ	20
PA14_26540	108
PA14_26550	230
PA14_26560	127
PA14_26570	54
PA14_26580	1
PA14_26590	374
PA14_26600	108
PA14_26610	27
PA14_26620	109
PA14_26640	6
PA14_26650	6
PA14_26670	19
PA14_26690	3
PA14_26700	45
PA14_26720,mccB	16
PA14_26730	15
PA14_26750	30
PA14_26760	52
PA14_26770	70
PA14_26780	103
PA14_26810	128
PA14_26830	35
PA14_26850	9
PA14_26860,hpkR	57
PA14_26870	0
PA14_26880	41
PA14_26890,pyrF	17
PA14_26910,moxR	31
PA14_26920	7
PA14_26930	35
PA14_26940	16
PA14_26960	33
PA14_26970	31
PA14_26980	106
PA14_26990	46
PA14_27000	223
PA14_27020,mttC	15
PA14_27050	145
PA14_27070	49
PA14_27090,lipH	7
PA14_27100,lipA	10
PA14_27110,ligT	3
PA14_27120	36
PA14_27130,greB	46
PA14_27140	54
PA14_27150	21
PA14_27160,tesA	91
PA14_27170	15
PA14_27180,erfK	228
PA14_27190	232
PA14_27200	50
PA14_27210,efp	788
PA14_27220,ohr	7
PA14_27230	185
PA14_27250	6
PA14_27270	13
PA14_27280	9
PA14_27290	1
PA14_27310	25
PA14_27330,dhs	65
PA14_27350	24
PA14_27360	15
PA14_27370,deaD	66
PA14_27390	18
PA14_27400	1
PA14_27410,trpC	3
PA14_27420,trpB	1
PA14_27430	4
PA14_27440,trpR	17
PA14_27450	4
PA14_27460,tpm	72
PA14_27470	78
PA14_27480,htpX	413
PA14_27490	8
PA14_27500,yfbQ	165
PA14_27510,msrB	55
PA14_27520,gpo	110
PA14_27530	64
PA14_27550	180
PA14_27560	153
PA14_27570	81
PA14_27580	55
PA14_27590	151
PA14_27600	175
PA14_27610	175
PA14_27620	170
PA14_27630,rebB1	8
PA14_27640,rebB2	39
PA14_27650	2
PA14_27660	3
PA14_27675	41
PA14_27680	1
PA14_27690,fecI	2
PA14_27700	4
PA14_27710	60
PA14_27720	29
PA14_27730,fadE	646
PA14_27740	43
PA14_27755,yliJ	84
PA14_27770,yadG	140
PA14_27780,yadH	82
PA14_27800	27
PA14_27810,copR	37
PA14_27830	2
PA14_27840	0
PA14_27850,queF	38
PA14_27870	63
PA14_27880	53
PA14_27890	29
PA14_27900	18
PA14_27910	13
PA14_27920,vacJ	153
PA14_27930	68
PA14_27940	963
PA14_27950	260
PA14_27960,tal	603
PA14_27980,yjbN	35
PA14_27990	259
PA14_28000	152
PA14_28010	26
PA14_28020	2
PA14_28030	35
PA14_28040	4
PA14_28050	227
PA14_28060,cpg2	51
PA14_28070	7
PA14_28080	1
PA14_28090	3
PA14_28100	0
PA14_28110	9
PA14_28120	101
PA14_28130	73
PA14_28140	28
PA14_28150	8
PA14_28170,yfdC	45
PA14_28180,ordL	32
PA14_28190	13
PA14_28200	81
PA14_28210	57
PA14_28220	30
PA14_28230	4
PA14_28240	8
PA14_28250	107
PA14_28260	125
PA14_28280	90
PA14_28290	25
PA14_28300	2
PA14_28310	7
PA14_28320	11
PA14_28330	3
PA14_28340	82
PA14_28350	34
PA14_28360	61
PA14_28370	6
PA14_28380	8
PA14_28390	1
PA14_28400,oprQ	814
PA14_28410	8
PA14_28420	25
PA14_28430	12
PA14_28440	128
PA14_28450,eco	141
PA14_28460	173
PA14_28470	9
PA14_28490	96
PA14_28500	76
PA14_28510	12
PA14_28520	30
PA14_28530	74
PA14_28540	18
PA14_28560	3
PA14_28570,endA	9
PA14_28580	17
PA14_28590,mapB	43
PA14_28600	226
PA14_28610	34
PA14_28620	44
PA14_28630	8
PA14_28650,thrS	1368
PA14_28660,infC	3015
PA14_28670,rpmI	1105
PA14_28680,rplT	1633
PA14_28690,pheS	299
PA14_28710,pheT	1342
PA14_28720,ihfA	691
PA14_28730	507
PA14_28740	389
PA14_28750	5
PA14_28760	64
PA14_28770	291
PA14_28780	62
PA14_28790	73
PA14_28800	330
PA14_28810	2026
PA14_28820	1334
PA14_28830	1566
PA14_28840	1948
PA14_28850	472
PA14_28870	91
PA14_28880	20
PA14_28895	151
PA14_28910	13
PA14_28920	115
PA14_28930	3
PA14_28940	13
PA14_28950	78
PA14_28960	42
PA14_28970	2
PA14_28980	3
PA14_28990	17
PA14_29000	22
PA14_29010	60
PA14_29020,cpo	87
PA14_29030	21
PA14_29040	0
PA14_29050	5
PA14_29060	28
PA14_29070	7
PA14_29090,potF4	5
PA14_29100	51
PA14_29110,cysK	262
PA14_29120	53
PA14_29130	422
PA14_29150	43
PA14_29160	294
PA14_29180	13
PA14_29190	29
PA14_29200	37
PA14_29210,tetV	6
PA14_29220,opdB	27
PA14_29230	61
PA14_29240	29
PA14_29250	8
PA14_29260	64
PA14_29270,yaiW	45
PA14_29280,trxA	20
PA14_29290	6
PA14_29300	32
PA14_29320	7
PA14_29330	238
PA14_29340	0
PA14_29350,pfeA	6
PA14_29360,pfeS	6
PA14_29390	255
PA14_29400,rhs	210
PA14_29410	28
PA14_29420,ysgA	44
PA14_29440	12
PA14_29460,qor	6
PA14_29470	52
PA14_29480,wzm	6
PA14_29490,hplR	18
PA14_29500,hplS	15
PA14_29510,hplT	3
PA14_29520,hplU	7
PA14_29530,hplV	1
PA14_29540,hplW	6
PA14_29550	6
PA14_29560	14
PA14_29570	6
PA14_29575	28
PA14_29590	552
PA14_29600,ptpS	12
PA14_29620,norR	19
PA14_29640,fhp	36
PA14_29650	22
PA14_29660	21
PA14_29680	23
PA14_29690	29
PA14_29710	282
PA14_29720	176
PA14_29730	106
PA14_29740	104
PA14_29750	3
PA14_29760	85
PA14_29770	20
PA14_29800	142
PA14_29820	170
PA14_29830	7
PA14_29850,nuoN	353
PA14_29860,nuoM	426
PA14_29880,nuoL	549
PA14_29890,nuoK	104
PA14_29900,nuoJ	135
PA14_29920,nuoI	234
PA14_29930,nuoH	666
PA14_29940,nuoG	1221
PA14_29970,nuoF	783
PA14_29980,nuoE	259
PA14_29990,nuoD	797
PA14_30010,nuoB	996
PA14_30020,nuoA	1074
PA14_30030	3
PA14_30040	179
PA14_30050,aceA	536
PA14_30070	158
PA14_30080	83
PA14_30090	139
PA14_30100	399
PA14_30110,purB	140
PA14_30130	14
PA14_30140	18
PA14_30150,mnmA	248
PA14_30160,mutT	7
PA14_30180,idh	528
PA14_30190,icd	3520
PA14_30200,cspD	161
PA14_30210,clpS	1140
PA14_30230,clpA	3379
PA14_30240,infA	102
PA14_30260,ate1	174
PA14_30270,aat	38
PA14_30280,trxB1	248
PA14_30290,ftsK	920
PA14_30310,lolA	298
PA14_30320,ycaJ	412
PA14_30330,serS	326
PA14_30340,cysG	219
PA14_30350,yqjG	62
PA14_30360	165
PA14_30370	61
PA14_30380	44
PA14_30390	39
PA14_30400,dsrE	30
PA14_30410,yccA	442
PA14_30420	32
PA14_30430	32
PA14_30440	15
PA14_30450	24
PA14_30460	9
PA14_30470	26
PA14_30490	13
PA14_30500	10
PA14_30520	8
PA14_30540	4
PA14_30550,ssuA	13
PA14_30560	30
PA14_30570,potF	608
PA14_30580	904
PA14_30590	27
PA14_30600	8
PA14_30620	618
PA14_30630,pqsH	522
PA14_30650,gacA	404
PA14_30660,uvrC	158
PA14_30670,pgsA	83
PA14_30680	219
PA14_30690	83
PA14_30700	668
PA14_30710	311
PA14_30720	307
PA14_30730	221
PA14_30740,mdaB	3
PA14_30750	71
PA14_30760	46
PA14_30770	27
PA14_30790	28
PA14_30800	96
PA14_30810,alkB1	38
PA14_30820	294
PA14_30830	350
PA14_30840	141
PA14_30850,trbI	8
PA14_30860,trbG	6
PA14_30870,trbF	2
PA14_30880,trbL	9
PA14_30890	0
PA14_30900,trbJ	9
PA14_30910,trbE	11
PA14_30930,trbC	0
PA14_30940,trbB	2
PA14_30950	2
PA14_30960,traG	5
PA14_30970,bphR	192
PA14_30980	54
PA14_30990	40
PA14_31000	28
PA14_31010	139
PA14_31030	50
PA14_31040	39
PA14_31050	516
PA14_31060	172
PA14_31070	5
PA14_31080	3
PA14_31090	1
PA14_31100	4
PA14_31110	2
PA14_31130	0
PA14_31150	56
PA14_31160	4
PA14_31170	0
PA14_31180	12
PA14_31190	10
PA14_31200	0
PA14_31220	3
PA14_31230	5
PA14_31240	142
PA14_31250	3
PA14_31260	0
PA14_31270	37
PA14_31280	40
PA14_31290,pa1L	81
PA14_31300	113
PA14_31310	60
PA14_31330	5
PA14_31340	0
PA14_31350	643
PA14_31360	192
PA14_31370,tam	293
PA14_31380,sfpA	3
PA14_31390	21
PA14_31400,ctpH	29
PA14_31420	53
PA14_31430	19
PA14_31440	109
PA14_31450	8
PA14_31460	38
PA14_31470	12
PA14_31480	12
PA14_31500	14
PA14_31510	15
PA14_31530	10
PA14_31540,acdA	22
PA14_31560	37
PA14_31580	22
PA14_31610	77
PA14_31620	78
PA14_31630	4
PA14_31640	4
PA14_31650,xthA	118
PA14_31660	61
PA14_31680	145
PA14_31690	130
PA14_31700,pgsA	40
PA14_31720	101
PA14_31730	41
PA14_31740	9
PA14_31750	40
PA14_31760,cdsA	78
PA14_31770	19
PA14_31780	27
PA14_31800	78
PA14_31810,tpx	112
PA14_31820,hisC	4
PA14_31840	37
PA14_31850	116
PA14_31870	30
PA14_31890	91
PA14_31900	90
PA14_31920,opmB	25
PA14_31930	1
PA14_31950,cztS	8
PA14_31960,czrR	12
PA14_31970,czcC	2
PA14_31990,czcB	0
PA14_32060,xylS	13
PA14_32080,xylX	3
PA14_32100,xylY	3
PA14_32110,xylZ	5
PA14_32130,benD	2
PA14_32140,antC	156
PA14_32150,antB	160
PA14_32160,antA	359
PA14_32190	35
PA14_32200,catR	2
PA14_32220,catB	4
PA14_32230,catC	9
PA14_32240,catA	4
PA14_32250	1
PA14_32270,oprD3	49
PA14_32280	178
PA14_32290	21
PA14_32300	17
PA14_32310	26
PA14_32330	16
PA14_32340	4
PA14_32350	6
PA14_32360	4
PA14_32370	2
PA14_32380,oprN	4
PA14_32390,mexF	50
PA14_32400,mexE	15
PA14_32410,mexT	51
PA14_32420	302
PA14_32440	1
PA14_32450	3
PA14_32460	9
PA14_32470	6
PA14_32480	26
PA14_32490	44
PA14_32500	30
PA14_32520	66
PA14_32530	14
PA14_32540	26
PA14_32570	10
PA14_32580	14
PA14_32590,dipZ2	26
PA14_32600	26
PA14_32610,dsbG	70
PA14_32630	48
PA14_32640	0
PA14_32650	0
PA14_32660	1
PA14_32670	1
PA14_32690,gtdA	3
PA14_32700	6
PA14_32710	7
PA14_32720	5
PA14_32740,optS	4
PA14_32750	3
PA14_32770	35
PA14_32780	59
PA14_32790	1531
PA14_32810	32
PA14_32820	58
PA14_32830	69
PA14_32840	18
PA14_32850	23
PA14_32860	17
PA14_32880	25
PA14_32890	9
PA14_32905	2
PA14_32930	21
PA14_32940	45
PA14_32950	72
PA14_32970	20
PA14_32985,gcvH2	23
PA14_33000,gcvP2	269
PA14_33010,glyA2	79
PA14_33030,sdaA	59
PA14_33040,gcvT2	41
PA14_33050	16
PA14_33060	12
PA14_33070	17
PA14_33080	10
PA14_33110	6
PA14_33120	43
PA14_33130	35
PA14_33150	15
PA14_33160	109
PA14_33170	7
PA14_33190	26
PA14_33200	5
PA14_33220	16
PA14_33230	3
PA14_33240	161
PA14_33250	7
PA14_33260,pvdS	2
PA14_33270,pvdG	0
PA14_33280,pvdL	12
PA14_33290	292
PA14_33300	288
PA14_33310	469
PA14_33320	352
PA14_33330	446
PA14_33340	487
PA14_33350	189
PA14_33360	14
PA14_33370	1
PA14_33380	3
PA14_33410,opdJ	1
PA14_33420	3
PA14_33430	2
PA14_33440	35
PA14_33450,treA	35
PA14_33460	35
PA14_33480,sndH	189
PA14_33500,pvdH	34
PA14_33510	0
PA14_33520	7
PA14_33530	2
PA14_33540	2
PA14_33550	1
PA14_33560	2
PA14_33570	2
PA14_33580	2
PA14_33590	2
PA14_33600	10
PA14_33610	161
PA14_33630,pvdJ	118
PA14_33650,pvdD	188
PA14_33680,fpvA	8
PA14_33690,pvdE	3
PA14_33700,pvdF	46
PA14_33710,pvdO	0
PA14_33720,pvdN	1
PA14_33730	7
PA14_33740,pvdP	7
PA14_33750,opmQ	2
PA14_33760	8
PA14_33770	5
PA14_33780	73
PA14_33800	18
PA14_33810,pvdA	4
PA14_33820,pvdQ	2
PA14_33830	3
PA14_33840	15
PA14_33860,lldA	10
PA14_33870	172
PA14_33880	17
PA14_33890,aldG	91
PA14_33900	215
PA14_33910	7
PA14_33920	9
PA14_33930	3
PA14_33940	21
PA14_33960	42
PA14_33970	54
PA14_33980	33
PA14_33990	141
PA14_34000	16
PA14_34010	96
PA14_34020	20
PA14_34030	145
PA14_34050	494
PA14_34070	88
PA14_34080	84
PA14_34100	99
PA14_34110	15
PA14_34130	109
PA14_34140	40
PA14_34150,sfnR	17
PA14_34170	1
PA14_34180,msuE	3
PA14_34190,msuD	3
PA14_34200,msuC	3
PA14_34210,sfnR	6
PA14_34230	22
PA14_34250	10
PA14_34260,metI-1	2
PA14_34270,metN-1	0
PA14_34280,metQ-l	3
PA14_34290	1
PA14_34300	0
PA14_34320	3
PA14_34330	71
PA14_34340,mtlZ	6
PA14_34350,mtlY	11
PA14_34360,mtlD	15
PA14_34370,mtlk	30
PA14_34390,mtlG	21
PA14_34410,mtlF	16
PA14_34420,mtlE	45
PA14_34440,mtlR	27
PA14_34450	3
PA14_34460	56
PA14_34490	39
PA14_34500	26
PA14_34510,srpL	22
PA14_34520,srpM	23
PA14_34540	14
PA14_34550	2
PA14_34580	2
PA14_34600,gapB	142
PA14_34610	0
PA14_34630,gnuT	7
PA14_34640,gntK	5
PA14_34660,gntR	37
PA14_34670	8
PA14_34680	14
PA14_34690	5
PA14_34700	1
PA14_34710	1
PA14_34720	10
PA14_34730	11
PA14_34740	3
PA14_34750,tauD	6
PA14_34770	13
PA14_34780	9
PA14_34790	23
PA14_34800	62
PA14_34810,mxaA	258
PA14_34820	126
PA14_34830	108
PA14_34840	516
PA14_34850	30
PA14_34870,chiC	974
PA14_34880	68
PA14_34900	70
PA14_34920	2
PA14_34930	1
PA14_34940	1
PA14_34960,opbA	203
PA14_34970,gcd	263
PA14_34990	50
PA14_35000	6
PA14_35010	2
PA14_35020	4
PA14_35030	2
PA14_35040	3
PA14_35050	1
PA14_35060	10
PA14_35070	37
PA14_35080,arsH	7
PA14_35100,arsC	8
PA14_35110,arsB	18
PA14_35130,arsR	4
PA14_35140	15
PA14_35150	7
PA14_35160	100
PA14_35170,soxR	19
PA14_35190,pbpC	92
PA14_35200	13
PA14_35210	14
PA14_35230	13
PA14_35240	3
PA14_35250	21
PA14_35270	16
PA14_35290,gnd	84
PA14_35300	44
PA14_35320,kguD	5
PA14_35330,kguT	15
PA14_35340,kguK	6
PA14_35360,kguE	5
PA14_35370,ptxS	39
PA14_35380,ptxR	10
PA14_35390,pvcD	0
PA14_35400,pvcC	3
PA14_35420,pvcB	1
PA14_35430,pvcA	2
PA14_35440,ansA	9
PA14_35460	3
PA14_35470	43
PA14_35490,lpdV	13
PA14_35500,bkdB	13
PA14_35520,bkdA2	16
PA14_35530,bkdA1	9
PA14_35540,bkdR	15
PA14_35550,pslO	0
PA14_35570,pslN	7
PA14_35590,pslM	2
PA14_35600,pslL	19
PA14_35620,pslK	4
PA14_35630,pslJ	12
PA14_35640,pslI	12
PA14_35650,pslH	5
PA14_35670,pslG	19
PA14_35680,pslF	5
PA14_35690,pslE	17
PA14_35700	109
PA14_35710	87
PA14_35720	222
PA14_35730	16
PA14_35740,tpnA	476
PA14_35750,tpnC	110
PA14_35760	1132
PA14_35770	658
PA14_35780	727
PA14_35790	1892
PA14_35800	559
PA14_35810	986
PA14_35820,tnpS	711
PA14_35830,tnpT	411
PA14_35840	1731
PA14_35850	924
PA14_35860	68
PA14_35880	55
PA14_35890	71
PA14_35900	20
PA14_35920	15
PA14_35930	0
PA14_35940	9
PA14_35950	2
PA14_35970	6
PA14_35980	1
PA14_35990	1
PA14_36000,prpR	77
PA14_36010	15
PA14_36020	118
PA14_36030	9
PA14_36050	2
PA14_36060	3
PA14_36070	8
PA14_36080,yfaV	1
PA14_36090,opdG	2
PA14_36100,pdxA	5
PA14_36110	2
PA14_36120	5
PA14_36130	6
PA14_36150	0
PA14_36170	2
PA14_36180	10
PA14_36190	1
PA14_36200	369
PA14_36220,gltJ	19
PA14_36230,glnP	7
PA14_36250	32
PA14_36260	27
PA14_36270	83
PA14_36280	12
PA14_36290,yncB	37
PA14_36300	101
PA14_36310,hcnC	545
PA14_36320,hcnB	662
PA14_36330,hcnA	89
PA14_36345,exoY	100
PA14_36350	9
PA14_36360	9
PA14_36370	7
PA14_36375	22
PA14_36390	9
PA14_36400	1
PA14_36410	22
PA14_36420	71
PA14_36450	26
PA14_36460	55
PA14_36470	34
PA14_36480	19
PA14_36490	30
PA14_36500	126
PA14_36520	278
PA14_36530	65
PA14_36540	8
PA14_36550	36
PA14_36560	199
PA14_36570,glgA	87
PA14_36580,glgB	80
PA14_36590,malQ	25
PA14_36605	60
PA14_36620	5
PA14_36630,glgX	113
PA14_36650	197
PA14_36660	52
PA14_36670	32
PA14_36680	12
PA14_36690,ybhO	19
PA14_36700	12
PA14_36710,glgB	89
PA14_36730	169
PA14_36740	130
PA14_36760	27
PA14_36770	17
PA14_36780	9
PA14_36790	12
PA14_36810,katE	192
PA14_36820	43
PA14_36830	17
PA14_36840,glgP	114
PA14_36850	10
PA14_36860	2
PA14_36870	23
PA14_36880	7
PA14_36890	0
PA14_36900	1
PA14_36910,ligD	22
PA14_36920	18
PA14_36930	2
PA14_36940	9
PA14_36960	9
PA14_36980	36
PA14_36990	2
PA14_37000,cupA5	0
PA14_37010,cupA4	1
PA14_37030,cupA3	5
PA14_37040,cupA2	0
PA14_37060,cupA1	15
PA14_37070	77
PA14_37080	29
PA14_37090,gbsA	5
PA14_37100	2
PA14_37120	10
PA14_37130	3
PA14_37140	7
PA14_37150	3
PA14_37170	16
PA14_37190,ada	18
PA14_37200	16
PA14_37210	5
PA14_37220	8
PA14_37250	4
PA14_37260,opdO	0
PA14_37270	0
PA14_37290	0
PA14_37310	1
PA14_37320	0
PA14_37340	23
PA14_37350	1
PA14_37360	1
PA14_37370	0
PA14_37380	1
PA14_37400	11
PA14_37410	9
PA14_37420	6
PA14_37430	13
PA14_37440	1
PA14_37460	6
PA14_37470	14
PA14_37490	29
PA14_37510	19
PA14_37520	11
PA14_37530	26
PA14_37550	8
PA14_37560,asnB	36
PA14_37570	42
PA14_37580,lrp	30
PA14_37590,kynB	17
PA14_37610	45
PA14_37630	12
PA14_37640	3
PA14_37650	1
PA14_37660	40
PA14_37670	86
PA14_37680	61
PA14_37690	183
PA14_37710,fusA2	408
PA14_37730	10
PA14_37745	994
PA14_37760	251
PA14_37770	111
PA14_37780	88
PA14_37790,pcoA	8
PA14_37810,pcoB	8
PA14_37820	27
PA14_37830,iscS	66
PA14_37840	6
PA14_37850,yejE	2
PA14_37870	2
PA14_37880	3
PA14_37900	11
PA14_37910	16
PA14_37915	1
PA14_37940,cynR	7
PA14_37950,cynT	2
PA14_37965,cynS	10
PA14_37980	7
PA14_37990	5
PA14_38000	6
PA14_38010	29
PA14_38020	7
PA14_38040	27
PA14_38050	4
PA14_38060	2
PA14_38080	67
PA14_38090	33
PA14_38110,ygjU	102
PA14_38130,ycjJ	14
PA14_38140	54
PA14_38160,azlC	7
PA14_38170	4
PA14_38180	145
PA14_38190	7
PA14_38200,ilvG	28
PA14_38210	3
PA14_38220	11
PA14_38250,yjiR	111
PA14_38260	25
PA14_38270	21
PA14_38290	6
PA14_38300,grp	14
PA14_38310	37
PA14_38320,yfeH	37
PA14_38330,gor	292
PA14_38340	23
PA14_38350,galU	658
PA14_38360,ugd	42
PA14_38370	2
PA14_38380,amrR	33
PA14_38395	4
PA14_38410,amrB	36
PA14_38420	22
PA14_38430,gnyR	58
PA14_38440,gnyD	77
PA14_38460,gnyB	30
PA14_38470,gnyH	9
PA14_38480,gnyA	61
PA14_38490,gnyL	33
PA14_38500	15
PA14_38510,hmgA	75
PA14_38530,fahA	65
PA14_38550,maiA	36
PA14_38560,pcaK	18
PA14_38570	29
PA14_38580	5
PA14_38590,bdhA	3
PA14_38610	15
PA14_38630,atoB	40
PA14_38640,scoB	17
PA14_38660,scoA	66
PA14_38680	15
PA14_38690,acsA	35
PA14_38700,ppiC1	36
PA14_38710	12
PA14_38720	31
PA14_38730,yhhS	8
PA14_38740	14
PA14_38750	13
PA14_38770	14
PA14_38780,pqqE	33
PA14_38790,pqqD	12
PA14_38800,pqqC	47
PA14_38820,pqqB	21
PA14_38825,pqqA	23
PA14_38840,exaC	17
PA14_38850,exaB	0
PA14_38860,exaA	4
PA14_38880	0
PA14_38900,exaE	2
PA14_38910,exaD	5
PA14_38920	1
PA14_38930,glpR	4
PA14_38950	1
PA14_38970	7
PA14_38990	5
PA14_39000	2
PA14_39010,pqqF	14
PA14_39020	8
PA14_39050,braZ	51
PA14_39060	1
PA14_39070	8
PA14_39080	20
PA14_39090	40
PA14_39100	4
PA14_39110	12
PA14_39130,ybiT	78
PA14_39140	18
PA14_39150,acpD	4
PA14_39160	28
PA14_39180	9
PA14_39190,bacA	24
PA14_39200	9
PA14_39210,nadR	5
PA14_39220	0
PA14_39230	0
PA14_39240	0
PA14_39250	2
PA14_39260	0
PA14_39270	51
PA14_39280,rbsK	28
PA14_39300,rbsR	43
PA14_39320,rbsC	35
PA14_39330,rbsA	18
PA14_39350,rbsB	70
PA14_39360	32
PA14_39390	182
PA14_39410	30
PA14_39420	49
PA14_39440	66
PA14_39460	92
PA14_39470	343
PA14_39480	728
PA14_39500	13
PA14_39520	45
PA14_39530	17
PA14_39540	15
PA14_39560	73
PA14_39570	2
PA14_39580,rimJ	5
PA14_39590,metE	277
PA14_39610	53
PA14_39620	0
PA14_39630	1
PA14_39640,cobN	4
PA14_39650,cirA	1
PA14_39660	5
PA14_39670	0
PA14_39690,nrdD	33
PA14_39700	4
PA14_39710,nrdG	5
PA14_39720	3
PA14_39730	0
PA14_39750	3
PA14_39770	65
PA14_39780,hvn	151
PA14_39790	96
PA14_39800	5
PA14_39810	1
PA14_39820,ufrA	4
PA14_39830	10
PA14_39850	1
PA14_39860	0
PA14_39870,apaH	8
PA14_39880,phzG2	519
PA14_39890,phzF2	738
PA14_39910,phzE2	2124
PA14_39925,phzD2	413
PA14_39945,phzC2	1039
PA14_39960,phzB2	6772
PA14_39970,phzA2	3155
PA14_39980,qscR	25
PA14_39990	76
PA14_40010	88
PA14_40020	96
PA14_40030	60
PA14_40040	46
PA14_40050	6
PA14_40060	0
PA14_40070	29
PA14_40080	39
PA14_40100	168
PA14_40110	67
PA14_40120,polB	58
PA14_40130	9
PA14_40150	3
PA14_40160,nuoA	1
PA14_40170,sugE	0
PA14_40180	22
PA14_40200	136
PA14_40210	0
PA14_40220	10
PA14_40230	54
PA14_40240	44
PA14_40250,opmL	73
PA14_40260	400
PA14_40270	25
PA14_40280	47
PA14_40290,lasA	1344
PA14_40300	43
PA14_40310	386
PA14_40320,xqhA	8
PA14_40330	0
PA14_40340	11
PA14_40350	44
PA14_40370	90
PA14_40380	124
PA14_40390,modA	202
PA14_40410,modB	125
PA14_40420,modC	138
PA14_40430	100
PA14_40440	22
PA14_40450,str	10
PA14_40470	114
PA14_40490,yedI	40
PA14_40510,ccoN-2	70
PA14_40520	1
PA14_40540	4
PA14_40550	36
PA14_40560	41
PA14_40570	61
PA14_40600	20
PA14_40610	1
PA14_40620	13
PA14_40630,yhgI	229
PA14_40640,cti	199
PA14_40650	2
PA14_40660	1
PA14_40670,metH	655
PA14_40690	106
PA14_40700	51
PA14_40710	28
PA14_40730	15
PA14_40740	62
PA14_40750	47
PA14_40770,cysI	362
PA14_40780	40
PA14_40790	17
PA14_40800	6
PA14_40820	15
PA14_40830,yhfP	290
PA14_40840,sohB	354
PA14_40850,gpmA	159
PA14_40860	134
PA14_40880	69
PA14_40890	108
PA14_40900	8
PA14_40910	9
PA14_40930	28
PA14_40940	2
PA14_40950,nudC	198
PA14_40960,fimL	434
PA14_40980	392
PA14_41000,nhaB	53
PA14_41010	83
PA14_41020,adi	214
PA14_41030	42
PA14_41050,dnaQ	142
PA14_41060,rnhA	189
PA14_41070	107
PA14_41080	75
PA14_41090,mltD	316
PA14_41110	107
PA14_41130	231
PA14_41140	106
PA14_41150	88
PA14_41160	110
PA14_41170,fabI	80
PA14_41190,ppiD	987
PA14_41200	102
PA14_41210,hupB	4716
PA14_41220,lon	2868
PA14_41230,clpX	4433
PA14_41240,clpP	1333
PA14_41250,tig	3125
PA14_41260	34
PA14_41270	44
PA14_41280	8
PA14_41290	3
PA14_41300	21
PA14_41320	17
PA14_41330	33
PA14_41340	23
PA14_41350,folD	28
PA14_41360,cysS	549
PA14_41380,glnS	676
PA14_41390,ppiB	274
PA14_41400	39
PA14_41420	83
PA14_41430,miaE	19
PA14_41440,uspA	277
PA14_41450	59
PA14_41470,acnB	1763
PA14_41480,nasS	3
PA14_41490,nasT	5
PA14_41500	77
PA14_41510,nasA	5
PA14_41520,ppkB	1
PA14_41530,nirB	14
PA14_41540,nirD	1
PA14_41560,nasA	3
PA14_41563,cobA	5
PA14_41570,oprF	15981
PA14_41575,sigX	3291
PA14_41590,cmpX	509
PA14_41610,crfX	205
PA14_41630,cmaX	322
PA14_41640,menG	160
PA14_41650,estX	28
PA14_41670,ppsA	2007
PA14_41680,ydiA	104
PA14_41690	123
PA14_41710	465
PA14_41730	420
PA14_41740	71
PA14_41750	14
PA14_41760	14
PA14_41780	47
PA14_41790	42
PA14_41800	300
PA14_41810	442
PA14_41820,pabB	69
PA14_41830,thrH	16
PA14_41840,cysH	117
PA14_41860	20
PA14_41870,cysB	321
PA14_41880	93
PA14_41900,panE	135
PA14_41910	50
PA14_41920,aroF-1	345
PA14_41930	503
PA14_41950	51
PA14_41960	0
PA14_41970	146
PA14_41980	32
PA14_41990	3
PA14_42000	0
PA14_42010	94
PA14_42020,arsC	35
PA14_42030	3
PA14_42050	5
PA14_42060	4
PA14_42080,fadB	86
PA14_42090	40
PA14_42100	34
PA14_42120	18
PA14_42130	97
PA14_42140	53
PA14_42150	56
PA14_42160	152
PA14_42180	144
PA14_42200	133
PA14_42220	187
PA14_42230,bglX	65
PA14_42250,pscL	7
PA14_42260,pscK	11
PA14_42270,pscJ	13
PA14_42280,pscI	13
PA14_42290,pscH	15
PA14_42300,pscG	3
PA14_42310,pscF	25
PA14_42320,pscE	18
PA14_42340,pscD	26
PA14_42350,pscC	67
PA14_42360,pscB	12
PA14_42380,exsD	132
PA14_42390,exsA	236
PA14_42400,exsB	135
PA14_42410	11
PA14_42430,exsC	165
PA14_42440,popD	277
PA14_42450,popB	591
PA14_42460,pcrH	53
PA14_42470,pcrV	142
PA14_42480,pcrG	28
PA14_42490,pcrR	5
PA14_42500,pcrD	48
PA14_42510,pcr4	3
PA14_42520,pcr3	3
PA14_42530,pcr2	2
PA14_42540,pcr1	7
PA14_42550,popN	23
PA14_42570,pscN	29
PA14_42580,pscO	8
PA14_42600,pscP	8
PA14_42610,pscQ	6
PA14_42620,pscR	9
PA14_42630,pscS	4
PA14_42640,pscT	7
PA14_42660,pscU	5
PA14_42670	333
PA14_42680	157
PA14_42690,speE	114
PA14_42700,alkA	12
PA14_42710	28
PA14_42720,masA	94
PA14_42730	88
PA14_42740	79
PA14_42750	40
PA14_42760,aroC	194
PA14_42770	17
PA14_42780	48
PA14_42790	95
PA14_42820	53
PA14_42830	8
PA14_42840	53
PA14_42850,folE	140
PA14_42860	532
PA14_42870	68
PA14_42880,stk1	68
PA14_42890,stp1	120
PA14_42900	1531
PA14_42910	428
PA14_42920	565
PA14_42940	423
PA14_42950	394
PA14_42960	52
PA14_42970	419
PA14_42980	714
PA14_42990	643
PA14_43000	1059
PA14_43020	378
PA14_43030	4229
PA14_43040	1386
PA14_43050	3254
PA14_43070,hcpD	136
PA14_43080	78
PA14_43090	32
PA14_43100	401
PA14_43110	92
PA14_43130	121
PA14_43140	5
PA14_43150	25
PA14_43160,benE	23
PA14_43170	15
PA14_43180	9
PA14_43190	36
PA14_43200	20
PA14_43220	38
PA14_43230	9
PA14_43240	18
PA14_43250	28
PA14_43270,ybbB	144
PA14_43280,selD	165
PA14_43290	37
PA14_43300	71
PA14_43310	27
PA14_43320,glsA	30
PA14_43340,kdpE	11
PA14_43350,kdpD	35
PA14_43370,kdpC	2
PA14_43380,kdpB	47
PA14_43400,kdpA	58
PA14_43405,kdbF	2
PA14_43420	62
PA14_43430	47
PA14_43440	3
PA14_43460,paaH	10
PA14_43480	9
PA14_43490	7
PA14_43510	55
PA14_43520	54
PA14_43530	189
PA14_43540	22
PA14_43550	21
PA14_43570	1
PA14_43580	3
PA14_43600	21
PA14_43610	47
PA14_43620,sixA	38
PA14_43630	34
PA14_43640,gpsA	216
PA14_43650	63
PA14_43660	21
PA14_43670	185
PA14_43680,fabA	274
PA14_43690,fabB	637
PA14_43710	68
PA14_43720	21
PA14_43730	79
PA14_43740	62
PA14_43760	73
PA14_43770	5
PA14_43780	13
PA14_43790	17
PA14_43810	9
PA14_43820	21
PA14_43830,panB	4
PA14_43840	144
PA14_43850,htpG	2393
PA14_43870	25
PA14_43880	27
PA14_43890	6
PA14_43900	126
PA14_43910	18
PA14_43920,braB	89
PA14_43940,sucD	1324
PA14_43950,sucC	2274
PA14_43970,lpdG	2053
PA14_44000,sucB	1204
PA14_44010,sucA	3658
PA14_44020,sdhB	1318
PA14_44030,sdhA	2704
PA14_44050,sdhD	348
PA14_44060,sdhC	243
PA14_44070,gltA	741
PA14_44080	385
PA14_44090	4
PA14_44100	19
PA14_44110	9
PA14_44120	120
PA14_44130	11
PA14_44140,yaiE	17
PA14_44150,yijF	43
PA14_44160	104
PA14_44170	10
PA14_44180	12
PA14_44190	0
PA14_44200	1
PA14_44210	12
PA14_44230	0
PA14_44240	2
PA14_44260	8
PA14_44270	21
PA14_44280,ygdE	64
PA14_44290,acnA	1683
PA14_44300,aer	224
PA14_44311	39
PA14_44320	8
PA14_44340,ccoN	1048
PA14_44350,ccoO	1105
PA14_44360,ccoP	712
PA14_44370,ccoN	886
PA14_44380,ccoO	853
PA14_44390	170
PA14_44400,ccoP	404
PA14_44420,fixG	1554
PA14_44430	263
PA14_44440,fixI	131
PA14_44450,fixS	43
PA14_44460	10
PA14_44470,hemN	684
PA14_44480	128
PA14_44490,anr	761
PA14_44500,apt	71
PA14_44510	12
PA14_44520,ydgF	4
PA14_44530,ygdE	5
PA14_44540	21
PA14_44560	15
PA14_44570	8
PA14_44580	3
PA14_44590	43
PA14_44610,recR	53
PA14_44620	112
PA14_44630,dnaX	239
PA14_44640	31
PA14_44650	112
PA14_44660,ligA	353
PA14_44670,zipA	759
PA14_44680,smc	457
PA14_44690	105
PA14_44700,alkB2	13
PA14_44710,xdhA	43
PA14_44740,xdhB	63
PA14_44760	22
PA14_44770,gda1	36
PA14_44780	50
PA14_44800	3
PA14_44820	7
PA14_44830	46
PA14_44840	19
PA14_44850,alc	40
PA14_44860,allA	34
PA14_44880	29
PA14_44890,hcpA	278
PA14_44900	628
PA14_44910	1084
PA14_44920	1016
PA14_44930	123
PA14_44950,ygfU	35
PA14_44960	5
PA14_44970,moaA2	192
PA14_44980	33
PA14_44990	2
PA14_45000,gcl	5
PA14_45010,hyi	5
PA14_45020,glxR	5
PA14_45030,ttuD	2
PA14_45050,pykF	4
PA14_45060	1
PA14_45070	26
PA14_45090	3
PA14_45100,muiA	72
PA14_45110,cysP	198
PA14_45120	6
PA14_45130	3
PA14_45150	10
PA14_45170	9
PA14_45180	10
PA14_45190	8
PA14_45210	0
PA14_45240	2
PA14_45250	30
PA14_45260	32
PA14_45280,cycH	159
PA14_45290,ccmH	135
PA14_45300,ccmG	243
PA14_45310,ccmF	524
PA14_45330,ccmE	128
PA14_45340	66
PA14_45350,ccmC	499
PA14_45370,ccmB	115
PA14_45380,ccmA	25
PA14_45400	116
PA14_45410	9
PA14_45430	18
PA14_45440	21
PA14_45450	9
PA14_45460	10
PA14_45470	7
PA14_45480	26
PA14_45500,cheW	596
PA14_45510	266
PA14_45520	205
PA14_45540,motD	113
PA14_45560,motC	182
PA14_45580,cheB	145
PA14_45590,cheA	574
PA14_45610,cheZ	638
PA14_45620,cheY	542
PA14_45630,fliA	628
PA14_45640,fleN	370
PA14_45660,flhF	268
PA14_45680,flhA	448
PA14_45700	35
PA14_45710	87
PA14_45720,flhB	59
PA14_45740,fliR	91
PA14_45760,fliQ	87
PA14_45770,fliP	168
PA14_45780,fliO	21
PA14_45790,fliN	128
PA14_45800,fliM	320
PA14_45810,fliL	179
PA14_45830	63
PA14_45840	258
PA14_45850	19
PA14_45870	31
PA14_45880	42
PA14_45890	16
PA14_45910	5
PA14_45920	17
PA14_45930	33
PA14_45940,lasI	1167
PA14_45950,rsaL	1739
PA14_45960,lasR	1185
PA14_45970	208
PA14_45980,yjaB	8
PA14_46000	2
PA14_46010	7
PA14_46020	11
PA14_46030	38
PA14_46060,gbuR	24
PA14_46070,gbuA	7
PA14_46080	1
PA14_46100	1
PA14_46110	5
PA14_46120,ilvG	1
PA14_46140	6
PA14_46150	24
PA14_46160	474
PA14_46170,yneJ	9
PA14_46180,yjiJ	0
PA14_46200	9
PA14_46220,potF	21
PA14_46230,aphA	35
PA14_46240	70
PA14_46250	14
PA14_46260	20
PA14_46270	39
PA14_46280	28
PA14_46290	14
PA14_46300	8
PA14_46310	15
PA14_46320,pyc	15
PA14_46330	1
PA14_46340	16
PA14_46360	24
PA14_46370	20
PA14_46380	12
PA14_46390	1
PA14_46400,yqhC	14
PA14_46420	6
PA14_46430	33
PA14_46440	19
PA14_46450,aceK	130
PA14_46460	251
PA14_46470,pdxB	10
PA14_46480	2
PA14_46490,fabF2	5
PA14_46510	722
PA14_46520	763
PA14_46530	319
PA14_46540	786
PA14_46550	322
PA14_46560	3
PA14_46570	195
PA14_46580	2
PA14_46590	11
PA14_46600	1
PA14_46610	26
PA14_46620	104
PA14_46630	22
PA14_46640	4
PA14_46650	7
PA14_46660	6
PA14_46670	7
PA14_46680,norM	28
PA14_46700,ybiF	3
PA14_46710	19
PA14_46720	28
PA14_46740	21
PA14_46750	21
PA14_46760	12
PA14_46770	13
PA14_46780	5
PA14_46800	4
PA14_46810	11
PA14_46820	69
PA14_46830	14
PA14_46840	93
PA14_46850	13
PA14_46860	12
PA14_46880	22
PA14_46890	146
PA14_46900	6
PA14_46910,ybeJ	647
PA14_46920	132
PA14_46930	110
PA14_46950	228
PA14_46960,ggt	106
PA14_46970,ansB	241
PA14_46980	26
PA14_46990	25
PA14_47000	2
PA14_47010	4
PA14_47030	4
PA14_47040,yegH	40
PA14_47060	15
PA14_47070	0
PA14_47080	13
PA14_47090	190
PA14_47100,ilvA2	51
PA14_47110,yybH	17
PA14_47120	357
PA14_47130	325
PA14_47140,pfuA	3
PA14_47150,cyoE	35
PA14_47160,cyoD	143
PA14_47180,cyoC	100
PA14_47190,cyoB	382
PA14_47210,cyoA	161
PA14_47230	7
PA14_47240	22
PA14_47250	11
PA14_47260	6
PA14_47270	7
PA14_47280,phnX	3
PA14_47300,phnW	13
PA14_47310,phnR	21
PA14_47320	87
PA14_47330,yafJ	117
PA14_47340	37
PA14_47350	70
PA14_47360	83
PA14_47370	8
PA14_47380,hxuC	3
PA14_47390	1
PA14_47400	1
PA14_47410,ycgN	8
PA14_47420	4
PA14_47430,czcD	7
PA14_47440	46
PA14_47450,ycgL	115
PA14_47460,rnd	118
PA14_47490	97
PA14_47500,sseA	48
PA14_47510	12
PA14_47520	34
PA14_47530	26
PA14_47540,ompP1	395
PA14_47550	144
PA14_47560	6
PA14_47580	22
PA14_47600	7
PA14_47610	14
PA14_47640	1
PA14_47650,cobS	4
PA14_47660,cobC	10
PA14_47670,cobT	13
PA14_47680,cobU	16
PA14_47690,cobQ	35
PA14_47720,cobC	10
PA14_47730,cobD	13
PA14_47750	13
PA14_47760,cobB	31
PA14_47790,cobO	58
PA14_47800,btuB	246
PA14_47810	7
PA14_47820	38
PA14_47840	0
PA14_47850	2
PA14_47860	0
PA14_47870	1
PA14_47880	3
PA14_47890	37
PA14_47900	1
PA14_47910	3
PA14_47920	4
PA14_47930	0
PA14_47940	1
PA14_47950	2
PA14_47960	3
PA14_47970	0
PA14_48000	0
PA14_48010	2
PA14_48020	35
PA14_48030	1
PA14_48040,aprI	100
PA14_48060,aprA	2114
PA14_48090,aprF	369
PA14_48100,aprE	211
PA14_48115,aprD	117
PA14_48140,aprX	316
PA14_48150	6
PA14_48160	86
PA14_48170	20
PA14_48190	11
PA14_48200	8
PA14_48210	5
PA14_48230	0
PA14_48240	0
PA14_48280	2
PA14_48300	4
PA14_48310	10
PA14_48320	19
PA14_48330	0
PA14_48340	2
PA14_48350	1
PA14_48380	0
PA14_48390,yeaM	7
PA14_48400	0
PA14_48410	10
PA14_48420	8
PA14_48440	6
PA14_48450	19
PA14_48460	19
PA14_48470	6
PA14_48490	9
PA14_48500	13
PA14_48510	7
PA14_48520,mltA	128
PA14_48530	74
PA14_48540	34
PA14_48550	33
PA14_48560	223
PA14_48570	260
PA14_48590	226
PA14_48600	56
PA14_48610	49
PA14_48620	39
PA14_48630	49
PA14_48640	12
PA14_48650,yhhW	16
PA14_48660	17
PA14_48680	41
PA14_48700,kefB	101
PA14_48710	27
PA14_48730	70
PA14_48740,yieF	83
PA14_48750	18
PA14_48760,ycaC	69
PA14_48770	21
PA14_48780	77
PA14_48790	103
PA14_48800	1835
PA14_48810	70
PA14_48830	57
PA14_48840	2
PA14_48850	14
PA14_48860	75
PA14_48870,ydaO	173
PA14_48880,intT	132
PA14_48890	25
PA14_48900	0
PA14_48910	5
PA14_48920	1
PA14_48930	4
PA14_48940,coaB	6
PA14_48950	44
PA14_48960	1
PA14_48970	5
PA14_48980	2
PA14_48990	2
PA14_49000	3
PA14_49010	5
PA14_49020	50
PA14_49030	532
PA14_49040	37
PA14_49050,yohC	42
PA14_49060	7
PA14_49070	31
PA14_49080,lcaD	27
PA14_49090	6
PA14_49100,yfcG	2
PA14_49110	25
PA14_49130,dctA	135
PA14_49150	10
PA14_49160,yegE	203
PA14_49170,phoQ	84
PA14_49180,phoP	112
PA14_49200,oprH	312
PA14_49210,napE	121
PA14_49220,napF	69
PA14_49230,napD	171
PA14_49250,napA	848
PA14_49260,napB	121
PA14_49270,napc	56
PA14_49280	44
PA14_49290	15
PA14_49300	226
PA14_49310	168
PA14_49320	50
PA14_49330	62
PA14_49340,pcpS	19
PA14_49350	31
PA14_49360	82
PA14_49380,dapE	38
PA14_49390,rrmA	17
PA14_49400	12
PA14_49410	42
PA14_49420	42
PA14_49440	21
PA14_49460,nrdA	2124
PA14_49470,nrdB	729
PA14_49480	534
PA14_49500	35
PA14_49510,pyoS3I	309
PA14_49520,pyoS3A	770
PA14_49530	11
PA14_49540	74
PA14_49560,toxA	6
PA14_49570	1
PA14_49580	0
PA14_49590	25
PA14_49610	1
PA14_49620	1
PA14_49630	17
PA14_49640	12
PA14_49650,ylbA	37
PA14_49660	20
PA14_49680	9
PA14_49690	4
PA14_49700	8
PA14_49710,yedU	34
PA14_49720	5
PA14_49730	2
PA14_49740	97
PA14_49750	153
PA14_49760,rhlC	74
PA14_49780	5
PA14_49790	22
PA14_49800,gsp69	440
PA14_49810	92
PA14_49820,cobB	18
PA14_49840,dgt	160
PA14_49850	56
PA14_49860	90
PA14_49870	89
PA14_49880	56
PA14_49890,tpbB	108
PA14_49900	73
PA14_49910	491
PA14_49920	30
PA14_49930	54
PA14_49940	138
PA14_49960	43
PA14_49970	33
PA14_49990	45
PA14_50000	32
PA14_50010,yliI	37
PA14_50020	26
PA14_50030	30
PA14_50040	13
PA14_50050	0
PA14_50060	75
PA14_50070	297
PA14_50080,fliJ	49
PA14_50100,fliI	102
PA14_50110,fliH	181
PA14_50130,fliG	217
PA14_50140,fliF	364
PA14_50160,fliE	103
PA14_50180,fleR	107
PA14_50200,fleS	119
PA14_50220,fleQ	662
PA14_50240	109
PA14_50250,fliS	460
PA14_50270,fliD	1636
PA14_50280,flaG	492
PA14_50290,fliC	2988
PA14_50300	365
PA14_50310	79
PA14_50320	107
PA14_50330	201
PA14_50340,flgL	293
PA14_50360,flgK	333
PA14_50380,flgJ	78
PA14_50410,flgI	132
PA14_50420,flgH	102
PA14_50430,flgG	119
PA14_50440,flgF	69
PA14_50450,flgE	251
PA14_50460,flgD	114
PA14_50470,flgC	37
PA14_50480,flgB	31
PA14_50500	38
PA14_50510	13
PA14_50520,braC	523
PA14_50530,braD	84
PA14_50540,livM	110
PA14_50550,livG	56
PA14_50560,braG	117
PA14_50570	659
PA14_50590	114
PA14_50600	9
PA14_50610	20
PA14_50620	51
PA14_50630	102
PA14_50640	19
PA14_50650	33
PA14_50660	56
PA14_50670	39
PA14_50680,phaG	46
PA14_50690,phaF	29
PA14_50700,phaE	66
PA14_50710,phaD	80
PA14_50720,phaC	17
PA14_50730,phaA	163
PA14_50740	140
PA14_50750	20
PA14_50760	5
PA14_50770	12
PA14_50790,yeaG	34
PA14_50800,pdxH	44
PA14_50810	451
PA14_50820	162
PA14_50830	53
PA14_50840,dinG	131
PA14_50850	11
PA14_50860	37
PA14_50870	61
PA14_50880	287
PA14_50890	22
PA14_50900	42
PA14_50910	19
PA14_50920	7
PA14_50930	41
PA14_50940	84
PA14_50950	15
PA14_50970,yfcG	50
PA14_50980,pac	256
PA14_51000,yigN	186
PA14_51010	109
PA14_51020	55
PA14_51040	14
PA14_51050,pcd	37
PA14_51060	18
PA14_51070,opdD	5
PA14_51080	11
PA14_51090	15
PA14_51100	25
PA14_51110	5
PA14_51120	11
PA14_51150,mucK	5
PA14_51160	5
PA14_51170,pauA	22
PA14_51190	21
PA14_51200	17
PA14_51205	15
PA14_51220	325
PA14_51230	67
PA14_51240,purC	424
PA14_51250,yycJ	182
PA14_51260	483
PA14_51270,dapA	329
PA14_51280	68
PA14_51290,bcp	61
PA14_51300,perM	99
PA14_51310,yrkI	44
PA14_51320	217
PA14_51330,nadA	168
PA14_51340,mvfR	263
PA14_51350,phnB	141
PA14_51360,phnA	723
PA14_51380,pqsE	455
PA14_51390,pqsD	785
PA14_51410,pqsC	1141
PA14_51420,pqsB	1142
PA14_51430,pqsA	861
PA14_51440,ogt	51
PA14_51450,cupC3	116
PA14_51460,cupC2	11
PA14_51470,cupC1	30
PA14_51480	101
PA14_51490	30
PA14_51500	5
PA14_51510	126
PA14_51520,spcU	233
PA14_51530,exoU	1343
PA14_51540	43
PA14_51550	85
PA14_51560	131
PA14_51570	132
PA14_51580	41
PA14_51590	143
PA14_51600	127
PA14_51610	57
PA14_51620	182
PA14_51630	67
PA14_51640	35
PA14_51650	49
PA14_51660	29
PA14_51670	44
PA14_51680	33
PA14_51690	179
PA14_51710,oprL	1010
PA14_51720,tolB	786
PA14_51730,tolA	528
PA14_51740,tolR	356
PA14_51750,tolQ	493
PA14_51770,ybgC	181
PA14_51780,ruvB	251
PA14_51790,ruvA	259
PA14_51800,ruvC	51
PA14_51810,yebC	876
PA14_51820,aspS	1220
PA14_51830	645
PA14_51840	33
PA14_51850	8
PA14_51860	339
PA14_51880,oprD	3136
PA14_51890	10
PA14_51900,proS	667
PA14_51910	253
PA14_51920	36
PA14_51930,helX	74
PA14_51940	35
PA14_51950	32
PA14_51960,rbn	171
PA14_51980	79
PA14_51990,wrbA	101
PA14_52000	27
PA14_52010	161
PA14_52020	252
PA14_52040,purM	184
PA14_52050,purN	133
PA14_52060	434
PA14_52070	200
PA14_52080	21
PA14_52090	16
PA14_52110	5
PA14_52120	10
PA14_52130	1027
PA14_52140,yaiL	295
PA14_52150,lpxO2	272
PA14_52160,mazG	149
PA14_52180,relA	876
PA14_52190,rumA	245
PA14_52210,cysM	107
PA14_52230,pirA	20
PA14_52240,pirS	35
PA14_52250,pirR	6
PA14_52260,lemA	130
PA14_52270,ldhA	50
PA14_52280	27
PA14_52290	15
PA14_52300	19
PA14_52310,dinP	32
PA14_52320	287
PA14_52330	43
PA14_52340	11
PA14_52350	74
PA14_52370	99
PA14_52380	89
PA14_52400,kup	234
PA14_52420,rimO	81
PA14_52430,yehS	16
PA14_52440	0
PA14_52460,mgtE	163
PA14_52465	14
PA14_52480	51
PA14_52490	43
PA14_52500	8
PA14_52510	8
PA14_52520	52
PA14_52530	65
PA14_52540	25
PA14_52550	58
PA14_52560	353
PA14_52570,rsmA	197
PA14_52580,lysC	251
PA14_52600,alaS	543
PA14_52610	49
PA14_52630,aruE	186
PA14_52640	62
PA14_52660,aruB	250
PA14_52670,astD	98
PA14_52690,aruG	92
PA14_52700,aruF	159
PA14_52720,argD	281
PA14_52730	6
PA14_52740,argR	97
PA14_52750,aotP	92
PA14_52760,aotO	143
PA14_52770,aotM	170
PA14_52780,aotQ	120
PA14_52790,aotJ	452
PA14_52800,acsA	235
PA14_52810,dctM	4
PA14_52820,dctQ	9
PA14_52840,dctP	7
PA14_52850	0
PA14_52870	3
PA14_52880	2
PA14_52890	1
PA14_52900	6
PA14_52910	1
PA14_52920	5
PA14_52930	41
PA14_52940	7
PA14_52960	31
PA14_52980,phhR	45
PA14_52990,phhA	139
PA14_53000,phhB	90
PA14_53010,phhC	111
PA14_53020,pbpG	45
PA14_53030,yaeJ	15
PA14_53040	134
PA14_53050,aroP2	18
PA14_53070,hpd	509
PA14_53090	10
PA14_53100	2
PA14_53110	9
PA14_53120	161
PA14_53140	285
PA14_53150	112
PA14_53160	68
PA14_53180	515
PA14_53190,bolA	87
PA14_53200	372
PA14_53210	62
PA14_53220,fumC2	234
PA14_53230	67
PA14_53250,cpbD	1668
PA14_53260	18
PA14_53270	5
PA14_53290,trxB2	150
PA14_53300	162
PA14_53310	48
PA14_53330	78
PA14_53340	11
PA14_53360,plcH	17
PA14_53370,plcR	17
PA14_53380	28
PA14_53390	4
PA14_53400	12
PA14_53410	5
PA14_53420,btuE	385
PA14_53430,slyD	238
PA14_53450	28
PA14_53470,ackA	101
PA14_53480,pta	292
PA14_53490	38
PA14_53500	100
PA14_53510,ycbL	23
PA14_53520,oruR	24
PA14_53530	77
PA14_53540	7
PA14_53550	9
PA14_53560	24
PA14_53570	40
PA14_53580	32
PA14_53590	515
PA14_53600	90
PA14_53610	60
PA14_53620	5
PA14_53630	8
PA14_53640	2
PA14_53650	18
PA14_53660	82
PA14_53670	244
PA14_53680	2
PA14_53690	2
PA14_53700	8
PA14_53720	5
PA14_53730	85
PA14_53740	0
PA14_53750	10
PA14_53770	7
PA14_53780	33
PA14_53790	28
PA14_53800,mntH2	6
PA14_53810	23
PA14_53820	356
PA14_53830	3
PA14_53840	96
PA14_53850	63
PA14_53860	18
PA14_53870	0
PA14_53880	4
PA14_53890	0
PA14_53900	35
PA14_53910,pmtA	23
PA14_53920	26
PA14_53940,prpB	101
PA14_53950,prpC	196
PA14_53970	90
PA14_53980	19
PA14_54000,prpD	59
PA14_54010	11
PA14_54030	1
PA14_54040	57
PA14_54050	44
PA14_54070	20
PA14_54080	104
PA14_54090	8
PA14_54110	3
PA14_54120	1
PA14_54130	22
PA14_54150,putP	78
PA14_54170,putA	137
PA14_54180	9
PA14_54190,pruR	23
PA14_54210	956
PA14_54220,icp	40
PA14_54230	10
PA14_54240	37
PA14_54260,yecO	38
PA14_54270,yecP	43
PA14_54290,pdxJ	71
PA14_54300,recO	89
PA14_54320,era	237
PA14_54330,rnc	117
PA14_54340	247
PA14_54350,lepB	429
PA14_54370,lepA	600
PA14_54390,mucD	1311
PA14_54400,mucC	196
PA14_54410,mucB	293
PA14_54420,mucA	520
PA14_54430,algU	1975
PA14_54450,nadB	196
PA14_54460	45
PA14_54470	59
PA14_54480	109
PA14_54490	83
PA14_54500	29
PA14_54510	17
PA14_54520,opdH	11
PA14_54540	21
PA14_54550	5
PA14_54570	16
PA14_54580	3
PA14_54590,ung	156
PA14_54600	19
PA14_54610	10
PA14_54620	125
PA14_54630	65
PA14_54640	74
PA14_54660	100
PA14_54670	97
PA14_54680	10
PA14_54690,ywnB	7
PA14_54700,yjcS	10
PA14_54710	5
PA14_54720	2
PA14_54730	6
PA14_54740	8
PA14_54750	12
PA14_54760	64
PA14_54770	38
PA14_54790	7
PA14_54800,rsuA	8
PA14_54810	118
PA14_54820	73
PA14_54830	167
PA14_54840	147
PA14_54850	11
PA14_54860	22
PA14_54870	55
PA14_54880	71
PA14_54890	91
PA14_54900	56
PA14_54910	26
PA14_54920	131
PA14_54930	53
PA14_54940	70
PA14_54950	43
PA14_54960	30
PA14_54970	25
PA14_54980	18
PA14_55000	15
PA14_55020	9
PA14_55030	6
PA14_55040	2
PA14_55050	97
PA14_55060	25
PA14_55070	69
PA14_55080	399
PA14_55090	112
PA14_55100	41
PA14_55110	173
PA14_55117	11
PA14_55130,gloA2	3
PA14_55140	9
PA14_55150	5
PA14_55160,toxR	1
PA14_55170,cat	61
PA14_55180,migA	134
PA14_55200	59
PA14_55220	8
PA14_55230	1
PA14_55240	3
PA14_55250	24
PA14_55260	18
PA14_55280	38
PA14_55290	10
PA14_55300	55
PA14_55320	65
PA14_55330	20
PA14_55340,exbD2	13
PA14_55360,exbB2	55
PA14_55380	74
PA14_55390	142
PA14_55400	201
PA14_55410	32
PA14_55430,hxcS	1
PA14_55440,hxcR	9
PA14_55450,hxcQ	11
PA14_55460,hxcZ	2
PA14_55470,hxcY	1
PA14_55480,hxcX	7
PA14_55490,hxcT	2
PA14_55500,hxcV	0
PA14_55510,hxcP	5
PA14_55520,hxcU	1
PA14_55530,hxcW	14
PA14_55540	37
PA14_55550	25
PA14_55560,pigC	29
PA14_55570,pigB	16
PA14_55580,nemO	0
PA14_55590	1
PA14_55600	11
PA14_55610,dnaE2	25
PA14_55620,5S-rRNA	3747
PA14_55631,23S-rRNA	266906
PA14_55634	31
PA14_55635	16
PA14_55637,16S-rRNA	41642
PA14_55640,sbcD	63
PA14_55650,sbcC	110
PA14_55660,recD	64
PA14_55670,recB	156
PA14_55690,recC	163
PA14_55710	29
PA14_55720	3
PA14_55730	9
PA14_55740,chrA	7
PA14_55750	27
PA14_55760	129
PA14_55770,pitA	86
PA14_55780	94
PA14_55790	84
PA14_55800	11
PA14_55810	640
PA14_55820	58
PA14_55840	23
PA14_55850	22
PA14_55860	98
PA14_55880	39
PA14_55890,cpaF2	45
PA14_55900	50
PA14_55920	189
PA14_55930	76
PA14_55940	280
PA14_55960,pctC	88
PA14_55980,yjgR	156
PA14_56000,pctA	143
PA14_56010,pctB	243
PA14_56030	202
PA14_56040	81
PA14_56050	132
PA14_56060,purU	240
PA14_56070,mvaT	1159
PA14_56080,sbcB	189
PA14_56090	115
PA14_56100	32
PA14_56110	40
PA14_56130	74
PA14_56140	26
PA14_56160,moxR	53
PA14_56170	31
PA14_56180	313
PA14_56190	34
PA14_56200	47
PA14_56210	51
PA14_56220	214
PA14_56240,pykA	242
PA14_56250	28
PA14_56260	35
PA14_56280	159
PA14_56300,fumA	377
PA14_56340,mntH1	56
PA14_56360	84
PA14_56370	40
PA14_56380	11
PA14_56390	94
PA14_56410	32
PA14_56420	60
PA14_56430	10
PA14_56450	13
PA14_56470	7
PA14_56480	19
PA14_56510	138
PA14_56520	3
PA14_56530	22
PA14_56540	387
PA14_56550	40
PA14_56560	91
PA14_56570	31
PA14_56590	806
PA14_56600	22
PA14_56620	12
PA14_56640	14
PA14_56660	29
PA14_56670	0
PA14_56680,feoB	59
PA14_56690,feoA	0
PA14_56700	30
PA14_56720	50
PA14_56730	34
PA14_56740,iciA	11
PA14_56750	0
PA14_56770	0
PA14_56780,sodB	2208
PA14_56790	186
PA14_56800	82
PA14_56810	159
PA14_56830,icmP	79
PA14_56840	28
PA14_56850	36
PA14_56870	34
PA14_56880	86
PA14_56890	213
PA14_56900,pncB2	85
PA14_56910	45
PA14_56920,inaA	333
PA14_56930	212
PA14_56940,colS	62
PA14_56950,colR	81
PA14_56960	9
PA14_56970	31
PA14_56980,crcB	59
PA14_56990	99
PA14_57010,groEL	7724
PA14_57020,groES	1421
PA14_57030,fxsA	230
PA14_57040	32
PA14_57050,fabG	174
PA14_57060	163
PA14_57070	59
PA14_57080	13
PA14_57100,ampG	173
PA14_57110	319
PA14_57130	464
PA14_57140	21
PA14_57160,apbA	22
PA14_57170	143
PA14_57180	52
PA14_57190,mutT	118
PA14_57200	149
PA14_57210,argJ	490
PA14_57220,secA	1897
PA14_57240	145
PA14_57250	38
PA14_57260,lpxC	1775
PA14_57275,ftsZ	2799
PA14_57290,ftsA	813
PA14_57300,ftsQ	317
PA14_57320,ddl	328
PA14_57330,murC	668
PA14_57340,murG	310
PA14_57360,ftsW	647
PA14_57370,murD	780
PA14_57380,mraY	1012
PA14_57390,murF	517
PA14_57410,murE	462
PA14_57425,ftsI	1369
PA14_57440,ftsL	367
PA14_57450,mraW	737
PA14_57460	674
PA14_57470	45
PA14_57480	189
PA14_57490	103
PA14_57500,gmhA	211
PA14_57510	147
PA14_57520,sspB	71
PA14_57530,sspA	242
PA14_57540	1693
PA14_57560	2349
PA14_57570	611
PA14_57580,rpsI	1145
PA14_57590,rplM	2367
PA14_57600	207
PA14_57630	14
PA14_57640	2
PA14_57650	141
PA14_57670,trpS	206
PA14_57680	52
PA14_57690	71
PA14_57710,cysN	948
PA14_57720,cysD	515
PA14_57730,mltB1	149
PA14_57740	54
PA14_57760,algW	118
PA14_57770,hisC1	197
PA14_57780,hisD	215
PA14_57800,hisG	343
PA14_57810,murA	1323
PA14_57820	75
PA14_57830	8
PA14_57840,ttg2D	362
PA14_57850	215
PA14_57870	178
PA14_57880	211
PA14_57890,yrbH	286
PA14_57900	99
PA14_57910	200
PA14_57920	301
PA14_57930	309
PA14_57940,rpoN	659
PA14_57950	2281
PA14_57960,ptsN	791
PA14_57970	559
PA14_57980	86
PA14_57990	9
PA14_58000,sodM	4
PA14_58010	3
PA14_58030,fumC	10
PA14_58040	0
PA14_58050,pmbA	229
PA14_58060	38
PA14_58070	578
PA14_58080	319
PA14_58090	319
PA14_58100,cafA	267
PA14_58110,maf	30
PA14_58120,mreD	55
PA14_58130,mreC	120
PA14_58150,mreB	380
PA14_58170,gatC	47
PA14_58180,gatA	273
PA14_58190,gatB	475
PA14_58210	20
PA14_58220	8
PA14_58230	54
PA14_58240	60
PA14_58250	543
PA14_58260	61
PA14_58270	224
PA14_58290	65
PA14_58300	438
PA14_58320	453
PA14_58330	325
PA14_58350	122
PA14_58360	49
PA14_58375	38
PA14_58380	10
PA14_58390	159
PA14_58410	30
PA14_58420	85
PA14_58440	70
PA14_58450,dppC	34
PA14_58470,dppD	42
PA14_58490,dppF	49
PA14_58500	2
PA14_58510	10
PA14_58515	14
PA14_58530	17
PA14_58540	68
PA14_58550,lpxO1	100
PA14_58560,piuB	33
PA14_58570,piuA	17
PA14_58580,piuC	5
PA14_58600	3
PA14_58610	63
PA14_58620	10
PA14_58630,speC	430
PA14_58650	95
PA14_58660,ampE	87
PA14_58670,ampD	52
PA14_58690	1109
PA14_58700,nadC	45
PA14_58710	166
PA14_58720	132
PA14_58730,pilA	1322
PA14_58740	20
PA14_58750,pilB	859
PA14_58760,pilC	638
PA14_58770,pilD	208
PA14_58780,coaE	84
PA14_58790	9
PA14_58800	8
PA14_58810	49
PA14_58820	65
PA14_58830	44
PA14_58840	77
PA14_58850	32
PA14_58860	6
PA14_58870,ndh	219
PA14_58880	46
PA14_58890	5
PA14_58900	33
PA14_58910	5
PA14_58920	14
PA14_58930	1
PA14_58940	0
PA14_58950	9
PA14_58960	1
PA14_58970	11
PA14_58980	1
PA14_58990	26
PA14_59000	7
PA14_59010	7
PA14_59020	11
PA14_59030	4
PA14_59050	87
PA14_59060	7
PA14_59070	68
PA14_59090	24
PA14_59100	24
PA14_59110	10
PA14_59120	37
PA14_59130	34
PA14_59140	15
PA14_59150	39
PA14_59160	8
PA14_59170	64
PA14_59180	22
PA14_59190	248
PA14_59200	54
PA14_59210	16
PA14_59220	383
PA14_59230	16
PA14_59240,pilL2	7
PA14_59250,pilN2	6
PA14_59270,pilO2	12
PA14_59280,pilP2	2
PA14_59290,pilQ2	13
PA14_59310,pilR2	10
PA14_59320,pilS2	20
PA14_59340,pilT2	30
PA14_59350,pilV2	15
PA14_59360,pilM2	3
PA14_59370	35
PA14_59380	99
PA14_59390	7
PA14_59400	349
PA14_59410	12
PA14_59430	53
PA14_59440	48
PA14_59470	75
PA14_59480	38
PA14_59490	9
PA14_59500	13
PA14_59510	24
PA14_59520	11
PA14_59530	15
PA14_59540	35
PA14_59550	315
PA14_59560	1
PA14_59570	1
PA14_59580	213
PA14_59590	135
PA14_59600	18
PA14_59610	395
PA14_59620	517
PA14_59630	336
PA14_59640	13
PA14_59650	5
PA14_59660	0
PA14_59670	3
PA14_59680	6
PA14_59690	15
PA14_59700	10
PA14_59710,cupD1	23
PA14_59720,cupD2	2
PA14_59735,cupD3	13
PA14_59750,cupD4	4
PA14_59760,cupD5	11
PA14_59770,rcsB	112
PA14_59780,rcsC	306
PA14_59790,pvrR	172
PA14_59800	237
PA14_59820	7
PA14_59830	29
PA14_59840	381
PA14_59845	96
PA14_59850	9
PA14_59860	1
PA14_59870	6
PA14_59880	4
PA14_59890	2
PA14_59900	13
PA14_59910	9
PA14_59920	9
PA14_59930	5
PA14_59940	55
PA14_59950	24
PA14_59960	11
PA14_59970	134
PA14_59980	1
PA14_59990	4
PA14_60000	32
PA14_60010	5
PA14_60020	27
PA14_60030	579
PA14_60040	29
PA14_60050	11
PA14_60060	4
PA14_60070	773
PA14_60080	961
PA14_60090	199
PA14_60100,dtd	210
PA14_60110	399
PA14_60120,dcd2	301
PA14_60130	143
PA14_60140	104
PA14_60150	19
PA14_60160	13
PA14_60180	139
PA14_60190,clpB	2397
PA14_60200	40
PA14_60210,rluD	72
PA14_60230,comL	232
PA14_60240	9
PA14_60250,pilS	69
PA14_60260,pilR	81
PA14_60270	94
PA14_60280,fimU	94
PA14_60290,pilW	117
PA14_60300,pilX	76
PA14_60310,pilY1	750
PA14_60320,pilE	51
PA14_60330,ispH	103
PA14_60350	144
PA14_60360,lspA	291
PA14_60370,ileS	1141
PA14_60380,ribF	246
PA14_60390,mviN	81
PA14_60400,rpsT	71
PA14_60410	66
PA14_60420,proB	195
PA14_60445,obgE	629
PA14_60450,rpmA	165
PA14_60460,rplU	1391
PA14_60470,ispB	127
PA14_60480	11
PA14_60490	121
PA14_60500,fklB	74
PA14_60520	149
PA14_60530	42
PA14_60540	46
PA14_60550	515
PA14_60560	34
PA14_60570	609
PA14_60580	186
PA14_60590	45
PA14_60600,rtcR	57
PA14_60620	6
PA14_60630	35
PA14_60650	29
PA14_60660	64
PA14_60670,rtcA	13
PA14_60690	0
PA14_60700,ccpR	367
PA14_60710,gdhA	540
PA14_60730	53
PA14_60750,pra	283
PA14_60760	27
PA14_60770	36
PA14_60780	26
PA14_60790	47
PA14_60800	812
PA14_60810,nfxB	6
PA14_60820,oprJ	32
PA14_60830,mexD	72
PA14_60850,mexC	54
PA14_60860,nfxB	39
PA14_60870,morA	313
PA14_60890,glyA	158
PA14_60900	16
PA14_60920	125
PA14_60930	45
PA14_60950,cstA	843
PA14_60960	1124
PA14_60970	124
PA14_60990,radA	44
PA14_61000	5
PA14_61010	67
PA14_61020,ankB	11
PA14_61040,katB	72
PA14_61050,mscL	256
PA14_61060,fnr-2	60
PA14_61080,dctP	43
PA14_61090	22
PA14_61110	4
PA14_61120	57
PA14_61130	253
PA14_61140	22
PA14_61150	106
PA14_61170	7
PA14_61180	11
PA14_61190	214
PA14_61200	1036
PA14_61210,hprA	9
PA14_61220,rsmC	26
PA14_61250,lysP	61
PA14_61260	1
PA14_61270	28
PA14_61280	47
PA14_61290	153
PA14_61300	169
PA14_61320	16
PA14_61330,mgtC	8
PA14_61340	14
PA14_61350	32
PA14_61360	71
PA14_61370	11
PA14_61380	58
PA14_61390	73
PA14_61400,mqoB	419
PA14_61410	44
PA14_61430	18
PA14_61440	37
PA14_61450	12
PA14_61460,hpt	54
PA14_61470,upp	48
PA14_61480,uraA	77
PA14_61500	59
PA14_61510	12
PA14_61520	21
PA14_61530,csuC	20
PA14_61540,csuD	26
PA14_61550	10
PA14_61560	7
PA14_61580,hemH	90
PA14_61590	92
PA14_61600	140
PA14_61610	29
PA14_61620	14
PA14_61640,phr	31
PA14_61650,pagL	304
PA14_61660,murI	72
PA14_61670,moeB	92
PA14_61680	53
PA14_61700,prfA	105
PA14_61710,hemA	128
PA14_61720	216
PA14_61740,lolB	73
PA14_61750,ipk	609
PA14_61760	221
PA14_61770,prs	674
PA14_61780,rplY	1191
PA14_61790,pth	172
PA14_61820,ychF	241
PA14_61830	141
PA14_61840,vapI	114
PA14_61850,iutA	29
PA14_61860,yadF	77
PA14_61870	49
PA14_61880,rimI	42
PA14_61890	31
PA14_61910	4
PA14_61920	6
PA14_61940	20
PA14_61950	64
PA14_61960	24
PA14_61980	34
PA14_61990	199
PA14_62000,hitA	60
PA14_62010,hitB	13
PA14_62020	285
PA14_62030	77
PA14_62040	186
PA14_62050,5S-rRNA	3738
PA14_62060,23S-rRNA	254712
PA14_62070	49
PA14_62080	23
PA14_62090,16S-rRNA	41602
PA14_62100	21
PA14_62110	47
PA14_62120,pssA	282
PA14_62130,ilvC	1628
PA14_62150,ilvH	903
PA14_62160,ilvI	1450
PA14_62170	59
PA14_62180	33
PA14_62190	67
PA14_62200,mrcB	264
PA14_62230	527
PA14_62240	82
PA14_62250	38
PA14_62260	39
PA14_62270,phuW	65
PA14_62280,hmuV	20
PA14_62290,phuU	34
PA14_62300,phuT	18
PA14_62330,phuS	21
PA14_62350,phuR	24
PA14_62360	7
PA14_62370	5
PA14_62380	33
PA14_62390	115
PA14_62400,yfdZ	120
PA14_62410	52
PA14_62420	184
PA14_62430	23
PA14_62440,yieG	78
PA14_62450,trmA	63
PA14_62470,sfsA	37
PA14_62480,aspC	83
PA14_62490,dksA	1248
PA14_62510,yadB	17
PA14_62520	5
PA14_62530,cbrA	546
PA14_62540,cbrB	699
PA14_62560,pcnB	269
PA14_62570,folK	17
PA14_62580,panB	86
PA14_62590,panC	73
PA14_62600,panD	31
PA14_62620,pgi	290
PA14_62630,acsB	143
PA14_62640	22
PA14_62650	861
PA14_62660	216
PA14_62670	10
PA14_62680	327
PA14_62690	3401
PA14_62710,pnp	1506
PA14_62720,rpsO	941
PA14_62730,truB	1414
PA14_62740,rbfA	194
PA14_62760,infB	2666
PA14_62770,nusA	2164
PA14_62780,yhbC	309
PA14_62790	213
PA14_62800	43
PA14_62810,secG	656
PA14_62830,tpiA	634
PA14_62840,glmM	790
PA14_62850,folP	412
PA14_62860,ftsH	3441
PA14_62870,rrmJ	171
PA14_62880,yhbY	139
PA14_62890	159
PA14_62900,greA	334
PA14_62910,carB	1418
PA14_62920,yeaS	228
PA14_62930,carA	356
PA14_62940,dapB	272
PA14_62960,dnaJ	785
PA14_62970,dnaK	3942
PA14_62990,grpE	432
PA14_63010,recN	78
PA14_63020,fur	286
PA14_63030,omlA	139
PA14_63040,yfjF	42
PA14_63050,yfjG	195
PA14_63060,smpB	220
PA14_63070,pdhR	66
PA14_63080,lldP	51
PA14_63090,lldD	18
PA14_63100	76
PA14_63110	1
PA14_63120	6
PA14_63130	30
PA14_63150,pmrA	16
PA14_63160,pmrB	20
PA14_63170,cueR	211
PA14_63190	4
PA14_63200	57
PA14_63210	75
PA14_63220	19
PA14_63230,yedA	11
PA14_63240	14
PA14_63250,yfcY	44
PA14_63270,fabG	43
PA14_63280	146
PA14_63290,phaJ3	13
PA14_63300	7
PA14_63310,smtA	15
PA14_63320	14
PA14_63330	5
PA14_63340	66
PA14_63350	24
PA14_63360	9
PA14_63370	14
PA14_63380	7
PA14_63390	28
PA14_63410	26
PA14_63420	7
PA14_63430	8
PA14_63440	3
PA14_63450	15
PA14_63460	39
PA14_63470	28
PA14_63480	3
PA14_63500	10
PA14_63520	3
PA14_63530,selB	42
PA14_63540,selA	44
PA14_63550,fdhE	13
PA14_63570,fdnI	87
PA14_63580,fdnH	66
PA14_63605,fdnG	915
PA14_63620,lipC	0
PA14_63640,fadH2	2
PA14_63650	14
PA14_63660	6
PA14_63680	2
PA14_63700	3
PA14_63710,gtrB	3
PA14_63720	0
PA14_63730	8
PA14_63740	1
PA14_63750	5
PA14_63770	0
PA14_63780	5
PA14_63800,mgtA	46
PA14_63820	55
PA14_63830	16
PA14_63840	3
PA14_63850,lpd3	31
PA14_63860	5
PA14_63880	12
PA14_63890	8
PA14_63900	103
PA14_63910	4
PA14_63920	13
PA14_63940	2
PA14_63960	10
PA14_63970	25
PA14_63990,speA	236
PA14_64000	41
PA14_64010	104
PA14_64030	442
PA14_64050	833
PA14_64060,ctpL	72
PA14_64080,dipZ	94
PA14_64090,aroQ1	144
PA14_64100,accB	394
PA14_64110,accC	693
PA14_64120	19
PA14_64140,prmA	17
PA14_64170	91
PA14_64180,yhdG	330
PA14_64190,fis	65
PA14_64200,purH	251
PA14_64220,purD	103
PA14_64230,retS	347
PA14_64240	9
PA14_64260	0
PA14_64270	6
PA14_64280	1
PA14_64290	1
PA14_64300	5
PA14_64310	3
PA14_64320	24
PA14_64335,ureD	15
PA14_64350,ureA	18
PA14_64360,yncA	27
PA14_64370,ureB	11
PA14_64390,ureC	61
PA14_64400	27
PA14_64410,ybiI	17
PA14_64420	1
PA14_64430	23
PA14_64440,bcpA	60
PA14_64450,yegD	25
PA14_64460,psiF	179
PA14_64470	17
PA14_64480,osmE	207
PA14_64490	9
PA14_64500	28
PA14_64510,yhjG	160
PA14_64520	223
PA14_64530	27
PA14_64540	8
PA14_64550	2
PA14_64560	0
PA14_64570,irlR	21
PA14_64580	5
PA14_64590	17
PA14_64610	16
PA14_64620	2
PA14_64640	4
PA14_64650,ureE	10
PA14_64660,ureF	5
PA14_64670,ureG	10
PA14_64680,ureJ	4
PA14_64690	0
PA14_64700	0
PA14_64710	7
PA14_64720,opdK	12
PA14_64740,pchA	38
PA14_64750,benK	24
PA14_64770,mdlC	5
PA14_64780	6
PA14_64790,vanK	2
PA14_64800,vanA	3
PA14_64810,vanB	4
PA14_64820,vanR	22
PA14_64840	36
PA14_64850	1
PA14_64860,livF	15
PA14_64870	14
PA14_64880,braE	14
PA14_64890	26
PA14_64900	141
PA14_64910	16
PA14_64920	405
PA14_64930	116
PA14_64940	152
PA14_64950,pncA	19
PA14_64960,pncB1	71
PA14_64980,nadE	24
PA14_64990	2
PA14_65000,azu	1228
PA14_65010	20
PA14_65030	58
PA14_65040	99
PA14_65050	19
PA14_65060	41
PA14_65080,ygiR	215
PA14_65090	615
PA14_65110,alr	42
PA14_65130,dnaB	240
PA14_65150,rplI	859
PA14_65160	969
PA14_65170,rpsR	992
PA14_65180,rpsF	2275
PA14_65190,yjfH	124
PA14_65200,rnr	942
PA14_65210	56
PA14_65220	46
PA14_65230,purA	1140
PA14_65250,hisZ	326
PA14_65260	86
PA14_65270,hflC	650
PA14_65280,hflK	1275
PA14_65300,hflX	819
PA14_65310,hfq	964
PA14_65320,miaA	739
PA14_65350,mutL	317
PA14_65370,amiB	396
PA14_65380	365
PA14_65390,yjeF	71
PA14_65400,yjeS	54
PA14_65410,orn	108
PA14_65420	65
PA14_65430,motB	169
PA14_65450,motA	301
PA14_65470	74
PA14_65480,rhdA	45
PA14_65500,psd	84
PA14_65520	196
PA14_65540,fimX	383
PA14_65560,serB	118
PA14_65570	272
PA14_65580,ybcI	11
PA14_65590	136
PA14_65605,parC	557
PA14_65630	56
PA14_65640	56
PA14_65660,parE	382
PA14_65670	11
PA14_65690,icc	25
PA14_65700	48
PA14_65710,aspP	150
PA14_65720	116
PA14_65740,thiC	532
PA14_65750,ompH	215
PA14_65760	13
PA14_65770,aspC	15
PA14_65795	6
PA14_65810	1
PA14_65820	7
PA14_65840	1
PA14_65850,rocE	2
PA14_65860	26
PA14_65870	7
PA14_65880,dmsR	16
PA14_65900	21
PA14_65920	5
PA14_65940	7
PA14_65950	6
PA14_65960,waaA	23
PA14_65970	6
PA14_65990,qacH	0
PA14_66000	41
PA14_66010	65
PA14_66020	84
PA14_66040	17
PA14_66050	30
PA14_66060,rfaE	249
PA14_66080,msbA	227
PA14_66090	33
PA14_66100	127
PA14_66110	343
PA14_66120	368
PA14_66140	187
PA14_66150	159
PA14_66160	276
PA14_66170	1018
PA14_66190	243
PA14_66200,wapQ	149
PA14_66210,waaX	218
PA14_66220,waaP	426
PA14_66230,waaG	180
PA14_66240,waaC	253
PA14_66250,waaF	274
PA14_66260,ilvE	740
PA14_66270,glnE	592
PA14_66290,aceE	3563
PA14_66310,aceF	1239
PA14_66320	231
PA14_66330,msrA	130
PA14_66340	72
PA14_66350	14
PA14_66380,cvrA	98
PA14_66400,aefA	191
PA14_66410	42
PA14_66420,ytnM	27
PA14_66440,metY	53
PA14_66450	18
PA14_66460	197
PA14_66480	191
PA14_66490,ynfL	7
PA14_66510,ynfM	77
PA14_66520	1
PA14_66530	1
PA14_66540	7
PA14_66550,hemE	129
PA14_66560,gltD	280
PA14_66570,gltB	914
PA14_66580	589
PA14_66600,aroB	439
PA14_66610,aroK	157
PA14_66620,pilQ	1439
PA14_66630,pilP	206
PA14_66640,pilO	324
PA14_66650,pilN	255
PA14_66660,pilM	996
PA14_66670,ponA	512
PA14_66680,maeB	819
PA14_66690	175
PA14_66700	322
PA14_66710,rpmE	209
PA14_66720,priA	39
PA14_66750,argS	377
PA14_66760	30
PA14_66770,hslV	153
PA14_66790,hslU	423
PA14_66800	64
PA14_66820,phaC1	276
PA14_66830,phaD	156
PA14_66840,phaC2	442
PA14_66850,phaD	98
PA14_66875,phaF	3414
PA14_66880,phaI	1802
PA14_66890	52
PA14_66900,ubiE	177
PA14_66910	65
PA14_66920,ubiB	261
PA14_66940,hisI	240
PA14_66950,hisE	149
PA14_66960,tatA	187
PA14_66970,tatB	40
PA14_66980,tatC	267
PA14_66990	22
PA14_67010	19
PA14_67020	58
PA14_67030	67
PA14_67040	78
PA14_67050	166
PA14_67065,mdoH	720
PA14_67090,mdoG	946
PA14_67100,dtD	52
PA14_67110,pap	133
PA14_67120	16
PA14_67130,ybeJ	34
PA14_67140	8
PA14_67150	7
PA14_67170	20
PA14_67180	152
PA14_67190	139
PA14_67200	164
PA14_67210	321
PA14_67220	346
PA14_67230	269
PA14_67240,hutG	38
PA14_67250,hutI	29
PA14_67260	37
PA14_67270,proV	30
PA14_67280,proW	56
PA14_67300,proX	15
PA14_67310,hutT	15
PA14_67320,hutH	10
PA14_67340,codB	12
PA14_67350,hutU	16
PA14_67370	21
PA14_67380	6
PA14_67400	53
PA14_67410	11
PA14_67420,hutC	38
PA14_67440	4
PA14_67450,blc	80
PA14_67460	109
PA14_67470	56
PA14_67490,fbp	221
PA14_67500,gloA3	146
PA14_67510,estA	230
PA14_67520	84
PA14_67530	204
PA14_67540	55
PA14_67550	2
PA14_67560,typA	701
PA14_67580,thiI	138
PA14_67600,glnA	1049
PA14_67620	2
PA14_67630	127
PA14_67640	33
PA14_67650	12
PA14_67670,ntrB	68
PA14_67680,ntrC	68
PA14_67700	21
PA14_67710,trmH	10
PA14_67720,secB	166
PA14_67740,grx	34
PA14_67750,yigN	117
PA14_67770,pgm	300
PA14_67780	4
PA14_67790	126
PA14_67810,ctpA	219
PA14_67820	9
PA14_67830	129
PA14_67840	24
PA14_67850	32
PA14_67860	16
PA14_67880,hisF1	61
PA14_67890,hisA	55
PA14_67900	36
PA14_67920,hisH	71
PA14_67930,hisB	111
PA14_67940	0
PA14_67960	6
PA14_67970	10
PA14_67975	432
PA14_67990,mutY	154
PA14_68000	109
PA14_68030	16
PA14_68040,fixR	55
PA14_68050	24
PA14_68060	69
PA14_68070	183
PA14_68080	27
PA14_68090	10
PA14_68100	10
PA14_68110	52
PA14_68120,opmG	52
PA14_68130,emrA	73
PA14_68140,emrB	37
PA14_68150	152
PA14_68170,rmlB	745
PA14_68190,rmlD	407
PA14_68200,rmlA	682
PA14_68210,rmlC	836
PA14_68230	101
PA14_68250	81
PA14_68260	218
PA14_68280	36
PA14_68290	82
PA14_68300,arcD	1108
PA14_68330,arcA	920
PA14_68340,arcB	1213
PA14_68350,arcC	380
PA14_68360	327
PA14_68370,cysQ	62
PA14_68380,nudE	84
PA14_68390	18
PA14_68400,ygaU	422
PA14_68420	38
PA14_68430,fdhD	176
PA14_68440	737
PA14_68450	37
PA14_68460	6
PA14_68470	21
PA14_68480	27
PA14_68490	6
PA14_68500,attL	17
PA14_68510	38
PA14_68530	19
PA14_68550	11
PA14_68560,drgA	53
PA14_68570	12
PA14_68580,pckA	520
PA14_68610,hslO	90
PA14_68620	37
PA14_68630,hslR	42
PA14_68640	11
PA14_68660,rimK	74
PA14_68670	59
PA14_68680,envZ	90
PA14_68700,ompR	144
PA14_68710,tex	178
PA14_68720	8
PA14_68730,gshA	124
PA14_68740,argA	87
PA14_68750,marC	41
PA14_68770,argE	116
PA14_68780	63
PA14_68800	248
PA14_68810	129
PA14_68820,gspE	346
PA14_68830	9
PA14_68840	37
PA14_68850,gcvP1	349
PA14_68860,gcvH1	269
PA14_68870,gcvT	161
PA14_68890	17
PA14_68900,fbpA	20
PA14_68920	24
PA14_68930	121
PA14_68940	349
PA14_68955	70
PA14_68970	77
PA14_68980,ubiH	206
PA14_69000,pepP	456
PA14_69010	115
PA14_69020	280
PA14_69030	196
PA14_69040	35
PA14_69050	42
PA14_69060,yhhJ	341
PA14_69070,yhiH	460
PA14_69090,yhiI	430
PA14_69100	49
PA14_69110	39
PA14_69130,glpT	194
PA14_69140,ubiB	63
PA14_69150,ubiD	260
PA14_69170	58
PA14_69190,rho	659
PA14_69200,trxA	480
PA14_69220,ppx	406
PA14_69230,ppk	1473
PA14_69240,hemB	732
PA14_69250	97
PA14_69260,elbB	164
PA14_69270	3
PA14_69280	47
PA14_69300	61
PA14_69310	79
PA14_69320	129
PA14_69330	121
PA14_69340	313
PA14_69350	36
PA14_69370,algP	1033
PA14_69380,fkl	28
PA14_69390,algQ	669
PA14_69400,dsbH	71
PA14_69420,hemY	428
PA14_69430,hemX	353
PA14_69440,hemD	204
PA14_69450,hemC	165
PA14_69470,algR	1094
PA14_69480,algZ	535
PA14_69500,argH	72
PA14_69510	239
PA14_69520	428
PA14_69540	40
PA14_69550	83
PA14_69560,hcpB	216
PA14_69570,corA	104
PA14_69580	44
PA14_69590	95
PA14_69600	85
PA14_69610,cyaA	125
PA14_69620	30
PA14_69630,rnk	110
PA14_69640,cyaY	43
PA14_69660,lppL	33
PA14_69670,lysA	148
PA14_69690,dapF	125
PA14_69700	124
PA14_69710,xerC	38
PA14_69720	10
PA14_69740	2
PA14_69750	60
PA14_69760	12
PA14_69770	138
PA14_69780	59
PA14_69795,amtB	194
PA14_69810,glnK	349
PA14_69820	38
PA14_69840	64
PA14_69850,betT	249
PA14_69870,pchP	66
PA14_69880	10
PA14_69890	3
PA14_69900	174
PA14_69910,rep	157
PA14_69925,poxB	32
PA14_69940,xpt	49
PA14_69950	97
PA14_69970,cycB	222
PA14_69980	284
PA14_69990,dadX	585
PA14_70010	245
PA14_70040,dadA	1253
PA14_70050	119
PA14_70060	60
PA14_70070	170
PA14_70080,lrp	49
PA14_70100	35
PA14_70110	71
PA14_70120	6
PA14_70140,aldH	246
PA14_70160,bioA	21
PA14_70170	6
PA14_70180,rpmG	89
PA14_70190,rpmB	926
PA14_70200	319
PA14_70220	15
PA14_70230,radC	21
PA14_70240,coaC	193
PA14_70260,dut	72
PA14_70270,algC	712
PA14_70280,argB	473
PA14_70290	40
PA14_70300	4
PA14_70310	7
PA14_70330	4
PA14_70340	1
PA14_70350	103
PA14_70360	156
PA14_70370,pyrE	122
PA14_70390,crc	573
PA14_70400	136
PA14_70420,rph	253
PA14_70430,yicC	74
PA14_70440,gmk	79
PA14_70450,rpoZ	502
PA14_70470,spoT	686
PA14_70480	119
PA14_70490	175
PA14_70510	2
PA14_70530	22
PA14_70550	31
PA14_70560	160
PA14_70570,recG	158
PA14_70580	439
PA14_70590	29
PA14_70600,hupA	48
PA14_70620,rubB	168
PA14_70630,rubA2	44
PA14_70640,rubA1	19
PA14_70650,glcG	6
PA14_70670,glcF	8
PA14_70680,glcE	8
PA14_70690,glcD	108
PA14_70710,glcC	19
PA14_70720,ubiC	7
PA14_70730,ubiA	78
PA14_70740	175
PA14_70750,phoB	592
PA14_70760,phoR	370
PA14_70770	235
PA14_70780	77
PA14_70790	318
PA14_70800,phoU	1789
PA14_70810,pstB	1794
PA14_70830,pstA	1894
PA14_70850,pstC	1942
PA14_70860	5442
PA14_70870,5S-rRNA	3709
PA14_70880,23S-rRNA	243665
PA14_70890	26
PA14_70900	9
PA14_70910,16S-rRNA	39021
PA14_70920	64
PA14_70930	97
PA14_70940,betA	40
PA14_70950,betB	49
PA14_70970,betI	30
PA14_70980,betT1	1
PA14_71000	136
PA14_71020	73
PA14_71030	189
PA14_71060,sdaB	12
PA14_71070	67
PA14_71080	6
PA14_71090,yeiE	5
PA14_71100,yeiH	65
PA14_71110	0
PA14_71120	0
PA14_71140	1
PA14_71150	0
PA14_71160	0
PA14_71170	30
PA14_71180	14
PA14_71190	0
PA14_71200	4
PA14_71210	8
PA14_71220,cls	106
PA14_71230	14
PA14_71240	24
PA14_71250	1
PA14_71260	9
PA14_71280	3
PA14_71300,etfA-1	0
PA14_71310,etfB-1	4
PA14_71320	22
PA14_71330	4
PA14_71340	0
PA14_71350	0
PA14_71360	7
PA14_71370	0
PA14_71380	5
PA14_71390	106
PA14_71400	4
PA14_71410	33
PA14_71420	4
PA14_71430	62
PA14_71440,ltaA	193
PA14_71450	59
PA14_71460,glyA1	17
PA14_71470,soxB	5
PA14_71490,soxD	0
PA14_71500,soxA	3
PA14_71510,soxG	13
PA14_71530,purU2	2
PA14_71560,fdhA	9
PA14_71570	81
PA14_71580	60
PA14_71590	147
PA14_71600,purK	203
PA14_71620,purE	70
PA14_71630,adhA	703
PA14_71640	34
PA14_71650,aspA	122
PA14_71670	55
PA14_71680	3
PA14_71690	3
PA14_71700	2
PA14_71710,mtr	27
PA14_71720,oadA	704
PA14_71740,accC	384
PA14_71750	33
PA14_71760	52
PA14_71780	141
PA14_71800,zwf	126
PA14_71820,yegQ	51
PA14_71830	21
PA14_71840	244
PA14_71850	20
PA14_71870,uvrD	253
PA14_71880	23
PA14_71890,psecoA	45
PA14_71900	618
PA14_71910,wbpZ	219
PA14_71920,wbpY	143
PA14_71930,wbpX	86
PA14_71940,wzt	86
PA14_71960,wzm	79
PA14_71970,wbpW	129
PA14_71990,gmd	283
PA14_72000,rmd	104
PA14_72010	117
PA14_72020	30
PA14_72030	32
PA14_72040	21
PA14_72050	17
PA14_72060	33
PA14_72070	68
PA14_72080	13
PA14_72090	15
PA14_72110	40
PA14_72130	17
PA14_72140	22
PA14_72150	1
PA14_72170,citM	2
PA14_72180	3
PA14_72200,prfH	3
PA14_72210	31
PA14_72220	32
PA14_72230	121
PA14_72250	220
PA14_72260	600
PA14_72280,citA	37
PA14_72300	36
PA14_72320	33
PA14_72340,gltP	96
PA14_72350	1
PA14_72360	876
PA14_72370	347
PA14_72380,algB	179
PA14_72390,kinB	125
PA14_72400	37
PA14_72410	29
PA14_72420	317
PA14_72430	255
PA14_72450,dsbA	759
PA14_72460,cc4	409
PA14_72470	98
PA14_72480,engB	128
PA14_72490,polA	376
PA14_72500	186
PA14_72510,thrB	80
PA14_72520	407
PA14_72540	824
PA14_72550,znuA	109
PA14_72560,np20	62
PA14_72580,znuC	36
PA14_72590,znuB	21
PA14_72600	32
PA14_72620,metN	54
PA14_72630	73
PA14_72640	212
PA14_72650	8
PA14_72660	16
PA14_72690	6
PA14_72700	11
PA14_72710	16
PA14_72720,dctD	71
PA14_72740,dctB	37
PA14_72750	33
PA14_72760	72
PA14_72770	17
PA14_72780,pdxY	42
PA14_72790	68
PA14_72800,rosB	85
PA14_72810	34
PA14_72820	55
PA14_72830	12
PA14_72840	85
PA14_72850	34
PA14_72870	26
PA14_72880,fabG	16
PA14_72890	16
PA14_72900	427
PA14_72920	272
PA14_72930	511
PA14_72940	189
PA14_72960,kgtP	85
PA14_72970,tonB	52
PA14_72980	37
PA14_72990	12
PA14_73000	19
PA14_73010	22
PA14_73020	2
PA14_73030	9
PA14_73040,amiA	6
PA14_73050	2
PA14_73060,cynT	5
PA14_73070,pyrQ	1
PA14_73090	45
PA14_73100	7
PA14_73110	73
PA14_73120	131
PA14_73140	1018
PA14_73150	79
PA14_73160	4
PA14_73170,glmS	174
PA14_73190,glmR	28
PA14_73200	46
PA14_73220,glmU	397
PA14_73230,atpC	189
PA14_73240,atpD	3199
PA14_73250,atpG	2687
PA14_73260,atpA	3918
PA14_73280,atpH	992
PA14_73290,atpF	2358
PA14_73300,atpE	1032
PA14_73310,atpB	1300
PA14_73320,atpI	208
PA14_73330,parB	365
PA14_73350,soj	159
PA14_73360,gidB	113
PA14_73370,gidA	430
PA14_73390	3
PA14_73400,trmE	141
PA14_73410,yidC	485
PA14_73420,rnpA	453
PA1530.1,4.5S	505
PA1555.1,ccoQ1	316
PA1781.1,P11	0
PA1796.2,tRNA-His	40
PA1838-PA1839,sRNA1059	111
PA2570.1a,tRNA-Leu	10
PA2570.1b,tRNA-Leu	1
PA2581-PA2582,sRNA1466	30
PA2744.1,P13	2
PA2750-PA2751,sRNA1559	19
PA2852-PA2853,P14	3060
PA2942.1,P15	23
PA2958.1,rgsA	21
PA3001-PA3002,sRNA1714	13
PA3133.1,tRNA-Glu	64
PA3133.2,tRNA-Ala	417
PA3304.1,P18	5
PA3305.1,phrS	875
PA3366.1,amiEleader	3
PA3621.1,rsmZ	2958
PA3964-PA3965,P24	231
PA4055-PA4056,sRNA2315	79
PA4270.1,P26	31
PA4272.1,P27	11
PA4406.1,72/101	156
PA4421.1,rnpB	10022
PA4451.1,P35	1
PA4628-PA4629,sRNA2626	5
PA4704.1,prrF1	2
PA4704.2,prrF2	2
PA4704-PA4705,prrH	0
PA4726.1,P36	0
PA4726.11,crcZ	8880
PA4726.2,P30	2
PA4758.1,P32	5
PA5181.1,P34	23
PA5183-PA5184,phrX	2
PA5204-PA5205,phrY	2
PA5227.1,ssrS	2205
PA5316.1,102/16	0
